%YAML 1.1
%TAG !u! tag:unity3d.com,2011:
--- !u!1 &5889573191614410956
GameObject:
  m_ObjectHideFlags: 0
  m_CorrespondingSourceObject: {fileID: 0}
  m_PrefabInstance: {fileID: 0}
  m_PrefabAsset: {fileID: 0}
  serializedVersion: 6
  m_Component:
  - component: {fileID: 5889573191614410962}
  - component: {fileID: 5889573191614410963}
  m_Layer: 0
  m_Name: PRUEBAS
  m_TagString: Untagged
  m_Icon: {fileID: 0}
  m_NavMeshLayer: 0
  m_StaticEditorFlags: 0
  m_IsActive: 1
--- !u!4 &5889573191614410962
Transform:
  m_ObjectHideFlags: 0
  m_CorrespondingSourceObject: {fileID: 0}
  m_PrefabInstance: {fileID: 0}
  m_PrefabAsset: {fileID: 0}
  m_GameObject: {fileID: 5889573191614410956}
  m_LocalRotation: {x: 0, y: 0, z: 0, w: 1}
  m_LocalPosition: {x: 2.5749345, y: 4.6600447, z: 2.9620705}
  m_LocalScale: {x: 1, y: 1, z: 1}
  m_Children: []
  m_Father: {fileID: 0}
  m_RootOrder: 0
  m_LocalEulerAnglesHint: {x: 0, y: 0, z: 0}
--- !u!114 &5889573191614410963
MonoBehaviour:
  m_ObjectHideFlags: 0
  m_CorrespondingSourceObject: {fileID: 0}
  m_PrefabInstance: {fileID: 0}
  m_PrefabAsset: {fileID: 0}
  m_GameObject: {fileID: 5889573191614410956}
  m_Enabled: 1
  m_EditorHideFlags: 0
  m_Script: {fileID: 11500000, guid: c93cdd436c2fe81448e0f17dc029dd3a, type: 3}
  m_Name: 
  m_EditorClassIdentifier: 
  objeto: {fileID: 2409160922429468767, guid: 2677b8fe6881b06429ad1d37e130f2e3, type: 3}
  habilidadesQuePondre:
  - {fileID: 11400000, guid: 4b033519f5ddc52429a9bcc2fead1051, type: 2}
  - {fileID: 11400000, guid: 5ff68c745e9c5f5439bd4d25e346c209, type: 2}
  - {fileID: 11400000, guid: 29b6c820221836d4eb1498af47f997eb, type: 2}
  - {fileID: 11400000, guid: 02705753ac2b0f449bc3c6552b290735, type: 2}
  armas:
  - {fileID: 11400000, guid: d386b0a5e2ed66c48802946a8d7463be, type: 2}
  - {fileID: 11400000, guid: ab91332777b4fd94187017866afd47ec, type: 2}
  tienda: {fileID: 0}
  player: {fileID: 0}
  actualizarUI: {fileID: 11400000, guid: fd6147db843a3d4448bee4827a6eef9a, type: 2}
