%YAML 1.1
%TAG !u! tag:unity3d.com,2011:
--- !u!114 &11400000
MonoBehaviour:
  m_ObjectHideFlags: 0
  m_CorrespondingSourceObject: {fileID: 0}
  m_PrefabInstance: {fileID: 0}
  m_PrefabAsset: {fileID: 0}
  m_GameObject: {fileID: 0}
  m_Enabled: 1
  m_EditorHideFlags: 0
  m_Script: {fileID: 11500000, guid: 7e48b4d4ed9eade4b980e384c04b034b, type: 3}
  m_Name: EliteCaster
  m_EditorClassIdentifier: 
  vida: 60
  damage: 30
  coins: 20
  forceResist: 10
  force: 15
