%YAML 1.1
%TAG !u! tag:unity3d.com,2011:
--- !u!114 &11400000
MonoBehaviour:
  m_ObjectHideFlags: 0
  m_CorrespondingSourceObject: {fileID: 0}
  m_PrefabInstance: {fileID: 0}
  m_PrefabAsset: {fileID: 0}
  m_GameObject: {fileID: 0}
  m_Enabled: 1
  m_EditorHideFlags: 0
  m_Script: {fileID: 11500000, guid: 7a9eea491e58ce147bc1d7a4b9f8b726, type: 3}
  m_Name: hook
  m_EditorClassIdentifier: 
  habilidad: 3
  modelo: {fileID: 8854431527591823335, guid: faf4e9f639e50c840aa28982952a11ce, type: 3}
  colorLuz: {r: 0.3584906, g: 0.34327164, b: 0.34327164, a: 0}
