{
  "ExternalFunctions": [
    {
      "Name": "Unity.Collections.LowLevel.Unsafe.UnsafeUtility::Malloc",
      "FullName": "Unity.Collections.LowLevel.Unsafe.UnsafeUtility.Malloc(long size, int alignment, Unity.Collections.Allocator allocator) -> void*_aef4d46f9ec6d18a03913cfa3cd76414"
    },
    {
      "Name": "Unity.Collections.LowLevel.Unsafe.UnsafeUtility::Free",
      "FullName": "Unity.Collections.LowLevel.Unsafe.UnsafeUtility.Free(void* memory, Unity.Collections.Allocator allocator) -> void_aef4d46f9ec6d18a03913cfa3cd76414"
    },
    {
      "Name": "Unity.Burst.LowLevel.BurstCompilerService::GetOrCreateSharedMemory",
      "FullName": "Unity.Burst.LowLevel.BurstCompilerService.GetOrCreateSharedMemory(ref UnityEngine.Hash128 key, uint size_of, uint alignment) -> void*_aef4d46f9ec6d18a03913cfa3cd76414"
    },
    {
      "Name": "Unity.Baselib.LowLevel.Binding::Baselib_Memory_GetPageSizeInfo",
      "FullName": "Unity.Baselib.LowLevel.Binding.Baselib_Memory_GetPageSizeInfo(Unity.Baselib.LowLevel.Binding.Baselib_Memory_PageSizeInfo* outPagesSizeInfo) -> void_aef4d46f9ec6d18a03913cfa3cd76414"
    },
    {
      "Name": "Unity.Baselib.LowLevel.Binding::Baselib_Memory_SetPageState",
      "FullName": "Unity.Baselib.LowLevel.Binding.Baselib_Memory_SetPageState(System.IntPtr addressOfFirstPage, ulong pageSize, ulong pageCount, Unity.Baselib.LowLevel.Binding.Baselib_Memory_PageState pageState, Unity.Baselib.LowLevel.Binding.Baselib_ErrorState* errorState) -> void_aef4d46f9ec6d18a03913cfa3cd76414"
    },
    {
      "Name": "burst_abort",
      "FullName": "unused.burst_abort(System.String errorId, System.String message) -> void"
    }
  ]
}