{
  "ExternalFunctions": [
    {
      "Name": "Unity.Collections.LowLevel.Unsafe.UnsafeUtility::MemCpyReplicate",
      "FullName": "Unity.Collections.LowLevel.Unsafe.UnsafeUtility.MemCpyReplicate(void* destination, void* source, int size, int count) -> void_aef4d46f9ec6d18a03913cfa3cd76414"
    },
    {
      "Name": "Unity.Collections.LowLevel.Unsafe.UnsafeUtility::Free",
      "FullName": "Unity.Collections.LowLevel.Unsafe.UnsafeUtility.Free(void* memory, Unity.Collections.Allocator allocator) -> void_aef4d46f9ec6d18a03913cfa3cd76414"
    },
    {
      "Name": "Unity.Collections.LowLevel.Unsafe.AtomicSafetyHandle::IsDefaultValue",
      "FullName": "Unity.Collections.LowLevel.Unsafe.AtomicSafetyHandle.IsDefaultValue(ref Unity.Collections.LowLevel.Unsafe.AtomicSafetyHandle handle) -> bool_aef4d46f9ec6d18a03913cfa3cd76414"
    },
    {
      "Name": "Unity.Collections.LowLevel.Unsafe.AtomicSafetyHandle::CheckReadAndThrowNoEarlyOut_Injected",
      "FullName": "Unity.Collections.LowLevel.Unsafe.AtomicSafetyHandle.CheckReadAndThrowNoEarlyOut_Injected(ref Unity.Collections.LowLevel.Unsafe.AtomicSafetyHandle handle) -> void_aef4d46f9ec6d18a03913cfa3cd76414"
    },
    {
      "Name": "Unity.Collections.LowLevel.Unsafe.AtomicSafetyHandle::CheckWriteAndThrowNoEarlyOut_Injected",
      "FullName": "Unity.Collections.LowLevel.Unsafe.AtomicSafetyHandle.CheckWriteAndThrowNoEarlyOut_Injected(ref Unity.Collections.LowLevel.Unsafe.AtomicSafetyHandle handle) -> void_aef4d46f9ec6d18a03913cfa3cd76414"
    },
    {
      "Name": "Unity.Collections.LowLevel.Unsafe.AtomicSafetyHandle::CheckWriteAndBumpSecondaryVersion_Injected",
      "FullName": "Unity.Collections.LowLevel.Unsafe.AtomicSafetyHandle.CheckWriteAndBumpSecondaryVersion_Injected(ref Unity.Collections.LowLevel.Unsafe.AtomicSafetyHandle handle) -> void_aef4d46f9ec6d18a03913cfa3cd76414"
    },
    {
      "Name": "Unity.Collections.LowLevel.Unsafe.UnsafeUtility::Malloc",
      "FullName": "Unity.Collections.LowLevel.Unsafe.UnsafeUtility.Malloc(long size, int alignment, Unity.Collections.Allocator allocator) -> void*_aef4d46f9ec6d18a03913cfa3cd76414"
    },
    {
      "Name": "Unity.Burst.LowLevel.BurstCompilerService::GetOrCreateSharedMemory",
      "FullName": "Unity.Burst.LowLevel.BurstCompilerService.GetOrCreateSharedMemory(ref UnityEngine.Hash128 key, uint size_of, uint alignment) -> void*_aef4d46f9ec6d18a03913cfa3cd76414"
    },
    {
      "Name": "burst_abort",
      "FullName": "unused.burst_abort(System.String errorId, System.String message) -> void"
    }
  ]
}