%YAML 1.1
%TAG !u! tag:unity3d.com,2011:
--- !u!114 &11400000
MonoBehaviour:
  m_ObjectHideFlags: 0
  m_CorrespondingSourceObject: {fileID: 0}
  m_PrefabInstance: {fileID: 0}
  m_PrefabAsset: {fileID: 0}
  m_GameObject: {fileID: 0}
  m_Enabled: 1
  m_EditorHideFlags: 0
  m_Script: {fileID: 11500000, guid: ad2aeaf4650a83e45a09c244bbed6029, type: 3}
  m_Name: mej dash 1
  m_EditorClassIdentifier: 
  habilidad: 11
  image: {fileID: 21300000, guid: bcaf3efa8e80d074e8ecaa5e5563fd8e, type: 3}
  precio: 100
  estado: 1
  upgrade: 10
  descripcion: mejora lo lejos que llega tu dash
