%YAML 1.1
%TAG !u! tag:unity3d.com,2011:
--- !u!114 &11400000
MonoBehaviour:
  m_ObjectHideFlags: 0
  m_CorrespondingSourceObject: {fileID: 0}
  m_PrefabInstance: {fileID: 0}
  m_PrefabAsset: {fileID: 0}
  m_GameObject: {fileID: 0}
  m_Enabled: 1
  m_EditorHideFlags: 0
  m_Script: {fileID: 11500000, guid: ad2aeaf4650a83e45a09c244bbed6029, type: 3}
  m_Name: mej speed 2
  m_EditorClassIdentifier: 
  habilidad: 6
  image: {fileID: 21300000, guid: 6dfae5df0d4c7844eada57abeccb44e8, type: 3}
  precio: 500
  estado: 2
  upgrade: 1
  descripcion: mejora la velocidad de movimiento
