%YAML 1.1
%TAG !u! tag:unity3d.com,2011:
--- !u!114 &11400000
MonoBehaviour:
  m_ObjectHideFlags: 0
  m_CorrespondingSourceObject: {fileID: 0}
  m_PrefabInstance: {fileID: 0}
  m_PrefabAsset: {fileID: 0}
  m_GameObject: {fileID: 0}
  m_Enabled: 1
  m_EditorHideFlags: 0
  m_Script: {fileID: 11500000, guid: ad2aeaf4650a83e45a09c244bbed6029, type: 3}
  m_Name: mej hook 1
  m_EditorClassIdentifier: 
  habilidad: 14
  image: {fileID: 21300000, guid: c5eecc3f7c74c1746baf174905ddb260, type: 3}
  precio: 500
  estado: 2
  upgrade: 0
  descripcion: permite que el gancho atraiga a los enemigos hacia ti (Q/gamepad left
    trigger)
