%YAML 1.1
%TAG !u! tag:unity3d.com,2011:
--- !u!114 &11400000
MonoBehaviour:
  m_ObjectHideFlags: 0
  m_CorrespondingSourceObject: {fileID: 0}
  m_PrefabInstance: {fileID: 0}
  m_PrefabAsset: {fileID: 0}
  m_GameObject: {fileID: 0}
  m_Enabled: 1
  m_EditorHideFlags: 0
  m_Script: {fileID: 11500000, guid: 69a1f3873dc89be49a7d24e5792febb6, type: 3}
  m_Name: party
  m_EditorClassIdentifier: 
  Members:
  - {fileID: 11400000, guid: f7b736aa1a8d61248be4fe24c27f64a7, type: 2}
  - {fileID: 11400000, guid: 63fdf79fa85e04d4d8745ebace8e5b66, type: 2}
  - {fileID: 11400000, guid: 9b435fa15536ae54b8c48657baba8b28, type: 2}
  gold: 45
  listaItems:
  - {fileID: 0}
  - {fileID: 0}
  - {fileID: 0}
  - {fileID: 0}
  - {fileID: 0}
  - {fileID: 0}
  - {fileID: 0}
  - {fileID: 0}
  - {fileID: 0}
  - {fileID: 0}
  - {fileID: 0}
  - {fileID: 0}
  - {fileID: 0}
  - {fileID: 0}
  - {fileID: 0}
  - {fileID: 0}
  - {fileID: 0}
  - {fileID: 0}
