%YAML 1.1
%TAG !u! tag:unity3d.com,2011:
--- !u!1 &172818
GameObject:
  m_ObjectHideFlags: 0
  m_CorrespondingSourceObject: {fileID: 0}
  m_PrefabInstance: {fileID: 0}
  m_PrefabAsset: {fileID: 0}
  serializedVersion: 6
  m_Component:
  - component: {fileID: 476448}
  - component: {fileID: 3397702}
  - component: {fileID: 2390402}
  m_Layer: 0
  m_Name: floor2
  m_TagString: Untagged
  m_Icon: {fileID: 0}
  m_NavMeshLayer: 0
  m_StaticEditorFlags: 0
  m_IsActive: 1
--- !u!4 &476448
Transform:
  m_ObjectHideFlags: 0
  m_CorrespondingSourceObject: {fileID: 0}
  m_PrefabInstance: {fileID: 0}
  m_PrefabAsset: {fileID: 0}
  m_GameObject: {fileID: 172818}
  m_LocalRotation: {x: 0, y: 0, z: 0, w: 1}
  m_LocalPosition: {x: 0, y: 0, z: 0}
  m_LocalScale: {x: 1, y: 1, z: 1}
  m_Children:
  - {fileID: 8495927664011029463}
  m_Father: {fileID: 0}
  m_RootOrder: 0
  m_LocalEulerAnglesHint: {x: 0, y: 0, z: 0}
--- !u!33 &3397702
MeshFilter:
  m_ObjectHideFlags: 0
  m_CorrespondingSourceObject: {fileID: 0}
  m_PrefabInstance: {fileID: 0}
  m_PrefabAsset: {fileID: 0}
  m_GameObject: {fileID: 172818}
  m_Mesh: {fileID: 4300092, guid: a7cc7f41ce50a474aa1df610be0b810f, type: 3}
--- !u!23 &2390402
MeshRenderer:
  m_ObjectHideFlags: 0
  m_CorrespondingSourceObject: {fileID: 0}
  m_PrefabInstance: {fileID: 0}
  m_PrefabAsset: {fileID: 0}
  m_GameObject: {fileID: 172818}
  m_Enabled: 1
  m_CastShadows: 1
  m_ReceiveShadows: 1
  m_DynamicOccludee: 1
  m_MotionVectors: 1
  m_LightProbeUsage: 1
  m_ReflectionProbeUsage: 1
  m_RayTracingMode: 2
  m_RayTraceProcedural: 0
  m_RenderingLayerMask: 1
  m_RendererPriority: 0
  m_Materials:
  - {fileID: 2100000, guid: aba23da4dc898e648b4aaad7117a85b9, type: 2}
  m_StaticBatchInfo:
    firstSubMesh: 0
    subMeshCount: 0
  m_StaticBatchRoot: {fileID: 0}
  m_ProbeAnchor: {fileID: 0}
  m_LightProbeVolumeOverride: {fileID: 0}
  m_ScaleInLightmap: 1
  m_ReceiveGI: 1
  m_PreserveUVs: 0
  m_IgnoreNormalsForChartDetection: 0
  m_ImportantGI: 0
  m_StitchLightmapSeams: 1
  m_SelectedEditorRenderState: 3
  m_MinimumChartSize: 4
  m_AutoUVMaxDistance: 0.5
  m_AutoUVMaxAngle: 89
  m_LightmapParameters: {fileID: 0}
  m_SortingLayerID: 0
  m_SortingLayer: 0
  m_SortingOrder: 0
  m_AdditionalVertexStreams: {fileID: 0}
--- !u!1001 &396809329754671817
PrefabInstance:
  m_ObjectHideFlags: 0
  serializedVersion: 2
  m_Modification:
    m_TransformParent: {fileID: 476448}
    m_Modifications:
    - target: {fileID: 8099203628167106646, guid: 806101f389acb1949bf5f44693759243, type: 3}
      propertyPath: InitialModule.startSize.scalar
      value: 3
      objectReference: {fileID: 0}
    - target: {fileID: 8099203628167106646, guid: 806101f389acb1949bf5f44693759243, type: 3}
      propertyPath: InitialModule.startSpeed.scalar
      value: 0.2
      objectReference: {fileID: 0}
    - target: {fileID: 8099203628167106646, guid: 806101f389acb1949bf5f44693759243, type: 3}
      propertyPath: InitialModule.startSize.minScalar
      value: 1.5
      objectReference: {fileID: 0}
    - target: {fileID: 8099203628167106646, guid: 806101f389acb1949bf5f44693759243, type: 3}
      propertyPath: InitialModule.startSpeed.minScalar
      value: 0.1
      objectReference: {fileID: 0}
    - target: {fileID: 8099203628167106646, guid: 806101f389acb1949bf5f44693759243, type: 3}
      propertyPath: InitialModule.startColor.maxColor.b
      value: 1
      objectReference: {fileID: 0}
    - target: {fileID: 8099203628167106646, guid: 806101f389acb1949bf5f44693759243, type: 3}
      propertyPath: InitialModule.startColor.maxColor.g
      value: 1
      objectReference: {fileID: 0}
    - target: {fileID: 8099203628167106646, guid: 806101f389acb1949bf5f44693759243, type: 3}
      propertyPath: InitialModule.startColor.maxColor.r
      value: 1
      objectReference: {fileID: 0}
    - target: {fileID: 8099203628167106646, guid: 806101f389acb1949bf5f44693759243, type: 3}
      propertyPath: InitialModule.gravityModifier.scalar
      value: 0.1
      objectReference: {fileID: 0}
    - target: {fileID: 8099203628182121406, guid: 806101f389acb1949bf5f44693759243, type: 3}
      propertyPath: m_Name
      value: PurpleFire
      objectReference: {fileID: 0}
    - target: {fileID: 8099203628182282526, guid: 806101f389acb1949bf5f44693759243, type: 3}
      propertyPath: m_RootOrder
      value: 0
      objectReference: {fileID: 0}
    - target: {fileID: 8099203628182282526, guid: 806101f389acb1949bf5f44693759243, type: 3}
      propertyPath: m_LocalScale.x
      value: 1
      objectReference: {fileID: 0}
    - target: {fileID: 8099203628182282526, guid: 806101f389acb1949bf5f44693759243, type: 3}
      propertyPath: m_LocalScale.y
      value: 1
      objectReference: {fileID: 0}
    - target: {fileID: 8099203628182282526, guid: 806101f389acb1949bf5f44693759243, type: 3}
      propertyPath: m_LocalScale.z
      value: 1
      objectReference: {fileID: 0}
    - target: {fileID: 8099203628182282526, guid: 806101f389acb1949bf5f44693759243, type: 3}
      propertyPath: m_LocalPosition.x
      value: 0
      objectReference: {fileID: 0}
    - target: {fileID: 8099203628182282526, guid: 806101f389acb1949bf5f44693759243, type: 3}
      propertyPath: m_LocalPosition.y
      value: 0.23
      objectReference: {fileID: 0}
    - target: {fileID: 8099203628182282526, guid: 806101f389acb1949bf5f44693759243, type: 3}
      propertyPath: m_LocalPosition.z
      value: 0
      objectReference: {fileID: 0}
    - target: {fileID: 8099203628182282526, guid: 806101f389acb1949bf5f44693759243, type: 3}
      propertyPath: m_LocalRotation.w
      value: 0.7071068
      objectReference: {fileID: 0}
    - target: {fileID: 8099203628182282526, guid: 806101f389acb1949bf5f44693759243, type: 3}
      propertyPath: m_LocalRotation.x
      value: 0.7071068
      objectReference: {fileID: 0}
    - target: {fileID: 8099203628182282526, guid: 806101f389acb1949bf5f44693759243, type: 3}
      propertyPath: m_LocalRotation.y
      value: 0
      objectReference: {fileID: 0}
    - target: {fileID: 8099203628182282526, guid: 806101f389acb1949bf5f44693759243, type: 3}
      propertyPath: m_LocalRotation.z
      value: 0
      objectReference: {fileID: 0}
    - target: {fileID: 8099203628182282526, guid: 806101f389acb1949bf5f44693759243, type: 3}
      propertyPath: m_LocalEulerAnglesHint.x
      value: 90
      objectReference: {fileID: 0}
    - target: {fileID: 8099203628182282526, guid: 806101f389acb1949bf5f44693759243, type: 3}
      propertyPath: m_LocalEulerAnglesHint.y
      value: 0
      objectReference: {fileID: 0}
    - target: {fileID: 8099203628182282526, guid: 806101f389acb1949bf5f44693759243, type: 3}
      propertyPath: m_LocalEulerAnglesHint.z
      value: 0
      objectReference: {fileID: 0}
    m_RemovedComponents: []
  m_SourcePrefab: {fileID: 100100000, guid: 806101f389acb1949bf5f44693759243, type: 3}
--- !u!4 &8495927664011029463 stripped
Transform:
  m_CorrespondingSourceObject: {fileID: 8099203628182282526, guid: 806101f389acb1949bf5f44693759243, type: 3}
  m_PrefabInstance: {fileID: 396809329754671817}
  m_PrefabAsset: {fileID: 0}
