{
    "$id": 0,
    "$type": "0|CosasGuardadas, Assembly-CSharp",
    "mejoras": {
        "$id": 1,
        "$type": "1|System.Collections.Generic.List`1[[mejora, Assembly-CSharp]], mscorlib",
        "$rlength": 22,
        "$rcontent": [
            {
                "$id": 2,
                "$type": "2|mejora, Assembly-CSharp",
                "habilidad": 5,
                "image": {
                    "$id": 3,
                    "$type": "3|UnityEngine.Sprite, UnityEngine.CoreModule"
                },
                "precio": 100,
                "estado": 1,
                "upgrade": 2,
                "descripcion": "mejora el da\u00f1o +2 puntos"
            },
            {
                "$id": 4,
                "$type": 2,
                "habilidad": 5,
                "image": $iref:3,
                "precio": 200,
                "estado": 0,
                "upgrade": 7,
                "descripcion": "mejora el da\u00f1o en +7 puntos"
            },
            {
                "$id": 5,
                "$type": 2,
                "habilidad": 11,
                "image": {
                    "$id": 6,
                    "$type": 3
                },
                "precio": 100,
                "estado": 1,
                "upgrade": 10,
                "descripcion": "mejora lo lejos que llega tu dash"
            },
            {
                "$id": 7,
                "$type": 2,
                "habilidad": 10,
                "image": $iref:6,
                "precio": 500,
                "estado": 0,
                "upgrade": 1,
                "descripcion": "otorga +1 dash"
            },
            {
                "$id": 8,
                "$type": 2,
                "habilidad": 12,
                "image": $iref:6,
                "precio": 1000,
                "estado": 0,
                "upgrade": 0,
                "descripcion": "Mejora el dash, ahora atraviesa enemigos y les da\u00f1a segun tu da\u00f1o"
            },
            {
                "$id": 9,
                "$type": 2,
                "habilidad": 8,
                "image": {
                    "$id": 10,
                    "$type": 3
                },
                "precio": 100,
                "estado": 1,
                "upgrade": 1,
                "descripcion": "mejora la fuerza de salto"
            },
            {
                "$id": 11,
                "$type": 2,
                "habilidad": 9,
                "image": $iref:10,
                "precio": 200,
                "estado": 0,
                "upgrade": 1,
                "descripcion": "otorga +1 doble salto"
            },
            {
                "$id": 12,
                "$type": 2,
                "habilidad": 14,
                "image": {
                    "$id": 13,
                    "$type": 3
                },
                "precio": 500,
                "estado": 1,
                "upgrade": 0,
                "descripcion": "permite que el gancho atraiga a los enemigos hacia ti (Q/gamepad left trigger)"
            },
            {
                "$id": 14,
                "$type": 2,
                "habilidad": 4,
                "image": {
                    "$id": 15,
                    "$type": 3
                },
                "precio": 100,
                "estado": 1,
                "upgrade": 10,
                "descripcion": "mejora tu vida maxima +10 puntos"
            },
            {
                "$id": 16,
                "$type": 2,
                "habilidad": 4,
                "image": $iref:15,
                "precio": 500,
                "estado": 0,
                "upgrade": 30,
                "descripcion": "mejora tu vida maxima +30 puntos"
            },
            {
                "$id": 17,
                "$type": 2,
                "habilidad": 15,
                "image": {
                    "$id": 18,
                    "$type": 3
                },
                "precio": 100,
                "estado": 1,
                "upgrade": 0,
                "descripcion": "Desbloquea un iman que atrae las monedas hacia ti"
            },
            {
                "$id": 19,
                "$type": 2,
                "habilidad": 6,
                "image": {
                    "$id": 20,
                    "$type": 3
                },
                "precio": 100,
                "estado": 1,
                "upgrade": 1,
                "descripcion": "mejora la velocidad de movimiento"
            },
            {
                "$id": 21,
                "$type": 2,
                "habilidad": 6,
                "image": $iref:20,
                "precio": 500,
                "estado": 0,
                "upgrade": 1,
                "descripcion": "mejora la velocidad de movimiento"
            },
            {
                "$id": 22,
                "$type": 2,
                "habilidad": 13,
                "image": {
                    "$id": 23,
                    "$type": 3
                },
                "precio": 100,
                "estado": 1,
                "upgrade": 0,
                "descripcion": "mejroa la velocidad de escalada"
            },
            {
                "$id": 24,
                "$type": 2,
                "habilidad": 4,
                "image": $iref:15,
                "precio": 0,
                "estado": 0,
                "upgrade": 0,
                "descripcion": "mejoras de vida"
            },
            {
                "$id": 25,
                "$type": 2,
                "habilidad": 5,
                "image": $iref:3,
                "precio": 0,
                "estado": 0,
                "upgrade": 0,
                "descripcion": "mejoras de da\u00f1o"
            },
            {
                "$id": 26,
                "$type": 2,
                "habilidad": 6,
                "image": $iref:20,
                "precio": 0,
                "estado": 0,
                "upgrade": 0,
                "descripcion": "mejoras de velocidad de movimiento"
            },
            {
                "$id": 27,
                "$type": 2,
                "habilidad": 7,
                "image": {
                    "$id": 28,
                    "$type": 3
                },
                "precio": 0,
                "estado": 1,
                "upgrade": 0,
                "descripcion": "mejoras de dinero"
            },
            {
                "$id": 29,
                "$type": 2,
                "habilidad": 0,
                "image": $iref:6,
                "precio": 0,
                "estado": 0,
                "upgrade": 0,
                "descripcion": "mejoras de dash"
            },
            {
                "$id": 30,
                "$type": 2,
                "habilidad": 1,
                "image": $iref:10,
                "precio": 0,
                "estado": 0,
                "upgrade": 0,
                "descripcion": "mejoras del doble salto"
            },
            {
                "$id": 31,
                "$type": 2,
                "habilidad": 2,
                "image": $iref:23,
                "precio": 0,
                "estado": 0,
                "upgrade": 0,
                "descripcion": "mejoras del escalado de paredes"
            },
            {
                "$id": 32,
                "$type": 2,
                "habilidad": 3,
                "image": $iref:13,
                "precio": 0,
                "estado": 0,
                "upgrade": 0,
                "descripcion": "mejoras del gancho"
            }
        ]
    },
    "playerInventory": {
        "$id": 33,
        "$type": "4|PlayerInventory, Assembly-CSharp",
        "money": 259974,
        "hp": 100,
        "hpMax": 100,
        "damage": 5,
        "velocidad": 6.5,
        "jumpForce": 7,
        "canDoubleJump": true,
        "numDoubleJumps": 1,
        "canDash": true,
        "numDashes": 1,
        "dashForce": 10,
        "canDamageDash": false,
        "canWallClimb": true,
        "wallClimbSpeed": 5,
        "canHookIr": true,
        "canHookAtraer": false,
        "canCoinMagnet": false,
        "misArmas": {
            "$id": 34,
            "$type": "5|System.Collections.Generic.List`1[[Arma, Assembly-CSharp]], mscorlib",
            "$rlength": 0,
            "$rcontent": [
            ]
        }
    }
}