%YAML 1.1
%TAG !u! tag:unity3d.com,2011:
--- !u!114 &11400000
MonoBehaviour:
  m_ObjectHideFlags: 0
  m_CorrespondingSourceObject: {fileID: 0}
  m_PrefabInstance: {fileID: 0}
  m_PrefabAsset: {fileID: 0}
  m_GameObject: {fileID: 0}
  m_Enabled: 1
  m_EditorHideFlags: 0
  m_Script: {fileID: 11500000, guid: c3823384628947a40ae9b58ad166df77, type: 3}
  m_Name: LootGhost
  m_EditorClassIdentifier: 
  oro: 25
  experiencia: 25
  ItemDropChance: 15
  armaduras:
  - {fileID: 11400000, guid: b29ce509d9c23464e9433cb69f2a2703, type: 2}
  armas: []
