%YAML 1.1
%TAG !u! tag:unity3d.com,2011:
--- !u!114 &11400000
MonoBehaviour:
  m_ObjectHideFlags: 0
  m_CorrespondingSourceObject: {fileID: 0}
  m_PrefabInstance: {fileID: 0}
  m_PrefabAsset: {fileID: 0}
  m_GameObject: {fileID: 0}
  m_Enabled: 1
  m_EditorHideFlags: 0
  m_Script: {fileID: 11500000, guid: 128c1812a8b7198498c0c2099c64c865, type: 3}
  m_Name: bola de fuego
  m_EditorClassIdentifier: 
  size: 0.3
  dmg: 1
  sprite: {fileID: 21300000, guid: 03c3b36b0d15ec44fab49b0940b3f9e5, type: 3}
  ps: {fileID: 4769199247963120314, guid: f68a6158c25f56e42b25b6e8e39e9681, type: 3}
  material: {fileID: 6200000, guid: f61da56329d287d49a8878adbee82bae, type: 2}
  TiempoDeVida: 3
  FuerzaVertical: 100
  hitboxSize: {x: 4.8, y: 4.8}
