%YAML 1.1
%TAG !u! tag:unity3d.com,2011:
--- !u!114 &11400000
MonoBehaviour:
  m_ObjectHideFlags: 0
  m_CorrespondingSourceObject: {fileID: 0}
  m_PrefabInstance: {fileID: 0}
  m_PrefabAsset: {fileID: 0}
  m_GameObject: {fileID: 0}
  m_Enabled: 1
  m_EditorHideFlags: 0
  m_Script: {fileID: 11500000, guid: c0c5ce9aa8f361f4c8e7213d6a75efa8, type: 3}
  m_Name: DoubleSword
  m_EditorClassIdentifier: 
  sprite: {fileID: 21300000, guid: fa4d501d877689247951a18d8889b45a, type: 3}
  name: DoubleSword
  quantity: 0
  goldCost: 10
  atkFinal: 6
  velFinal: 3
  buffs:
  - Chance of double atacking
  buffs2:
  - {fileID: 11400000, guid: cfb27c00ab0737d488293a86398ecdd1, type: 2}
  - {fileID: 11400000, guid: 7f29735895a60ba43a19069135a95e58, type: 2}
