%YAML 1.1
%TAG !u! tag:unity3d.com,2011:
--- !u!114 &11400000
MonoBehaviour:
  m_ObjectHideFlags: 0
  m_CorrespondingSourceObject: {fileID: 0}
  m_PrefabInstance: {fileID: 0}
  m_PrefabAsset: {fileID: 0}
  m_GameObject: {fileID: 0}
  m_Enabled: 1
  m_EditorHideFlags: 0
  m_Script: {fileID: 11500000, guid: c0c5ce9aa8f361f4c8e7213d6a75efa8, type: 3}
  m_Name: GoblinAxe
  m_EditorClassIdentifier: 
  sprite: {fileID: 21300000, guid: 4a3037db8cf6afd4fa1e569a78d7c2ca, type: 3}
  name: GoblinAxe
  quantity: 0
  goldCost: 5
  atkFinal: 8
  velFinal: -3
  buffs: []
  buffs2:
  - {fileID: 11400000, guid: 50af0ac97f8db9f4bb51c9729e5cd45e, type: 2}
  - {fileID: 11400000, guid: a656254bf63ecb84c868b59ce3388f56, type: 2}
