%YAML 1.1
%TAG !u! tag:unity3d.com,2011:
--- !u!114 &11400000
MonoBehaviour:
  m_ObjectHideFlags: 0
  m_CorrespondingSourceObject: {fileID: 0}
  m_PrefabInstance: {fileID: 0}
  m_PrefabAsset: {fileID: 0}
  m_GameObject: {fileID: 0}
  m_Enabled: 1
  m_EditorHideFlags: 0
  m_Script: {fileID: 11500000, guid: c0c5ce9aa8f361f4c8e7213d6a75efa8, type: 3}
  m_Name: MartilloGigante
  m_EditorClassIdentifier: 
  sprite: {fileID: 21300000, guid: f9f2a174f2b58384bb34152bd958389c, type: 3}
  name: BigHammer
  quantity: 0
  goldCost: 0
  atkFinal: 15
  velFinal: -10
  buffs:
  - Chance of stunning
  buffs2: []
