%YAML 1.1
%TAG !u! tag:unity3d.com,2011:
--- !u!114 &11400000
MonoBehaviour:
  m_ObjectHideFlags: 0
  m_CorrespondingSourceObject: {fileID: 0}
  m_PrefabInstance: {fileID: 0}
  m_PrefabAsset: {fileID: 0}
  m_GameObject: {fileID: 0}
  m_Enabled: 1
  m_EditorHideFlags: 0
  m_Script: {fileID: 11500000, guid: 736b9d87f5bfd9748b36ebeb9ec96db8, type: 3}
  m_Name: 1Golem
  m_EditorClassIdentifier: 
  enemigos:
  - {fileID: 11400000, guid: 2c20f269aadb0424b8fb647a91df5089, type: 2}
  porcentaje: 20
