%YAML 1.1
%TAG !u! tag:unity3d.com,2011:
--- !u!114 &11400000
MonoBehaviour:
  m_ObjectHideFlags: 0
  m_CorrespondingSourceObject: {fileID: 0}
  m_PrefabInstance: {fileID: 0}
  m_PrefabAsset: {fileID: 0}
  m_GameObject: {fileID: 0}
  m_Enabled: 1
  m_EditorHideFlags: 0
  m_Script: {fileID: 11500000, guid: 12c7a528bf1c8514581dc55d38b3c8bf, type: 3}
  m_Name: SalaRectangular
  m_EditorClassIdentifier: 
  tipoSala: {fileID: 7268275174858835593, guid: f443eb4b8261b734daa5b80c81a2ff1f, type: 3}
  Vecinos: []
  puertas:
  - -10
  - 20
  - 10
  - -20
  piso: 0
  radio: 0
  lado: 0
  altura: 0
