[api-updater (non-obsolete-error-filter)] 9/2/2022 15:30:42 : Starting C:/Program Files/Unity/Hub/Editor/2020.3.17f1/Editor/Data/Tools/ScriptUpdater/APIUpdater.NonObsoleteApiUpdaterDetector.exe
[api-updater (non-obsolete-error-filter)] 
----------------------------------
jit/startup time      : 796,6384ms
moved types parse time: 53ms
candidates parse time : 1ms
C# parse time         : 608ms
candidates check time : 32ms
console write time    : 0ms

[api-updater (non-obsolete-error-filter)] 9/2/2022 15:31:28 : Starting C:/Program Files/Unity/Hub/Editor/2020.3.17f1/Editor/Data/Tools/ScriptUpdater/APIUpdater.NonObsoleteApiUpdaterDetector.exe
[api-updater (non-obsolete-error-filter)] 
----------------------------------
jit/startup time      : 76,7074ms
moved types parse time: 46ms
candidates parse time : 1ms
C# parse time         : 169ms
candidates check time : 29ms
console write time    : 0ms

[api-updater (non-obsolete-error-filter)] 9/2/2022 15:44:35 : Starting C:/Program Files/Unity/Hub/Editor/2020.3.17f1/Editor/Data/Tools/ScriptUpdater/APIUpdater.NonObsoleteApiUpdaterDetector.exe
[api-updater (non-obsolete-error-filter)] 
----------------------------------
jit/startup time      : 76,8219ms
moved types parse time: 49ms
candidates parse time : 1ms
C# parse time         : 178ms
candidates check time : 28ms
console write time    : 0ms

[api-updater (non-obsolete-error-filter)] 9/2/2022 17:57:26 : Starting C:/Program Files/Unity/Hub/Editor/2020.3.17f1/Editor/Data/Tools/ScriptUpdater/APIUpdater.NonObsoleteApiUpdaterDetector.exe
[api-updater (non-obsolete-error-filter)] 
----------------------------------
jit/startup time      : 71,8089ms
moved types parse time: 61ms
candidates parse time : 1ms
C# parse time         : 181ms
candidates check time : 158ms
console write time    : 0ms

[api-updater (non-obsolete-error-filter)] 9/2/2022 17:57:45 : Starting C:/Program Files/Unity/Hub/Editor/2020.3.17f1/Editor/Data/Tools/ScriptUpdater/APIUpdater.NonObsoleteApiUpdaterDetector.exe
[api-updater (non-obsolete-error-filter)] 
----------------------------------
jit/startup time      : 82,7776ms
moved types parse time: 47ms
candidates parse time : 1ms
C# parse time         : 185ms
candidates check time : 44ms
console write time    : 0ms

[api-updater (non-obsolete-error-filter)] 9/2/2022 17:57:58 : Starting C:/Program Files/Unity/Hub/Editor/2020.3.17f1/Editor/Data/Tools/ScriptUpdater/APIUpdater.NonObsoleteApiUpdaterDetector.exe
[api-updater (non-obsolete-error-filter)] 
----------------------------------
jit/startup time      : 73,8241ms
moved types parse time: 47ms
candidates parse time : 1ms
C# parse time         : 177ms
candidates check time : 107ms
console write time    : 0ms

[api-updater (non-obsolete-error-filter)] 9/2/2022 17:58:08 : Starting C:/Program Files/Unity/Hub/Editor/2020.3.17f1/Editor/Data/Tools/ScriptUpdater/APIUpdater.NonObsoleteApiUpdaterDetector.exe
[api-updater (non-obsolete-error-filter)] 
----------------------------------
jit/startup time      : 68,7933ms
moved types parse time: 47ms
candidates parse time : 1ms
C# parse time         : 186ms
candidates check time : 89ms
console write time    : 0ms

[api-updater (non-obsolete-error-filter)] 9/2/2022 17:59:01 : Starting C:/Program Files/Unity/Hub/Editor/2020.3.17f1/Editor/Data/Tools/ScriptUpdater/APIUpdater.NonObsoleteApiUpdaterDetector.exe
[api-updater (non-obsolete-error-filter)] 
----------------------------------
jit/startup time      : 67,8464ms
moved types parse time: 46ms
candidates parse time : 1ms
C# parse time         : 189ms
candidates check time : 47ms
console write time    : 0ms

[api-updater (non-obsolete-error-filter)] 9/2/2022 17:59:14 : Starting C:/Program Files/Unity/Hub/Editor/2020.3.17f1/Editor/Data/Tools/ScriptUpdater/APIUpdater.NonObsoleteApiUpdaterDetector.exe
[api-updater (non-obsolete-error-filter)] 
----------------------------------
jit/startup time      : 65,8492ms
moved types parse time: 57ms
candidates parse time : 1ms
C# parse time         : 178ms
candidates check time : 44ms
console write time    : 0ms

[api-updater (non-obsolete-error-filter)] 9/2/2022 17:59:26 : Starting C:/Program Files/Unity/Hub/Editor/2020.3.17f1/Editor/Data/Tools/ScriptUpdater/APIUpdater.NonObsoleteApiUpdaterDetector.exe
[api-updater (non-obsolete-error-filter)] 
----------------------------------
jit/startup time      : 68,8851ms
moved types parse time: 47ms
candidates parse time : 1ms
C# parse time         : 178ms
candidates check time : 46ms
console write time    : 0ms

[api-updater (non-obsolete-error-filter)] 11/2/2022 17:12:01 : Starting C:/Program Files/Unity/Hub/Editor/2020.3.17f1/Editor/Data/Tools/ScriptUpdater/APIUpdater.NonObsoleteApiUpdaterDetector.exe
[api-updater (non-obsolete-error-filter)] 
----------------------------------
jit/startup time      : 830,801ms
moved types parse time: 53ms
candidates parse time : 1ms
C# parse time         : 619ms
candidates check time : 48ms
console write time    : 1ms

[api-updater (non-obsolete-error-filter)] 11/2/2022 17:38:43 : Starting C:/Program Files/Unity/Hub/Editor/2020.3.17f1/Editor/Data/Tools/ScriptUpdater/APIUpdater.NonObsoleteApiUpdaterDetector.exe
[api-updater (non-obsolete-error-filter)] 
----------------------------------
jit/startup time      : 626,0151ms
moved types parse time: 47ms
candidates parse time : 0ms
C# parse time         : 529ms
candidates check time : 42ms
console write time    : 0ms

[api-updater (non-obsolete-error-filter)] 11/2/2022 17:39:02 : Starting C:/Program Files/Unity/Hub/Editor/2020.3.17f1/Editor/Data/Tools/ScriptUpdater/APIUpdater.NonObsoleteApiUpdaterDetector.exe
[api-updater (non-obsolete-error-filter)] 
----------------------------------
jit/startup time      : 71,5005ms
moved types parse time: 45ms
candidates parse time : 1ms
C# parse time         : 174ms
candidates check time : 55ms
console write time    : 0ms

[api-updater (non-obsolete-error-filter)] 11/2/2022 17:39:05 : Starting C:/Program Files/Unity/Hub/Editor/2020.3.17f1/Editor/Data/Tools/ScriptUpdater/APIUpdater.NonObsoleteApiUpdaterDetector.exe
[api-updater (non-obsolete-error-filter)] 
----------------------------------
jit/startup time      : 74,1597ms
moved types parse time: 53ms
candidates parse time : 1ms
C# parse time         : 190ms
candidates check time : 56ms
console write time    : 0ms

[api-updater (non-obsolete-error-filter)] 11/2/2022 17:39:15 : Starting C:/Program Files/Unity/Hub/Editor/2020.3.17f1/Editor/Data/Tools/ScriptUpdater/APIUpdater.NonObsoleteApiUpdaterDetector.exe
[api-updater (non-obsolete-error-filter)] 
----------------------------------
jit/startup time      : 74,4512ms
moved types parse time: 46ms
candidates parse time : 1ms
C# parse time         : 173ms
candidates check time : 43ms
console write time    : 0ms

[api-updater (non-obsolete-error-filter)] 11/2/2022 17:39:36 : Starting C:/Program Files/Unity/Hub/Editor/2020.3.17f1/Editor/Data/Tools/ScriptUpdater/APIUpdater.NonObsoleteApiUpdaterDetector.exe
[api-updater (non-obsolete-error-filter)] 
----------------------------------
jit/startup time      : 73,6498ms
moved types parse time: 48ms
candidates parse time : 1ms
C# parse time         : 186ms
candidates check time : 43ms
console write time    : 0ms

[api-updater (non-obsolete-error-filter)] 11/2/2022 19:15:26 : Starting C:/Program Files/Unity/Hub/Editor/2020.3.17f1/Editor/Data/Tools/ScriptUpdater/APIUpdater.NonObsoleteApiUpdaterDetector.exe
[api-updater (non-obsolete-error-filter)] 
----------------------------------
jit/startup time      : 75,7971ms
moved types parse time: 50ms
candidates parse time : 1ms
C# parse time         : 189ms
candidates check time : 27ms
console write time    : 0ms

[api-updater (non-obsolete-error-filter)] 15/2/2022 16:45:05 : Starting C:/Program Files/Unity/Hub/Editor/2020.3.17f1/Editor/Data/Tools/ScriptUpdater/APIUpdater.NonObsoleteApiUpdaterDetector.exe
[api-updater (non-obsolete-error-filter)] 
----------------------------------
jit/startup time      : 871,2919ms
moved types parse time: 55ms
candidates parse time : 1ms
C# parse time         : 683ms
candidates check time : 69ms
console write time    : 11ms

[api-updater (non-obsolete-error-filter)] 16/2/2022 16:56:52 : Starting C:/Program Files/Unity/Hub/Editor/2020.3.17f1/Editor/Data/Tools/ScriptUpdater/APIUpdater.NonObsoleteApiUpdaterDetector.exe
[api-updater (non-obsolete-error-filter)] 
----------------------------------
jit/startup time      : 804,4619ms
moved types parse time: 51ms
candidates parse time : 1ms
C# parse time         : 541ms
candidates check time : 37ms
console write time    : 0ms

[api-updater (non-obsolete-error-filter)] 21/2/2022 20:09:07 : Starting C:/Program Files/Unity/Hub/Editor/2020.3.17f1/Editor/Data/Tools/ScriptUpdater/APIUpdater.NonObsoleteApiUpdaterDetector.exe
[api-updater (non-obsolete-error-filter)] 
----------------------------------
jit/startup time      : 875,0018ms
moved types parse time: 55ms
candidates parse time : 1ms
C# parse time         : 342ms
candidates check time : 40ms
console write time    : 1ms

[api-updater (non-obsolete-error-filter)] 22/2/2022 16:20:01 : Starting C:/Program Files/Unity/Hub/Editor/2020.3.17f1/Editor/Data/Tools/ScriptUpdater/APIUpdater.NonObsoleteApiUpdaterDetector.exe
[api-updater (non-obsolete-error-filter)] 
----------------------------------
jit/startup time      : 831,1105ms
moved types parse time: 54ms
candidates parse time : 1ms
C# parse time         : 648ms
candidates check time : 35ms
console write time    : 1ms

