%YAML 1.1
%TAG !u! tag:unity3d.com,2011:
--- !u!114 &11400000
MonoBehaviour:
  m_ObjectHideFlags: 0
  m_CorrespondingSourceObject: {fileID: 0}
  m_PrefabInstance: {fileID: 0}
  m_PrefabAsset: {fileID: 0}
  m_GameObject: {fileID: 0}
  m_Enabled: 1
  m_EditorHideFlags: 0
  m_Script: {fileID: 11500000, guid: 080a77c60332d4743acd6d9967b9b4a6, type: 3}
  m_Name: muro
  m_EditorClassIdentifier: 
  vida: 500
  def: 10
  recursosCrafteo: {x: 1, y: 1, z: 0}
