%YAML 1.1
%TAG !u! tag:unity3d.com,2011:
--- !u!114 &11400000
MonoBehaviour:
  m_ObjectHideFlags: 0
  m_CorrespondingSourceObject: {fileID: 0}
  m_PrefabInstance: {fileID: 0}
  m_PrefabAsset: {fileID: 0}
  m_GameObject: {fileID: 0}
  m_Enabled: 1
  m_EditorHideFlags: 0
  m_Script: {fileID: 11500000, guid: 00abe4fe335be7d42b26d79c2ef4cff8, type: 3}
  m_Name: P_2B_2H
  m_EditorClassIdentifier: 
  tipos:
  - {fileID: 11400000, guid: e6952e2d21710f24f897c753666aa5f3, type: 2}
  - {fileID: 11400000, guid: e6952e2d21710f24f897c753666aa5f3, type: 2}
  - {fileID: 11400000, guid: fb363e761ad07cf48b691ff3910b2564, type: 2}
  - {fileID: 11400000, guid: fb363e761ad07cf48b691ff3910b2564, type: 2}
