%YAML 1.1
%TAG !u! tag:unity3d.com,2011:
--- !u!114 &11400000
MonoBehaviour:
  m_ObjectHideFlags: 0
  m_CorrespondingSourceObject: {fileID: 0}
  m_PrefabInstance: {fileID: 0}
  m_PrefabAsset: {fileID: 0}
  m_GameObject: {fileID: 0}
  m_Enabled: 1
  m_EditorHideFlags: 0
  m_Script: {fileID: 11500000, guid: ae0d594a5bb0431408ecbdae1c002caa, type: 3}
  m_Name: torreSniper
  m_EditorClassIdentifier: 
  bala: {fileID: 3627236941954775981, guid: 48769cd1c0f78f0428d9a75393b84f58, type: 3}
  balaTipo: {fileID: 11400000, guid: efe90cc90940b9e47805dcf828ca4198, type: 2}
  fireRate: 10
  rango: 50
