%YAML 1.1
%TAG !u! tag:unity3d.com,2011:
--- !u!114 &11400000
MonoBehaviour:
  m_ObjectHideFlags: 0
  m_CorrespondingSourceObject: {fileID: 0}
  m_PrefabInstance: {fileID: 0}
  m_PrefabAsset: {fileID: 0}
  m_GameObject: {fileID: 0}
  m_Enabled: 1
  m_EditorHideFlags: 0
  m_Script: {fileID: 11500000, guid: 58a5b92bffa92704ea178783c00c0a27, type: 3}
  m_Name: Escalofrio
  m_EditorClassIdentifier: 
  nombre: Escalofrio
  vidaAModificar: -10
  buffODebuff: {fileID: 11400000, guid: 3e36166d47b938947ae0aa8e0113c24c, type: 2}
  objetivoEnemigo: 1
  numObjetivos: 1
  CosteMana: 25
