%YAML 1.1
%TAG !u! tag:unity3d.com,2011:
--- !u!114 &11400000
MonoBehaviour:
  m_ObjectHideFlags: 0
  m_CorrespondingSourceObject: {fileID: 0}
  m_PrefabInstance: {fileID: 0}
  m_PrefabAsset: {fileID: 0}
  m_GameObject: {fileID: 0}
  m_Enabled: 1
  m_EditorHideFlags: 0
  m_Script: {fileID: 11500000, guid: 58a5b92bffa92704ea178783c00c0a27, type: 3}
  m_Name: PlacajeEvasivo
  m_EditorClassIdentifier: 
  nombre: PlacajeEvasivo
  vidaAModificar: -15
  buffODebuff: {fileID: 11400000, guid: 6b851fe164d4af040b9d8c4c9e2426f2, type: 2}
  objetivoEnemigo: 1
  numObjetivos: 0
  CosteMana: 20
