%YAML 1.1
%TAG !u! tag:unity3d.com,2011:
--- !u!114 &11400000
MonoBehaviour:
  m_ObjectHideFlags: 0
  m_CorrespondingSourceObject: {fileID: 0}
  m_PrefabInstance: {fileID: 0}
  m_PrefabAsset: {fileID: 0}
  m_GameObject: {fileID: 0}
  m_Enabled: 1
  m_EditorHideFlags: 0
  m_Script: {fileID: 11500000, guid: 8f0b003f5faafc94a9a5cd406ee977af, type: 3}
  m_Name: PartidaNueva
  m_EditorClassIdentifier: 
  mejoras: []
  playerInventory: {fileID: 11400000, guid: 7d04d76684041954a8b24fbe0b55a9de, type: 2}
