%YAML 1.1
%TAG !u! tag:unity3d.com,2011:
--- !u!114 &11400000
MonoBehaviour:
  m_ObjectHideFlags: 0
  m_CorrespondingSourceObject: {fileID: 0}
  m_PrefabInstance: {fileID: 0}
  m_PrefabAsset: {fileID: 0}
  m_GameObject: {fileID: 0}
  m_Enabled: 1
  m_EditorHideFlags: 0
  m_Script: {fileID: 11500000, guid: 8f0b003f5faafc94a9a5cd406ee977af, type: 3}
  m_Name: PartidaGuardada
  m_EditorClassIdentifier: 
  mejoras:
  - {fileID: 11400000, guid: 9301b78974725524697ab42e63f63720, type: 2}
  - {fileID: 11400000, guid: da6e7950ea6fe0e409c79018c5c7f49a, type: 2}
  - {fileID: 11400000, guid: b5b387f1780e47d48992cb6208328ce2, type: 2}
  - {fileID: 11400000, guid: e84fc3fb1ad5aeb4f950569bc4e97f17, type: 2}
  - {fileID: 11400000, guid: 43bbff138c11d2d4f8b576a18cde94be, type: 2}
  - {fileID: 11400000, guid: 874b3e6b29674f74f90a46a614a14fab, type: 2}
  - {fileID: 11400000, guid: cd47a2f2151610a42b88bec6dd83088e, type: 2}
  - {fileID: 11400000, guid: 72bd456ee90434f439ead50c223a4cfb, type: 2}
  - {fileID: 11400000, guid: bb4aff3898472bf4eb8e4f268e28f1dc, type: 2}
  - {fileID: 11400000, guid: fde94f0da61fcaf46a3ef3262290c22f, type: 2}
  - {fileID: 11400000, guid: e6537841fd91a9249964257e1c486fd5, type: 2}
  - {fileID: 11400000, guid: d4cab3b1f810842419e38595f96aea9a, type: 2}
  - {fileID: 11400000, guid: f85bb79d0c006d6449af253b6743593c, type: 2}
  - {fileID: 11400000, guid: 4216c3823acdfa343bd9ebe267b06975, type: 2}
  - {fileID: 11400000, guid: 4d30468c426c59a40a8154eb9442a9df, type: 2}
  - {fileID: 11400000, guid: 880bb50268b8b094688ea2c61995b153, type: 2}
  - {fileID: 11400000, guid: d89c19370b4796c4c8467bd1ccb535d5, type: 2}
  - {fileID: 11400000, guid: 21fa2a5248e111743a8e3e3fc3851ae7, type: 2}
  - {fileID: 11400000, guid: 2c3715b406e7e6e488eaeee9bd6df54a, type: 2}
  - {fileID: 11400000, guid: 2552e0d1bbed82b408a1743116c18544, type: 2}
  - {fileID: 11400000, guid: 88bd820f448de31448ada1543dc225d7, type: 2}
  - {fileID: 11400000, guid: 15a088d032dd26348a628252a4d7474c, type: 2}
  - {fileID: 11400000, guid: 9301b78974725524697ab42e63f63720, type: 2}
  - {fileID: 11400000, guid: da6e7950ea6fe0e409c79018c5c7f49a, type: 2}
  - {fileID: 11400000, guid: b5b387f1780e47d48992cb6208328ce2, type: 2}
  - {fileID: 11400000, guid: e84fc3fb1ad5aeb4f950569bc4e97f17, type: 2}
  - {fileID: 11400000, guid: 43bbff138c11d2d4f8b576a18cde94be, type: 2}
  - {fileID: 11400000, guid: 874b3e6b29674f74f90a46a614a14fab, type: 2}
  - {fileID: 11400000, guid: cd47a2f2151610a42b88bec6dd83088e, type: 2}
  - {fileID: 11400000, guid: 72bd456ee90434f439ead50c223a4cfb, type: 2}
  - {fileID: 11400000, guid: bb4aff3898472bf4eb8e4f268e28f1dc, type: 2}
  - {fileID: 11400000, guid: fde94f0da61fcaf46a3ef3262290c22f, type: 2}
  - {fileID: 11400000, guid: e6537841fd91a9249964257e1c486fd5, type: 2}
  - {fileID: 11400000, guid: d4cab3b1f810842419e38595f96aea9a, type: 2}
  - {fileID: 11400000, guid: f85bb79d0c006d6449af253b6743593c, type: 2}
  - {fileID: 11400000, guid: 4216c3823acdfa343bd9ebe267b06975, type: 2}
  - {fileID: 11400000, guid: 4d30468c426c59a40a8154eb9442a9df, type: 2}
  - {fileID: 11400000, guid: 880bb50268b8b094688ea2c61995b153, type: 2}
  - {fileID: 11400000, guid: d89c19370b4796c4c8467bd1ccb535d5, type: 2}
  - {fileID: 11400000, guid: 21fa2a5248e111743a8e3e3fc3851ae7, type: 2}
  - {fileID: 11400000, guid: 2c3715b406e7e6e488eaeee9bd6df54a, type: 2}
  - {fileID: 11400000, guid: 2552e0d1bbed82b408a1743116c18544, type: 2}
  - {fileID: 11400000, guid: 88bd820f448de31448ada1543dc225d7, type: 2}
  - {fileID: 11400000, guid: 15a088d032dd26348a628252a4d7474c, type: 2}
  - {fileID: 11400000, guid: 9301b78974725524697ab42e63f63720, type: 2}
  - {fileID: 11400000, guid: da6e7950ea6fe0e409c79018c5c7f49a, type: 2}
  - {fileID: 11400000, guid: b5b387f1780e47d48992cb6208328ce2, type: 2}
  - {fileID: 11400000, guid: e84fc3fb1ad5aeb4f950569bc4e97f17, type: 2}
  - {fileID: 11400000, guid: 43bbff138c11d2d4f8b576a18cde94be, type: 2}
  - {fileID: 11400000, guid: 874b3e6b29674f74f90a46a614a14fab, type: 2}
  - {fileID: 11400000, guid: cd47a2f2151610a42b88bec6dd83088e, type: 2}
  - {fileID: 11400000, guid: 72bd456ee90434f439ead50c223a4cfb, type: 2}
  - {fileID: 11400000, guid: bb4aff3898472bf4eb8e4f268e28f1dc, type: 2}
  - {fileID: 11400000, guid: fde94f0da61fcaf46a3ef3262290c22f, type: 2}
  - {fileID: 11400000, guid: e6537841fd91a9249964257e1c486fd5, type: 2}
  - {fileID: 11400000, guid: d4cab3b1f810842419e38595f96aea9a, type: 2}
  - {fileID: 11400000, guid: f85bb79d0c006d6449af253b6743593c, type: 2}
  - {fileID: 11400000, guid: 4216c3823acdfa343bd9ebe267b06975, type: 2}
  - {fileID: 11400000, guid: 4d30468c426c59a40a8154eb9442a9df, type: 2}
  - {fileID: 11400000, guid: 880bb50268b8b094688ea2c61995b153, type: 2}
  - {fileID: 11400000, guid: d89c19370b4796c4c8467bd1ccb535d5, type: 2}
  - {fileID: 11400000, guid: 21fa2a5248e111743a8e3e3fc3851ae7, type: 2}
  - {fileID: 11400000, guid: 2c3715b406e7e6e488eaeee9bd6df54a, type: 2}
  - {fileID: 11400000, guid: 2552e0d1bbed82b408a1743116c18544, type: 2}
  - {fileID: 11400000, guid: 88bd820f448de31448ada1543dc225d7, type: 2}
  - {fileID: 11400000, guid: 15a088d032dd26348a628252a4d7474c, type: 2}
  - {fileID: 11400000, guid: 9301b78974725524697ab42e63f63720, type: 2}
  - {fileID: 11400000, guid: da6e7950ea6fe0e409c79018c5c7f49a, type: 2}
  - {fileID: 11400000, guid: b5b387f1780e47d48992cb6208328ce2, type: 2}
  - {fileID: 11400000, guid: e84fc3fb1ad5aeb4f950569bc4e97f17, type: 2}
  - {fileID: 11400000, guid: 43bbff138c11d2d4f8b576a18cde94be, type: 2}
  - {fileID: 11400000, guid: 874b3e6b29674f74f90a46a614a14fab, type: 2}
  - {fileID: 11400000, guid: cd47a2f2151610a42b88bec6dd83088e, type: 2}
  - {fileID: 11400000, guid: 72bd456ee90434f439ead50c223a4cfb, type: 2}
  - {fileID: 11400000, guid: bb4aff3898472bf4eb8e4f268e28f1dc, type: 2}
  - {fileID: 11400000, guid: fde94f0da61fcaf46a3ef3262290c22f, type: 2}
  - {fileID: 11400000, guid: e6537841fd91a9249964257e1c486fd5, type: 2}
  - {fileID: 11400000, guid: d4cab3b1f810842419e38595f96aea9a, type: 2}
  - {fileID: 11400000, guid: f85bb79d0c006d6449af253b6743593c, type: 2}
  - {fileID: 11400000, guid: 4216c3823acdfa343bd9ebe267b06975, type: 2}
  - {fileID: 11400000, guid: 4d30468c426c59a40a8154eb9442a9df, type: 2}
  - {fileID: 11400000, guid: 880bb50268b8b094688ea2c61995b153, type: 2}
  - {fileID: 11400000, guid: d89c19370b4796c4c8467bd1ccb535d5, type: 2}
  - {fileID: 11400000, guid: 21fa2a5248e111743a8e3e3fc3851ae7, type: 2}
  - {fileID: 11400000, guid: 2c3715b406e7e6e488eaeee9bd6df54a, type: 2}
  - {fileID: 11400000, guid: 2552e0d1bbed82b408a1743116c18544, type: 2}
  - {fileID: 11400000, guid: 88bd820f448de31448ada1543dc225d7, type: 2}
  - {fileID: 11400000, guid: 15a088d032dd26348a628252a4d7474c, type: 2}
  - {fileID: 11400000, guid: 9301b78974725524697ab42e63f63720, type: 2}
  - {fileID: 11400000, guid: da6e7950ea6fe0e409c79018c5c7f49a, type: 2}
  - {fileID: 11400000, guid: b5b387f1780e47d48992cb6208328ce2, type: 2}
  - {fileID: 11400000, guid: e84fc3fb1ad5aeb4f950569bc4e97f17, type: 2}
  - {fileID: 11400000, guid: 43bbff138c11d2d4f8b576a18cde94be, type: 2}
  - {fileID: 11400000, guid: 874b3e6b29674f74f90a46a614a14fab, type: 2}
  - {fileID: 11400000, guid: cd47a2f2151610a42b88bec6dd83088e, type: 2}
  - {fileID: 11400000, guid: 72bd456ee90434f439ead50c223a4cfb, type: 2}
  - {fileID: 11400000, guid: bb4aff3898472bf4eb8e4f268e28f1dc, type: 2}
  - {fileID: 11400000, guid: fde94f0da61fcaf46a3ef3262290c22f, type: 2}
  - {fileID: 11400000, guid: e6537841fd91a9249964257e1c486fd5, type: 2}
  - {fileID: 11400000, guid: d4cab3b1f810842419e38595f96aea9a, type: 2}
  - {fileID: 11400000, guid: f85bb79d0c006d6449af253b6743593c, type: 2}
  - {fileID: 11400000, guid: 4216c3823acdfa343bd9ebe267b06975, type: 2}
  - {fileID: 11400000, guid: 4d30468c426c59a40a8154eb9442a9df, type: 2}
  - {fileID: 11400000, guid: 880bb50268b8b094688ea2c61995b153, type: 2}
  - {fileID: 11400000, guid: d89c19370b4796c4c8467bd1ccb535d5, type: 2}
  - {fileID: 11400000, guid: 21fa2a5248e111743a8e3e3fc3851ae7, type: 2}
  - {fileID: 11400000, guid: 2c3715b406e7e6e488eaeee9bd6df54a, type: 2}
  - {fileID: 11400000, guid: 2552e0d1bbed82b408a1743116c18544, type: 2}
  - {fileID: 11400000, guid: 88bd820f448de31448ada1543dc225d7, type: 2}
  - {fileID: 11400000, guid: 15a088d032dd26348a628252a4d7474c, type: 2}
  - {fileID: 11400000, guid: 9301b78974725524697ab42e63f63720, type: 2}
  - {fileID: 11400000, guid: da6e7950ea6fe0e409c79018c5c7f49a, type: 2}
  - {fileID: 11400000, guid: b5b387f1780e47d48992cb6208328ce2, type: 2}
  - {fileID: 11400000, guid: e84fc3fb1ad5aeb4f950569bc4e97f17, type: 2}
  - {fileID: 11400000, guid: 43bbff138c11d2d4f8b576a18cde94be, type: 2}
  - {fileID: 11400000, guid: 874b3e6b29674f74f90a46a614a14fab, type: 2}
  - {fileID: 11400000, guid: cd47a2f2151610a42b88bec6dd83088e, type: 2}
  - {fileID: 11400000, guid: 72bd456ee90434f439ead50c223a4cfb, type: 2}
  - {fileID: 11400000, guid: bb4aff3898472bf4eb8e4f268e28f1dc, type: 2}
  - {fileID: 11400000, guid: fde94f0da61fcaf46a3ef3262290c22f, type: 2}
  - {fileID: 11400000, guid: e6537841fd91a9249964257e1c486fd5, type: 2}
  - {fileID: 11400000, guid: d4cab3b1f810842419e38595f96aea9a, type: 2}
  - {fileID: 11400000, guid: f85bb79d0c006d6449af253b6743593c, type: 2}
  - {fileID: 11400000, guid: 4216c3823acdfa343bd9ebe267b06975, type: 2}
  - {fileID: 11400000, guid: 4d30468c426c59a40a8154eb9442a9df, type: 2}
  - {fileID: 11400000, guid: 880bb50268b8b094688ea2c61995b153, type: 2}
  - {fileID: 11400000, guid: d89c19370b4796c4c8467bd1ccb535d5, type: 2}
  - {fileID: 11400000, guid: 21fa2a5248e111743a8e3e3fc3851ae7, type: 2}
  - {fileID: 11400000, guid: 2c3715b406e7e6e488eaeee9bd6df54a, type: 2}
  - {fileID: 11400000, guid: 2552e0d1bbed82b408a1743116c18544, type: 2}
  - {fileID: 11400000, guid: 88bd820f448de31448ada1543dc225d7, type: 2}
  - {fileID: 11400000, guid: 15a088d032dd26348a628252a4d7474c, type: 2}
  - {fileID: 11400000, guid: 9301b78974725524697ab42e63f63720, type: 2}
  - {fileID: 11400000, guid: da6e7950ea6fe0e409c79018c5c7f49a, type: 2}
  - {fileID: 11400000, guid: b5b387f1780e47d48992cb6208328ce2, type: 2}
  - {fileID: 11400000, guid: e84fc3fb1ad5aeb4f950569bc4e97f17, type: 2}
  - {fileID: 11400000, guid: 43bbff138c11d2d4f8b576a18cde94be, type: 2}
  - {fileID: 11400000, guid: 874b3e6b29674f74f90a46a614a14fab, type: 2}
  - {fileID: 11400000, guid: cd47a2f2151610a42b88bec6dd83088e, type: 2}
  - {fileID: 11400000, guid: 72bd456ee90434f439ead50c223a4cfb, type: 2}
  - {fileID: 11400000, guid: bb4aff3898472bf4eb8e4f268e28f1dc, type: 2}
  - {fileID: 11400000, guid: fde94f0da61fcaf46a3ef3262290c22f, type: 2}
  - {fileID: 11400000, guid: e6537841fd91a9249964257e1c486fd5, type: 2}
  - {fileID: 11400000, guid: d4cab3b1f810842419e38595f96aea9a, type: 2}
  - {fileID: 11400000, guid: f85bb79d0c006d6449af253b6743593c, type: 2}
  - {fileID: 11400000, guid: 4216c3823acdfa343bd9ebe267b06975, type: 2}
  - {fileID: 11400000, guid: 4d30468c426c59a40a8154eb9442a9df, type: 2}
  - {fileID: 11400000, guid: 880bb50268b8b094688ea2c61995b153, type: 2}
  - {fileID: 11400000, guid: d89c19370b4796c4c8467bd1ccb535d5, type: 2}
  - {fileID: 11400000, guid: 21fa2a5248e111743a8e3e3fc3851ae7, type: 2}
  - {fileID: 11400000, guid: 2c3715b406e7e6e488eaeee9bd6df54a, type: 2}
  - {fileID: 11400000, guid: 2552e0d1bbed82b408a1743116c18544, type: 2}
  - {fileID: 11400000, guid: 88bd820f448de31448ada1543dc225d7, type: 2}
  - {fileID: 11400000, guid: 15a088d032dd26348a628252a4d7474c, type: 2}
  - {fileID: 11400000, guid: 9301b78974725524697ab42e63f63720, type: 2}
  - {fileID: 11400000, guid: da6e7950ea6fe0e409c79018c5c7f49a, type: 2}
  - {fileID: 11400000, guid: b5b387f1780e47d48992cb6208328ce2, type: 2}
  - {fileID: 11400000, guid: e84fc3fb1ad5aeb4f950569bc4e97f17, type: 2}
  - {fileID: 11400000, guid: 43bbff138c11d2d4f8b576a18cde94be, type: 2}
  - {fileID: 11400000, guid: 874b3e6b29674f74f90a46a614a14fab, type: 2}
  - {fileID: 11400000, guid: cd47a2f2151610a42b88bec6dd83088e, type: 2}
  - {fileID: 11400000, guid: 72bd456ee90434f439ead50c223a4cfb, type: 2}
  - {fileID: 11400000, guid: bb4aff3898472bf4eb8e4f268e28f1dc, type: 2}
  - {fileID: 11400000, guid: fde94f0da61fcaf46a3ef3262290c22f, type: 2}
  - {fileID: 11400000, guid: e6537841fd91a9249964257e1c486fd5, type: 2}
  - {fileID: 11400000, guid: d4cab3b1f810842419e38595f96aea9a, type: 2}
  - {fileID: 11400000, guid: f85bb79d0c006d6449af253b6743593c, type: 2}
  - {fileID: 11400000, guid: 4216c3823acdfa343bd9ebe267b06975, type: 2}
  - {fileID: 11400000, guid: 4d30468c426c59a40a8154eb9442a9df, type: 2}
  - {fileID: 11400000, guid: 880bb50268b8b094688ea2c61995b153, type: 2}
  - {fileID: 11400000, guid: d89c19370b4796c4c8467bd1ccb535d5, type: 2}
  - {fileID: 11400000, guid: 21fa2a5248e111743a8e3e3fc3851ae7, type: 2}
  - {fileID: 11400000, guid: 2c3715b406e7e6e488eaeee9bd6df54a, type: 2}
  - {fileID: 11400000, guid: 2552e0d1bbed82b408a1743116c18544, type: 2}
  - {fileID: 11400000, guid: 88bd820f448de31448ada1543dc225d7, type: 2}
  - {fileID: 11400000, guid: 15a088d032dd26348a628252a4d7474c, type: 2}
  - {fileID: 11400000, guid: 9301b78974725524697ab42e63f63720, type: 2}
  - {fileID: 11400000, guid: da6e7950ea6fe0e409c79018c5c7f49a, type: 2}
  - {fileID: 11400000, guid: b5b387f1780e47d48992cb6208328ce2, type: 2}
  - {fileID: 11400000, guid: e84fc3fb1ad5aeb4f950569bc4e97f17, type: 2}
  - {fileID: 11400000, guid: 43bbff138c11d2d4f8b576a18cde94be, type: 2}
  - {fileID: 11400000, guid: 874b3e6b29674f74f90a46a614a14fab, type: 2}
  - {fileID: 11400000, guid: cd47a2f2151610a42b88bec6dd83088e, type: 2}
  - {fileID: 11400000, guid: 72bd456ee90434f439ead50c223a4cfb, type: 2}
  - {fileID: 11400000, guid: bb4aff3898472bf4eb8e4f268e28f1dc, type: 2}
  - {fileID: 11400000, guid: fde94f0da61fcaf46a3ef3262290c22f, type: 2}
  - {fileID: 11400000, guid: e6537841fd91a9249964257e1c486fd5, type: 2}
  - {fileID: 11400000, guid: d4cab3b1f810842419e38595f96aea9a, type: 2}
  - {fileID: 11400000, guid: f85bb79d0c006d6449af253b6743593c, type: 2}
  - {fileID: 11400000, guid: 4216c3823acdfa343bd9ebe267b06975, type: 2}
  - {fileID: 11400000, guid: 4d30468c426c59a40a8154eb9442a9df, type: 2}
  - {fileID: 11400000, guid: 880bb50268b8b094688ea2c61995b153, type: 2}
  - {fileID: 11400000, guid: d89c19370b4796c4c8467bd1ccb535d5, type: 2}
  - {fileID: 11400000, guid: 21fa2a5248e111743a8e3e3fc3851ae7, type: 2}
  - {fileID: 11400000, guid: 2c3715b406e7e6e488eaeee9bd6df54a, type: 2}
  - {fileID: 11400000, guid: 2552e0d1bbed82b408a1743116c18544, type: 2}
  - {fileID: 11400000, guid: 88bd820f448de31448ada1543dc225d7, type: 2}
  - {fileID: 11400000, guid: 15a088d032dd26348a628252a4d7474c, type: 2}
  - {fileID: 11400000, guid: 9301b78974725524697ab42e63f63720, type: 2}
  - {fileID: 11400000, guid: da6e7950ea6fe0e409c79018c5c7f49a, type: 2}
  - {fileID: 11400000, guid: b5b387f1780e47d48992cb6208328ce2, type: 2}
  - {fileID: 11400000, guid: e84fc3fb1ad5aeb4f950569bc4e97f17, type: 2}
  - {fileID: 11400000, guid: 43bbff138c11d2d4f8b576a18cde94be, type: 2}
  - {fileID: 11400000, guid: 874b3e6b29674f74f90a46a614a14fab, type: 2}
  - {fileID: 11400000, guid: cd47a2f2151610a42b88bec6dd83088e, type: 2}
  - {fileID: 11400000, guid: 72bd456ee90434f439ead50c223a4cfb, type: 2}
  - {fileID: 11400000, guid: bb4aff3898472bf4eb8e4f268e28f1dc, type: 2}
  - {fileID: 11400000, guid: fde94f0da61fcaf46a3ef3262290c22f, type: 2}
  - {fileID: 11400000, guid: e6537841fd91a9249964257e1c486fd5, type: 2}
  - {fileID: 11400000, guid: d4cab3b1f810842419e38595f96aea9a, type: 2}
  - {fileID: 11400000, guid: f85bb79d0c006d6449af253b6743593c, type: 2}
  - {fileID: 11400000, guid: 4216c3823acdfa343bd9ebe267b06975, type: 2}
  - {fileID: 11400000, guid: 4d30468c426c59a40a8154eb9442a9df, type: 2}
  - {fileID: 11400000, guid: 880bb50268b8b094688ea2c61995b153, type: 2}
  - {fileID: 11400000, guid: d89c19370b4796c4c8467bd1ccb535d5, type: 2}
  - {fileID: 11400000, guid: 21fa2a5248e111743a8e3e3fc3851ae7, type: 2}
  - {fileID: 11400000, guid: 2c3715b406e7e6e488eaeee9bd6df54a, type: 2}
  - {fileID: 11400000, guid: 2552e0d1bbed82b408a1743116c18544, type: 2}
  - {fileID: 11400000, guid: 88bd820f448de31448ada1543dc225d7, type: 2}
  - {fileID: 11400000, guid: 15a088d032dd26348a628252a4d7474c, type: 2}
  - {fileID: 11400000, guid: 9301b78974725524697ab42e63f63720, type: 2}
  - {fileID: 11400000, guid: da6e7950ea6fe0e409c79018c5c7f49a, type: 2}
  - {fileID: 11400000, guid: b5b387f1780e47d48992cb6208328ce2, type: 2}
  - {fileID: 11400000, guid: e84fc3fb1ad5aeb4f950569bc4e97f17, type: 2}
  - {fileID: 11400000, guid: 43bbff138c11d2d4f8b576a18cde94be, type: 2}
  - {fileID: 11400000, guid: 874b3e6b29674f74f90a46a614a14fab, type: 2}
  - {fileID: 11400000, guid: cd47a2f2151610a42b88bec6dd83088e, type: 2}
  - {fileID: 11400000, guid: 72bd456ee90434f439ead50c223a4cfb, type: 2}
  - {fileID: 11400000, guid: bb4aff3898472bf4eb8e4f268e28f1dc, type: 2}
  - {fileID: 11400000, guid: fde94f0da61fcaf46a3ef3262290c22f, type: 2}
  - {fileID: 11400000, guid: e6537841fd91a9249964257e1c486fd5, type: 2}
  - {fileID: 11400000, guid: d4cab3b1f810842419e38595f96aea9a, type: 2}
  - {fileID: 11400000, guid: f85bb79d0c006d6449af253b6743593c, type: 2}
  - {fileID: 11400000, guid: 4216c3823acdfa343bd9ebe267b06975, type: 2}
  - {fileID: 11400000, guid: 4d30468c426c59a40a8154eb9442a9df, type: 2}
  - {fileID: 11400000, guid: 880bb50268b8b094688ea2c61995b153, type: 2}
  - {fileID: 11400000, guid: d89c19370b4796c4c8467bd1ccb535d5, type: 2}
  - {fileID: 11400000, guid: 21fa2a5248e111743a8e3e3fc3851ae7, type: 2}
  - {fileID: 11400000, guid: 2c3715b406e7e6e488eaeee9bd6df54a, type: 2}
  - {fileID: 11400000, guid: 2552e0d1bbed82b408a1743116c18544, type: 2}
  - {fileID: 11400000, guid: 88bd820f448de31448ada1543dc225d7, type: 2}
  - {fileID: 11400000, guid: 15a088d032dd26348a628252a4d7474c, type: 2}
  - {fileID: 11400000, guid: 9301b78974725524697ab42e63f63720, type: 2}
  - {fileID: 11400000, guid: da6e7950ea6fe0e409c79018c5c7f49a, type: 2}
  - {fileID: 11400000, guid: b5b387f1780e47d48992cb6208328ce2, type: 2}
  - {fileID: 11400000, guid: e84fc3fb1ad5aeb4f950569bc4e97f17, type: 2}
  - {fileID: 11400000, guid: 43bbff138c11d2d4f8b576a18cde94be, type: 2}
  - {fileID: 11400000, guid: 874b3e6b29674f74f90a46a614a14fab, type: 2}
  - {fileID: 11400000, guid: cd47a2f2151610a42b88bec6dd83088e, type: 2}
  - {fileID: 11400000, guid: 72bd456ee90434f439ead50c223a4cfb, type: 2}
  - {fileID: 11400000, guid: bb4aff3898472bf4eb8e4f268e28f1dc, type: 2}
  - {fileID: 11400000, guid: fde94f0da61fcaf46a3ef3262290c22f, type: 2}
  - {fileID: 11400000, guid: e6537841fd91a9249964257e1c486fd5, type: 2}
  - {fileID: 11400000, guid: d4cab3b1f810842419e38595f96aea9a, type: 2}
  - {fileID: 11400000, guid: f85bb79d0c006d6449af253b6743593c, type: 2}
  - {fileID: 11400000, guid: 4216c3823acdfa343bd9ebe267b06975, type: 2}
  - {fileID: 11400000, guid: 4d30468c426c59a40a8154eb9442a9df, type: 2}
  - {fileID: 11400000, guid: 880bb50268b8b094688ea2c61995b153, type: 2}
  - {fileID: 11400000, guid: d89c19370b4796c4c8467bd1ccb535d5, type: 2}
  - {fileID: 11400000, guid: 21fa2a5248e111743a8e3e3fc3851ae7, type: 2}
  - {fileID: 11400000, guid: 2c3715b406e7e6e488eaeee9bd6df54a, type: 2}
  - {fileID: 11400000, guid: 2552e0d1bbed82b408a1743116c18544, type: 2}
  - {fileID: 11400000, guid: 88bd820f448de31448ada1543dc225d7, type: 2}
  - {fileID: 11400000, guid: 15a088d032dd26348a628252a4d7474c, type: 2}
  - {fileID: 11400000, guid: 9301b78974725524697ab42e63f63720, type: 2}
  - {fileID: 11400000, guid: da6e7950ea6fe0e409c79018c5c7f49a, type: 2}
  - {fileID: 11400000, guid: b5b387f1780e47d48992cb6208328ce2, type: 2}
  - {fileID: 11400000, guid: e84fc3fb1ad5aeb4f950569bc4e97f17, type: 2}
  - {fileID: 11400000, guid: 43bbff138c11d2d4f8b576a18cde94be, type: 2}
  - {fileID: 11400000, guid: 874b3e6b29674f74f90a46a614a14fab, type: 2}
  - {fileID: 11400000, guid: cd47a2f2151610a42b88bec6dd83088e, type: 2}
  - {fileID: 11400000, guid: 72bd456ee90434f439ead50c223a4cfb, type: 2}
  - {fileID: 11400000, guid: bb4aff3898472bf4eb8e4f268e28f1dc, type: 2}
  - {fileID: 11400000, guid: fde94f0da61fcaf46a3ef3262290c22f, type: 2}
  - {fileID: 11400000, guid: e6537841fd91a9249964257e1c486fd5, type: 2}
  - {fileID: 11400000, guid: d4cab3b1f810842419e38595f96aea9a, type: 2}
  - {fileID: 11400000, guid: f85bb79d0c006d6449af253b6743593c, type: 2}
  - {fileID: 11400000, guid: 4216c3823acdfa343bd9ebe267b06975, type: 2}
  - {fileID: 11400000, guid: 4d30468c426c59a40a8154eb9442a9df, type: 2}
  - {fileID: 11400000, guid: 880bb50268b8b094688ea2c61995b153, type: 2}
  - {fileID: 11400000, guid: d89c19370b4796c4c8467bd1ccb535d5, type: 2}
  - {fileID: 11400000, guid: 21fa2a5248e111743a8e3e3fc3851ae7, type: 2}
  - {fileID: 11400000, guid: 2c3715b406e7e6e488eaeee9bd6df54a, type: 2}
  - {fileID: 11400000, guid: 2552e0d1bbed82b408a1743116c18544, type: 2}
  - {fileID: 11400000, guid: 88bd820f448de31448ada1543dc225d7, type: 2}
  - {fileID: 11400000, guid: 15a088d032dd26348a628252a4d7474c, type: 2}
  - {fileID: 11400000, guid: 9301b78974725524697ab42e63f63720, type: 2}
  - {fileID: 11400000, guid: da6e7950ea6fe0e409c79018c5c7f49a, type: 2}
  - {fileID: 11400000, guid: b5b387f1780e47d48992cb6208328ce2, type: 2}
  - {fileID: 11400000, guid: e84fc3fb1ad5aeb4f950569bc4e97f17, type: 2}
  - {fileID: 11400000, guid: 43bbff138c11d2d4f8b576a18cde94be, type: 2}
  - {fileID: 11400000, guid: 874b3e6b29674f74f90a46a614a14fab, type: 2}
  - {fileID: 11400000, guid: cd47a2f2151610a42b88bec6dd83088e, type: 2}
  - {fileID: 11400000, guid: 72bd456ee90434f439ead50c223a4cfb, type: 2}
  - {fileID: 11400000, guid: bb4aff3898472bf4eb8e4f268e28f1dc, type: 2}
  - {fileID: 11400000, guid: fde94f0da61fcaf46a3ef3262290c22f, type: 2}
  - {fileID: 11400000, guid: e6537841fd91a9249964257e1c486fd5, type: 2}
  - {fileID: 11400000, guid: d4cab3b1f810842419e38595f96aea9a, type: 2}
  - {fileID: 11400000, guid: f85bb79d0c006d6449af253b6743593c, type: 2}
  - {fileID: 11400000, guid: 4216c3823acdfa343bd9ebe267b06975, type: 2}
  - {fileID: 11400000, guid: 4d30468c426c59a40a8154eb9442a9df, type: 2}
  - {fileID: 11400000, guid: 880bb50268b8b094688ea2c61995b153, type: 2}
  - {fileID: 11400000, guid: d89c19370b4796c4c8467bd1ccb535d5, type: 2}
  - {fileID: 11400000, guid: 21fa2a5248e111743a8e3e3fc3851ae7, type: 2}
  - {fileID: 11400000, guid: 2c3715b406e7e6e488eaeee9bd6df54a, type: 2}
  - {fileID: 11400000, guid: 2552e0d1bbed82b408a1743116c18544, type: 2}
  - {fileID: 11400000, guid: 88bd820f448de31448ada1543dc225d7, type: 2}
  - {fileID: 11400000, guid: 15a088d032dd26348a628252a4d7474c, type: 2}
  - {fileID: 11400000, guid: 9301b78974725524697ab42e63f63720, type: 2}
  - {fileID: 11400000, guid: da6e7950ea6fe0e409c79018c5c7f49a, type: 2}
  - {fileID: 11400000, guid: b5b387f1780e47d48992cb6208328ce2, type: 2}
  - {fileID: 11400000, guid: e84fc3fb1ad5aeb4f950569bc4e97f17, type: 2}
  - {fileID: 11400000, guid: 43bbff138c11d2d4f8b576a18cde94be, type: 2}
  - {fileID: 11400000, guid: 874b3e6b29674f74f90a46a614a14fab, type: 2}
  - {fileID: 11400000, guid: cd47a2f2151610a42b88bec6dd83088e, type: 2}
  - {fileID: 11400000, guid: 72bd456ee90434f439ead50c223a4cfb, type: 2}
  - {fileID: 11400000, guid: bb4aff3898472bf4eb8e4f268e28f1dc, type: 2}
  - {fileID: 11400000, guid: fde94f0da61fcaf46a3ef3262290c22f, type: 2}
  - {fileID: 11400000, guid: e6537841fd91a9249964257e1c486fd5, type: 2}
  - {fileID: 11400000, guid: d4cab3b1f810842419e38595f96aea9a, type: 2}
  - {fileID: 11400000, guid: f85bb79d0c006d6449af253b6743593c, type: 2}
  - {fileID: 11400000, guid: 4216c3823acdfa343bd9ebe267b06975, type: 2}
  - {fileID: 11400000, guid: 4d30468c426c59a40a8154eb9442a9df, type: 2}
  - {fileID: 11400000, guid: 880bb50268b8b094688ea2c61995b153, type: 2}
  - {fileID: 11400000, guid: d89c19370b4796c4c8467bd1ccb535d5, type: 2}
  - {fileID: 11400000, guid: 21fa2a5248e111743a8e3e3fc3851ae7, type: 2}
  - {fileID: 11400000, guid: 2c3715b406e7e6e488eaeee9bd6df54a, type: 2}
  - {fileID: 11400000, guid: 2552e0d1bbed82b408a1743116c18544, type: 2}
  - {fileID: 11400000, guid: 88bd820f448de31448ada1543dc225d7, type: 2}
  - {fileID: 11400000, guid: 15a088d032dd26348a628252a4d7474c, type: 2}
  - {fileID: 11400000, guid: 9301b78974725524697ab42e63f63720, type: 2}
  - {fileID: 11400000, guid: da6e7950ea6fe0e409c79018c5c7f49a, type: 2}
  - {fileID: 11400000, guid: b5b387f1780e47d48992cb6208328ce2, type: 2}
  - {fileID: 11400000, guid: e84fc3fb1ad5aeb4f950569bc4e97f17, type: 2}
  - {fileID: 11400000, guid: 43bbff138c11d2d4f8b576a18cde94be, type: 2}
  - {fileID: 11400000, guid: 874b3e6b29674f74f90a46a614a14fab, type: 2}
  - {fileID: 11400000, guid: cd47a2f2151610a42b88bec6dd83088e, type: 2}
  - {fileID: 11400000, guid: 72bd456ee90434f439ead50c223a4cfb, type: 2}
  - {fileID: 11400000, guid: bb4aff3898472bf4eb8e4f268e28f1dc, type: 2}
  - {fileID: 11400000, guid: fde94f0da61fcaf46a3ef3262290c22f, type: 2}
  - {fileID: 11400000, guid: e6537841fd91a9249964257e1c486fd5, type: 2}
  - {fileID: 11400000, guid: d4cab3b1f810842419e38595f96aea9a, type: 2}
  - {fileID: 11400000, guid: f85bb79d0c006d6449af253b6743593c, type: 2}
  - {fileID: 11400000, guid: 4216c3823acdfa343bd9ebe267b06975, type: 2}
  - {fileID: 11400000, guid: 4d30468c426c59a40a8154eb9442a9df, type: 2}
  - {fileID: 11400000, guid: 880bb50268b8b094688ea2c61995b153, type: 2}
  - {fileID: 11400000, guid: d89c19370b4796c4c8467bd1ccb535d5, type: 2}
  - {fileID: 11400000, guid: 21fa2a5248e111743a8e3e3fc3851ae7, type: 2}
  - {fileID: 11400000, guid: 2c3715b406e7e6e488eaeee9bd6df54a, type: 2}
  - {fileID: 11400000, guid: 2552e0d1bbed82b408a1743116c18544, type: 2}
  - {fileID: 11400000, guid: 88bd820f448de31448ada1543dc225d7, type: 2}
  - {fileID: 11400000, guid: 15a088d032dd26348a628252a4d7474c, type: 2}
  - {fileID: 11400000, guid: 9301b78974725524697ab42e63f63720, type: 2}
  - {fileID: 11400000, guid: da6e7950ea6fe0e409c79018c5c7f49a, type: 2}
  - {fileID: 11400000, guid: b5b387f1780e47d48992cb6208328ce2, type: 2}
  - {fileID: 11400000, guid: e84fc3fb1ad5aeb4f950569bc4e97f17, type: 2}
  - {fileID: 11400000, guid: 43bbff138c11d2d4f8b576a18cde94be, type: 2}
  - {fileID: 11400000, guid: 874b3e6b29674f74f90a46a614a14fab, type: 2}
  - {fileID: 11400000, guid: cd47a2f2151610a42b88bec6dd83088e, type: 2}
  - {fileID: 11400000, guid: 72bd456ee90434f439ead50c223a4cfb, type: 2}
  - {fileID: 11400000, guid: bb4aff3898472bf4eb8e4f268e28f1dc, type: 2}
  - {fileID: 11400000, guid: fde94f0da61fcaf46a3ef3262290c22f, type: 2}
  - {fileID: 11400000, guid: e6537841fd91a9249964257e1c486fd5, type: 2}
  - {fileID: 11400000, guid: d4cab3b1f810842419e38595f96aea9a, type: 2}
  - {fileID: 11400000, guid: f85bb79d0c006d6449af253b6743593c, type: 2}
  - {fileID: 11400000, guid: 4216c3823acdfa343bd9ebe267b06975, type: 2}
  - {fileID: 11400000, guid: 4d30468c426c59a40a8154eb9442a9df, type: 2}
  - {fileID: 11400000, guid: 880bb50268b8b094688ea2c61995b153, type: 2}
  - {fileID: 11400000, guid: d89c19370b4796c4c8467bd1ccb535d5, type: 2}
  - {fileID: 11400000, guid: 21fa2a5248e111743a8e3e3fc3851ae7, type: 2}
  - {fileID: 11400000, guid: 2c3715b406e7e6e488eaeee9bd6df54a, type: 2}
  - {fileID: 11400000, guid: 2552e0d1bbed82b408a1743116c18544, type: 2}
  - {fileID: 11400000, guid: 88bd820f448de31448ada1543dc225d7, type: 2}
  - {fileID: 11400000, guid: 15a088d032dd26348a628252a4d7474c, type: 2}
  - {fileID: 11400000, guid: 9301b78974725524697ab42e63f63720, type: 2}
  - {fileID: 11400000, guid: da6e7950ea6fe0e409c79018c5c7f49a, type: 2}
  - {fileID: 11400000, guid: b5b387f1780e47d48992cb6208328ce2, type: 2}
  - {fileID: 11400000, guid: e84fc3fb1ad5aeb4f950569bc4e97f17, type: 2}
  - {fileID: 11400000, guid: 43bbff138c11d2d4f8b576a18cde94be, type: 2}
  - {fileID: 11400000, guid: 874b3e6b29674f74f90a46a614a14fab, type: 2}
  - {fileID: 11400000, guid: cd47a2f2151610a42b88bec6dd83088e, type: 2}
  - {fileID: 11400000, guid: 72bd456ee90434f439ead50c223a4cfb, type: 2}
  - {fileID: 11400000, guid: bb4aff3898472bf4eb8e4f268e28f1dc, type: 2}
  - {fileID: 11400000, guid: fde94f0da61fcaf46a3ef3262290c22f, type: 2}
  - {fileID: 11400000, guid: e6537841fd91a9249964257e1c486fd5, type: 2}
  - {fileID: 11400000, guid: d4cab3b1f810842419e38595f96aea9a, type: 2}
  - {fileID: 11400000, guid: f85bb79d0c006d6449af253b6743593c, type: 2}
  - {fileID: 11400000, guid: 4216c3823acdfa343bd9ebe267b06975, type: 2}
  - {fileID: 11400000, guid: 4d30468c426c59a40a8154eb9442a9df, type: 2}
  - {fileID: 11400000, guid: 880bb50268b8b094688ea2c61995b153, type: 2}
  - {fileID: 11400000, guid: d89c19370b4796c4c8467bd1ccb535d5, type: 2}
  - {fileID: 11400000, guid: 21fa2a5248e111743a8e3e3fc3851ae7, type: 2}
  - {fileID: 11400000, guid: 2c3715b406e7e6e488eaeee9bd6df54a, type: 2}
  - {fileID: 11400000, guid: 2552e0d1bbed82b408a1743116c18544, type: 2}
  - {fileID: 11400000, guid: 88bd820f448de31448ada1543dc225d7, type: 2}
  - {fileID: 11400000, guid: 15a088d032dd26348a628252a4d7474c, type: 2}
  - {fileID: 11400000, guid: 9301b78974725524697ab42e63f63720, type: 2}
  - {fileID: 11400000, guid: da6e7950ea6fe0e409c79018c5c7f49a, type: 2}
  - {fileID: 11400000, guid: b5b387f1780e47d48992cb6208328ce2, type: 2}
  - {fileID: 11400000, guid: e84fc3fb1ad5aeb4f950569bc4e97f17, type: 2}
  - {fileID: 11400000, guid: 43bbff138c11d2d4f8b576a18cde94be, type: 2}
  - {fileID: 11400000, guid: 874b3e6b29674f74f90a46a614a14fab, type: 2}
  - {fileID: 11400000, guid: cd47a2f2151610a42b88bec6dd83088e, type: 2}
  - {fileID: 11400000, guid: 72bd456ee90434f439ead50c223a4cfb, type: 2}
  - {fileID: 11400000, guid: bb4aff3898472bf4eb8e4f268e28f1dc, type: 2}
  - {fileID: 11400000, guid: fde94f0da61fcaf46a3ef3262290c22f, type: 2}
  - {fileID: 11400000, guid: e6537841fd91a9249964257e1c486fd5, type: 2}
  - {fileID: 11400000, guid: d4cab3b1f810842419e38595f96aea9a, type: 2}
  - {fileID: 11400000, guid: f85bb79d0c006d6449af253b6743593c, type: 2}
  - {fileID: 11400000, guid: 4216c3823acdfa343bd9ebe267b06975, type: 2}
  - {fileID: 11400000, guid: 4d30468c426c59a40a8154eb9442a9df, type: 2}
  - {fileID: 11400000, guid: 880bb50268b8b094688ea2c61995b153, type: 2}
  - {fileID: 11400000, guid: d89c19370b4796c4c8467bd1ccb535d5, type: 2}
  - {fileID: 11400000, guid: 21fa2a5248e111743a8e3e3fc3851ae7, type: 2}
  - {fileID: 11400000, guid: 2c3715b406e7e6e488eaeee9bd6df54a, type: 2}
  - {fileID: 11400000, guid: 2552e0d1bbed82b408a1743116c18544, type: 2}
  - {fileID: 11400000, guid: 88bd820f448de31448ada1543dc225d7, type: 2}
  - {fileID: 11400000, guid: 15a088d032dd26348a628252a4d7474c, type: 2}
  - {fileID: 11400000, guid: 9301b78974725524697ab42e63f63720, type: 2}
  - {fileID: 11400000, guid: da6e7950ea6fe0e409c79018c5c7f49a, type: 2}
  - {fileID: 11400000, guid: b5b387f1780e47d48992cb6208328ce2, type: 2}
  - {fileID: 11400000, guid: e84fc3fb1ad5aeb4f950569bc4e97f17, type: 2}
  - {fileID: 11400000, guid: 43bbff138c11d2d4f8b576a18cde94be, type: 2}
  - {fileID: 11400000, guid: 874b3e6b29674f74f90a46a614a14fab, type: 2}
  - {fileID: 11400000, guid: cd47a2f2151610a42b88bec6dd83088e, type: 2}
  - {fileID: 11400000, guid: 72bd456ee90434f439ead50c223a4cfb, type: 2}
  - {fileID: 11400000, guid: bb4aff3898472bf4eb8e4f268e28f1dc, type: 2}
  - {fileID: 11400000, guid: fde94f0da61fcaf46a3ef3262290c22f, type: 2}
  - {fileID: 11400000, guid: e6537841fd91a9249964257e1c486fd5, type: 2}
  - {fileID: 11400000, guid: d4cab3b1f810842419e38595f96aea9a, type: 2}
  - {fileID: 11400000, guid: f85bb79d0c006d6449af253b6743593c, type: 2}
  - {fileID: 11400000, guid: 4216c3823acdfa343bd9ebe267b06975, type: 2}
  - {fileID: 11400000, guid: 4d30468c426c59a40a8154eb9442a9df, type: 2}
  - {fileID: 11400000, guid: 880bb50268b8b094688ea2c61995b153, type: 2}
  - {fileID: 11400000, guid: d89c19370b4796c4c8467bd1ccb535d5, type: 2}
  - {fileID: 11400000, guid: 21fa2a5248e111743a8e3e3fc3851ae7, type: 2}
  - {fileID: 11400000, guid: 2c3715b406e7e6e488eaeee9bd6df54a, type: 2}
  - {fileID: 11400000, guid: 2552e0d1bbed82b408a1743116c18544, type: 2}
  - {fileID: 11400000, guid: 88bd820f448de31448ada1543dc225d7, type: 2}
  - {fileID: 11400000, guid: 15a088d032dd26348a628252a4d7474c, type: 2}
  - {fileID: 11400000, guid: 9301b78974725524697ab42e63f63720, type: 2}
  - {fileID: 11400000, guid: da6e7950ea6fe0e409c79018c5c7f49a, type: 2}
  - {fileID: 11400000, guid: b5b387f1780e47d48992cb6208328ce2, type: 2}
  - {fileID: 11400000, guid: e84fc3fb1ad5aeb4f950569bc4e97f17, type: 2}
  - {fileID: 11400000, guid: 43bbff138c11d2d4f8b576a18cde94be, type: 2}
  - {fileID: 11400000, guid: 874b3e6b29674f74f90a46a614a14fab, type: 2}
  - {fileID: 11400000, guid: cd47a2f2151610a42b88bec6dd83088e, type: 2}
  - {fileID: 11400000, guid: 72bd456ee90434f439ead50c223a4cfb, type: 2}
  - {fileID: 11400000, guid: bb4aff3898472bf4eb8e4f268e28f1dc, type: 2}
  - {fileID: 11400000, guid: fde94f0da61fcaf46a3ef3262290c22f, type: 2}
  - {fileID: 11400000, guid: e6537841fd91a9249964257e1c486fd5, type: 2}
  - {fileID: 11400000, guid: d4cab3b1f810842419e38595f96aea9a, type: 2}
  - {fileID: 11400000, guid: f85bb79d0c006d6449af253b6743593c, type: 2}
  - {fileID: 11400000, guid: 4216c3823acdfa343bd9ebe267b06975, type: 2}
  - {fileID: 11400000, guid: 4d30468c426c59a40a8154eb9442a9df, type: 2}
  - {fileID: 11400000, guid: 880bb50268b8b094688ea2c61995b153, type: 2}
  - {fileID: 11400000, guid: d89c19370b4796c4c8467bd1ccb535d5, type: 2}
  - {fileID: 11400000, guid: 21fa2a5248e111743a8e3e3fc3851ae7, type: 2}
  - {fileID: 11400000, guid: 2c3715b406e7e6e488eaeee9bd6df54a, type: 2}
  - {fileID: 11400000, guid: 2552e0d1bbed82b408a1743116c18544, type: 2}
  - {fileID: 11400000, guid: 88bd820f448de31448ada1543dc225d7, type: 2}
  - {fileID: 11400000, guid: 15a088d032dd26348a628252a4d7474c, type: 2}
  - {fileID: 11400000, guid: 9301b78974725524697ab42e63f63720, type: 2}
  - {fileID: 11400000, guid: da6e7950ea6fe0e409c79018c5c7f49a, type: 2}
  - {fileID: 11400000, guid: b5b387f1780e47d48992cb6208328ce2, type: 2}
  - {fileID: 11400000, guid: e84fc3fb1ad5aeb4f950569bc4e97f17, type: 2}
  - {fileID: 11400000, guid: 43bbff138c11d2d4f8b576a18cde94be, type: 2}
  - {fileID: 11400000, guid: 874b3e6b29674f74f90a46a614a14fab, type: 2}
  - {fileID: 11400000, guid: cd47a2f2151610a42b88bec6dd83088e, type: 2}
  - {fileID: 11400000, guid: 72bd456ee90434f439ead50c223a4cfb, type: 2}
  - {fileID: 11400000, guid: bb4aff3898472bf4eb8e4f268e28f1dc, type: 2}
  - {fileID: 11400000, guid: fde94f0da61fcaf46a3ef3262290c22f, type: 2}
  - {fileID: 11400000, guid: e6537841fd91a9249964257e1c486fd5, type: 2}
  - {fileID: 11400000, guid: d4cab3b1f810842419e38595f96aea9a, type: 2}
  - {fileID: 11400000, guid: f85bb79d0c006d6449af253b6743593c, type: 2}
  - {fileID: 11400000, guid: 4216c3823acdfa343bd9ebe267b06975, type: 2}
  - {fileID: 11400000, guid: 4d30468c426c59a40a8154eb9442a9df, type: 2}
  - {fileID: 11400000, guid: 880bb50268b8b094688ea2c61995b153, type: 2}
  - {fileID: 11400000, guid: d89c19370b4796c4c8467bd1ccb535d5, type: 2}
  - {fileID: 11400000, guid: 21fa2a5248e111743a8e3e3fc3851ae7, type: 2}
  - {fileID: 11400000, guid: 2c3715b406e7e6e488eaeee9bd6df54a, type: 2}
  - {fileID: 11400000, guid: 2552e0d1bbed82b408a1743116c18544, type: 2}
  - {fileID: 11400000, guid: 88bd820f448de31448ada1543dc225d7, type: 2}
  - {fileID: 11400000, guid: 15a088d032dd26348a628252a4d7474c, type: 2}
  playerInventory: {fileID: 11400000, guid: aec32474bc9b03d4f8f3a2b462631468, type: 2}
