%YAML 1.1
%TAG !u! tag:unity3d.com,2011:
--- !u!114 &11400000
MonoBehaviour:
  m_ObjectHideFlags: 0
  m_CorrespondingSourceObject: {fileID: 0}
  m_PrefabInstance: {fileID: 0}
  m_PrefabAsset: {fileID: 0}
  m_GameObject: {fileID: 0}
  m_Enabled: 1
  m_EditorHideFlags: 0
  m_Script: {fileID: 11500000, guid: 1b4f0d9ac74fb8e4eb7928dd2f0160f7, type: 3}
  m_Name: crossbow
  m_EditorClassIdentifier: 
  modelo: {fileID: 8370802328558119537, guid: 4a36f3a1e6f34494f8059f8dd3df1777, type: 3}
  imagen: {fileID: 21300000, guid: 13d95f09102041b44a7040279ccaad42, type: 3}
  ammo: 3
  maxAmmo: 5
  colorLuz: {r: 0.08498816, g: 0.3490566, b: 0, a: 0}
  numProjectiles: 3
  projectile: {fileID: 2008720979603947296, guid: 27cbea4ab30b09542a10b09fb87ed0b2, type: 3}
  projectileSpeed: 40
  projectileForce: {x: 0, y: 0, z: 0}
