%YAML 1.1
%TAG !u! tag:unity3d.com,2011:
--- !u!29 &1
OcclusionCullingSettings:
  m_ObjectHideFlags: 0
  serializedVersion: 2
  m_OcclusionBakeSettings:
    smallestOccluder: 5
    smallestHole: 0.25
    backfaceThreshold: 100
  m_SceneGUID: 00000000000000000000000000000000
  m_OcclusionCullingData: {fileID: 0}
--- !u!104 &2
RenderSettings:
  m_ObjectHideFlags: 0
  serializedVersion: 9
  m_Fog: 0
  m_FogColor: {r: 0.5, g: 0.5, b: 0.5, a: 1}
  m_FogMode: 3
  m_FogDensity: 0.01
  m_LinearFogStart: 0
  m_LinearFogEnd: 300
  m_AmbientSkyColor: {r: 0.212, g: 0.227, b: 0.259, a: 1}
  m_AmbientEquatorColor: {r: 0.114, g: 0.125, b: 0.133, a: 1}
  m_AmbientGroundColor: {r: 0.047, g: 0.043, b: 0.035, a: 1}
  m_AmbientIntensity: 1
  m_AmbientMode: 3
  m_SubtractiveShadowColor: {r: 0.42, g: 0.478, b: 0.627, a: 1}
  m_SkyboxMaterial: {fileID: 0}
  m_HaloStrength: 0.5
  m_FlareStrength: 1
  m_FlareFadeSpeed: 3
  m_HaloTexture: {fileID: 0}
  m_SpotCookie: {fileID: 10001, guid: 0000000000000000e000000000000000, type: 0}
  m_DefaultReflectionMode: 0
  m_DefaultReflectionResolution: 128
  m_ReflectionBounces: 1
  m_ReflectionIntensity: 1
  m_CustomReflection: {fileID: 0}
  m_Sun: {fileID: 0}
  m_IndirectSpecularColor: {r: 0, g: 0, b: 0, a: 1}
  m_UseRadianceAmbientProbe: 0
--- !u!157 &3
LightmapSettings:
  m_ObjectHideFlags: 0
  serializedVersion: 12
  m_GIWorkflowMode: 1
  m_GISettings:
    serializedVersion: 2
    m_BounceScale: 1
    m_IndirectOutputScale: 1
    m_AlbedoBoost: 1
    m_EnvironmentLightingMode: 0
    m_EnableBakedLightmaps: 0
    m_EnableRealtimeLightmaps: 0
  m_LightmapEditorSettings:
    serializedVersion: 12
    m_Resolution: 2
    m_BakeResolution: 40
    m_AtlasSize: 1024
    m_AO: 0
    m_AOMaxDistance: 1
    m_CompAOExponent: 1
    m_CompAOExponentDirect: 0
    m_ExtractAmbientOcclusion: 0
    m_Padding: 2
    m_LightmapParameters: {fileID: 0}
    m_LightmapsBakeMode: 1
    m_TextureCompression: 1
    m_FinalGather: 0
    m_FinalGatherFiltering: 1
    m_FinalGatherRayCount: 256
    m_ReflectionCompression: 2
    m_MixedBakeMode: 2
    m_BakeBackend: 1
    m_PVRSampling: 1
    m_PVRDirectSampleCount: 32
    m_PVRSampleCount: 512
    m_PVRBounces: 2
    m_PVREnvironmentSampleCount: 256
    m_PVREnvironmentReferencePointCount: 2048
    m_PVRFilteringMode: 1
    m_PVRDenoiserTypeDirect: 1
    m_PVRDenoiserTypeIndirect: 1
    m_PVRDenoiserTypeAO: 1
    m_PVRFilterTypeDirect: 0
    m_PVRFilterTypeIndirect: 0
    m_PVRFilterTypeAO: 0
    m_PVREnvironmentMIS: 1
    m_PVRCulling: 1
    m_PVRFilteringGaussRadiusDirect: 1
    m_PVRFilteringGaussRadiusIndirect: 5
    m_PVRFilteringGaussRadiusAO: 2
    m_PVRFilteringAtrousPositionSigmaDirect: 0.5
    m_PVRFilteringAtrousPositionSigmaIndirect: 2
    m_PVRFilteringAtrousPositionSigmaAO: 1
    m_ExportTrainingData: 0
    m_TrainingDataDestination: TrainingData
    m_LightProbeSampleCountMultiplier: 4
  m_LightingDataAsset: {fileID: 0}
  m_LightingSettings: {fileID: 0}
--- !u!196 &4
NavMeshSettings:
  serializedVersion: 2
  m_ObjectHideFlags: 0
  m_BuildSettings:
    serializedVersion: 2
    agentTypeID: 0
    agentRadius: 0.5
    agentHeight: 2
    agentSlope: 45
    agentClimb: 0.4
    ledgeDropHeight: 0
    maxJumpAcrossDistance: 0
    minRegionArea: 2
    manualCellSize: 0
    cellSize: 0.16666667
    manualTileSize: 0
    tileSize: 256
    accuratePlacement: 0
    maxJobWorkers: 0
    preserveTilesOutsideBounds: 0
    debug:
      m_Flags: 0
  m_NavMeshData: {fileID: 0}
--- !u!1001 &96344897
PrefabInstance:
  m_ObjectHideFlags: 0
  serializedVersion: 2
  m_Modification:
    m_TransformParent: {fileID: 0}
    m_Modifications:
    - target: {fileID: 8596340056321084865, guid: f814a333429407741b3aa72cd3047d52, type: 3}
      propertyPath: m_Name
      value: Enemigo (1)
      objectReference: {fileID: 0}
    - target: {fileID: 8596340056321084892, guid: f814a333429407741b3aa72cd3047d52, type: 3}
      propertyPath: m_RootOrder
      value: 2
      objectReference: {fileID: 0}
    - target: {fileID: 8596340056321084892, guid: f814a333429407741b3aa72cd3047d52, type: 3}
      propertyPath: m_LocalPosition.x
      value: -6.29
      objectReference: {fileID: 0}
    - target: {fileID: 8596340056321084892, guid: f814a333429407741b3aa72cd3047d52, type: 3}
      propertyPath: m_LocalPosition.y
      value: 1.29
      objectReference: {fileID: 0}
    - target: {fileID: 8596340056321084892, guid: f814a333429407741b3aa72cd3047d52, type: 3}
      propertyPath: m_LocalPosition.z
      value: 0
      objectReference: {fileID: 0}
    - target: {fileID: 8596340056321084892, guid: f814a333429407741b3aa72cd3047d52, type: 3}
      propertyPath: m_LocalRotation.w
      value: 1
      objectReference: {fileID: 0}
    - target: {fileID: 8596340056321084892, guid: f814a333429407741b3aa72cd3047d52, type: 3}
      propertyPath: m_LocalRotation.x
      value: 0
      objectReference: {fileID: 0}
    - target: {fileID: 8596340056321084892, guid: f814a333429407741b3aa72cd3047d52, type: 3}
      propertyPath: m_LocalRotation.y
      value: 0
      objectReference: {fileID: 0}
    - target: {fileID: 8596340056321084892, guid: f814a333429407741b3aa72cd3047d52, type: 3}
      propertyPath: m_LocalRotation.z
      value: 0
      objectReference: {fileID: 0}
    - target: {fileID: 8596340056321084892, guid: f814a333429407741b3aa72cd3047d52, type: 3}
      propertyPath: m_LocalEulerAnglesHint.x
      value: 0
      objectReference: {fileID: 0}
    - target: {fileID: 8596340056321084892, guid: f814a333429407741b3aa72cd3047d52, type: 3}
      propertyPath: m_LocalEulerAnglesHint.y
      value: 0
      objectReference: {fileID: 0}
    - target: {fileID: 8596340056321084892, guid: f814a333429407741b3aa72cd3047d52, type: 3}
      propertyPath: m_LocalEulerAnglesHint.z
      value: 0
      objectReference: {fileID: 0}
    m_RemovedComponents: []
  m_SourcePrefab: {fileID: 100100000, guid: f814a333429407741b3aa72cd3047d52, type: 3}
--- !u!1001 &813535163
PrefabInstance:
  m_ObjectHideFlags: 0
  serializedVersion: 2
  m_Modification:
    m_TransformParent: {fileID: 0}
    m_Modifications:
    - target: {fileID: 223206950506558721, guid: 9aaf67d4b062988478382bb3f8db2b45, type: 3}
      propertyPath: m_LocalRotation.w
      value: 0.06442392
      objectReference: {fileID: 0}
    - target: {fileID: 223206950506558721, guid: 9aaf67d4b062988478382bb3f8db2b45, type: 3}
      propertyPath: m_LocalRotation.x
      value: -0.0079931505
      objectReference: {fileID: 0}
    - target: {fileID: 223206950506558721, guid: 9aaf67d4b062988478382bb3f8db2b45, type: 3}
      propertyPath: m_LocalRotation.y
      value: 0.0003123197
      objectReference: {fileID: 0}
    - target: {fileID: 223206950506558721, guid: 9aaf67d4b062988478382bb3f8db2b45, type: 3}
      propertyPath: m_LocalRotation.z
      value: 0.9978906
      objectReference: {fileID: 0}
    - target: {fileID: 2804473315904221354, guid: 9aaf67d4b062988478382bb3f8db2b45, type: 3}
      propertyPath: m_LocalRotation.w
      value: 0.9996679
      objectReference: {fileID: 0}
    - target: {fileID: 2804473315904221354, guid: 9aaf67d4b062988478382bb3f8db2b45, type: 3}
      propertyPath: m_LocalRotation.x
      value: 0.0002643544
      objectReference: {fileID: 0}
    - target: {fileID: 2804473315904221354, guid: 9aaf67d4b062988478382bb3f8db2b45, type: 3}
      propertyPath: m_LocalRotation.y
      value: -0.00003872579
      objectReference: {fileID: 0}
    - target: {fileID: 2804473315904221354, guid: 9aaf67d4b062988478382bb3f8db2b45, type: 3}
      propertyPath: m_LocalRotation.z
      value: 0.025768744
      objectReference: {fileID: 0}
    - target: {fileID: 2804473316114146684, guid: 9aaf67d4b062988478382bb3f8db2b45, type: 3}
      propertyPath: m_LocalRotation.w
      value: 0.9996806
      objectReference: {fileID: 0}
    - target: {fileID: 2804473316114146684, guid: 9aaf67d4b062988478382bb3f8db2b45, type: 3}
      propertyPath: m_LocalRotation.x
      value: 0.00013786211
      objectReference: {fileID: 0}
    - target: {fileID: 2804473316114146684, guid: 9aaf67d4b062988478382bb3f8db2b45, type: 3}
      propertyPath: m_LocalRotation.y
      value: 0.00000046566117
      objectReference: {fileID: 0}
    - target: {fileID: 2804473316114146684, guid: 9aaf67d4b062988478382bb3f8db2b45, type: 3}
      propertyPath: m_LocalRotation.z
      value: -0.025273446
      objectReference: {fileID: 0}
    - target: {fileID: 2804473316276005571, guid: 9aaf67d4b062988478382bb3f8db2b45, type: 3}
      propertyPath: m_LocalRotation.x
      value: -0.0002659305
      objectReference: {fileID: 0}
    - target: {fileID: 2804473316276005571, guid: 9aaf67d4b062988478382bb3f8db2b45, type: 3}
      propertyPath: m_LocalRotation.y
      value: 0.000012144212
      objectReference: {fileID: 0}
    - target: {fileID: 2804473316276005571, guid: 9aaf67d4b062988478382bb3f8db2b45, type: 3}
      propertyPath: m_LocalRotation.z
      value: 0.00012209328
      objectReference: {fileID: 0}
    - target: {fileID: 2804473316427478463, guid: 9aaf67d4b062988478382bb3f8db2b45, type: 3}
      propertyPath: m_LocalRotation.w
      value: 0.9999987
      objectReference: {fileID: 0}
    - target: {fileID: 2804473316427478463, guid: 9aaf67d4b062988478382bb3f8db2b45, type: 3}
      propertyPath: m_LocalRotation.x
      value: 0.0006581274
      objectReference: {fileID: 0}
    - target: {fileID: 2804473316427478463, guid: 9aaf67d4b062988478382bb3f8db2b45, type: 3}
      propertyPath: m_LocalRotation.y
      value: 0.000022158956
      objectReference: {fileID: 0}
    - target: {fileID: 2804473316427478463, guid: 9aaf67d4b062988478382bb3f8db2b45, type: 3}
      propertyPath: m_LocalRotation.z
      value: -0.0015177439
      objectReference: {fileID: 0}
    - target: {fileID: 3839602363581181214, guid: 9aaf67d4b062988478382bb3f8db2b45, type: 3}
      propertyPath: m_LocalRotation.w
      value: 0.99710494
      objectReference: {fileID: 0}
    - target: {fileID: 3839602363581181214, guid: 9aaf67d4b062988478382bb3f8db2b45, type: 3}
      propertyPath: m_LocalRotation.x
      value: -0.00055318646
      objectReference: {fileID: 0}
    - target: {fileID: 3839602363581181214, guid: 9aaf67d4b062988478382bb3f8db2b45, type: 3}
      propertyPath: m_LocalRotation.y
      value: 0.0075497986
      objectReference: {fileID: 0}
    - target: {fileID: 3839602363581181214, guid: 9aaf67d4b062988478382bb3f8db2b45, type: 3}
      propertyPath: m_LocalRotation.z
      value: 0.075660676
      objectReference: {fileID: 0}
    - target: {fileID: 4058573979939903614, guid: 9aaf67d4b062988478382bb3f8db2b45, type: 3}
      propertyPath: m_LocalRotation.w
      value: 0.9910772
      objectReference: {fileID: 0}
    - target: {fileID: 4058573979939903614, guid: 9aaf67d4b062988478382bb3f8db2b45, type: 3}
      propertyPath: m_LocalRotation.x
      value: -0.00026577376
      objectReference: {fileID: 0}
    - target: {fileID: 4058573979939903614, guid: 9aaf67d4b062988478382bb3f8db2b45, type: 3}
      propertyPath: m_LocalRotation.y
      value: -0.0029563548
      objectReference: {fileID: 0}
    - target: {fileID: 4058573979939903614, guid: 9aaf67d4b062988478382bb3f8db2b45, type: 3}
      propertyPath: m_LocalRotation.z
      value: -0.13325627
      objectReference: {fileID: 0}
    - target: {fileID: 4463154839682603495, guid: 9aaf67d4b062988478382bb3f8db2b45, type: 3}
      propertyPath: m_LocalRotation.w
      value: 0.13823174
      objectReference: {fileID: 0}
    - target: {fileID: 4463154839682603495, guid: 9aaf67d4b062988478382bb3f8db2b45, type: 3}
      propertyPath: m_LocalRotation.x
      value: 0.0030233166
      objectReference: {fileID: 0}
    - target: {fileID: 4463154839682603495, guid: 9aaf67d4b062988478382bb3f8db2b45, type: 3}
      propertyPath: m_LocalRotation.y
      value: 0.00000805841
      objectReference: {fileID: 0}
    - target: {fileID: 4463154839682603495, guid: 9aaf67d4b062988478382bb3f8db2b45, type: 3}
      propertyPath: m_LocalRotation.z
      value: -0.9903953
      objectReference: {fileID: 0}
    - target: {fileID: 4490517502947990366, guid: 9aaf67d4b062988478382bb3f8db2b45, type: 3}
      propertyPath: m_LocalRotation.w
      value: 0.030647367
      objectReference: {fileID: 0}
    - target: {fileID: 4490517502947990366, guid: 9aaf67d4b062988478382bb3f8db2b45, type: 3}
      propertyPath: m_LocalRotation.x
      value: 0.007617524
      objectReference: {fileID: 0}
    - target: {fileID: 4490517502947990366, guid: 9aaf67d4b062988478382bb3f8db2b45, type: 3}
      propertyPath: m_LocalRotation.y
      value: 0.00024203866
      objectReference: {fileID: 0}
    - target: {fileID: 4490517502947990366, guid: 9aaf67d4b062988478382bb3f8db2b45, type: 3}
      propertyPath: m_LocalRotation.z
      value: 0.9995013
      objectReference: {fileID: 0}
    - target: {fileID: 6152877757058557095, guid: 9aaf67d4b062988478382bb3f8db2b45, type: 3}
      propertyPath: m_RootOrder
      value: 4
      objectReference: {fileID: 0}
    - target: {fileID: 6152877757058557095, guid: 9aaf67d4b062988478382bb3f8db2b45, type: 3}
      propertyPath: m_LocalPosition.x
      value: -11.34
      objectReference: {fileID: 0}
    - target: {fileID: 6152877757058557095, guid: 9aaf67d4b062988478382bb3f8db2b45, type: 3}
      propertyPath: m_LocalPosition.y
      value: -4.39
      objectReference: {fileID: 0}
    - target: {fileID: 6152877757058557095, guid: 9aaf67d4b062988478382bb3f8db2b45, type: 3}
      propertyPath: m_LocalPosition.z
      value: 0
      objectReference: {fileID: 0}
    - target: {fileID: 6152877757058557095, guid: 9aaf67d4b062988478382bb3f8db2b45, type: 3}
      propertyPath: m_LocalRotation.w
      value: 1
      objectReference: {fileID: 0}
    - target: {fileID: 6152877757058557095, guid: 9aaf67d4b062988478382bb3f8db2b45, type: 3}
      propertyPath: m_LocalRotation.x
      value: 0
      objectReference: {fileID: 0}
    - target: {fileID: 6152877757058557095, guid: 9aaf67d4b062988478382bb3f8db2b45, type: 3}
      propertyPath: m_LocalRotation.y
      value: 0
      objectReference: {fileID: 0}
    - target: {fileID: 6152877757058557095, guid: 9aaf67d4b062988478382bb3f8db2b45, type: 3}
      propertyPath: m_LocalRotation.z
      value: 0
      objectReference: {fileID: 0}
    - target: {fileID: 6152877757058557095, guid: 9aaf67d4b062988478382bb3f8db2b45, type: 3}
      propertyPath: m_LocalEulerAnglesHint.x
      value: 0
      objectReference: {fileID: 0}
    - target: {fileID: 6152877757058557095, guid: 9aaf67d4b062988478382bb3f8db2b45, type: 3}
      propertyPath: m_LocalEulerAnglesHint.y
      value: 0
      objectReference: {fileID: 0}
    - target: {fileID: 6152877757058557095, guid: 9aaf67d4b062988478382bb3f8db2b45, type: 3}
      propertyPath: m_LocalEulerAnglesHint.z
      value: 0
      objectReference: {fileID: 0}
    - target: {fileID: 7308491863785094722, guid: 9aaf67d4b062988478382bb3f8db2b45, type: 3}
      propertyPath: m_LocalRotation.w
      value: 0.117446
      objectReference: {fileID: 0}
    - target: {fileID: 7308491863785094722, guid: 9aaf67d4b062988478382bb3f8db2b45, type: 3}
      propertyPath: m_LocalRotation.x
      value: -0.0028610716
      objectReference: {fileID: 0}
    - target: {fileID: 7308491863785094722, guid: 9aaf67d4b062988478382bb3f8db2b45, type: 3}
      propertyPath: m_LocalRotation.y
      value: -0.000077094795
      objectReference: {fileID: 0}
    - target: {fileID: 7308491863785094722, guid: 9aaf67d4b062988478382bb3f8db2b45, type: 3}
      propertyPath: m_LocalRotation.z
      value: -0.9930752
      objectReference: {fileID: 0}
    - target: {fileID: 7609220104759009173, guid: 9aaf67d4b062988478382bb3f8db2b45, type: 3}
      propertyPath: m_LocalRotation.w
      value: 0.99958855
      objectReference: {fileID: 0}
    - target: {fileID: 7609220104759009173, guid: 9aaf67d4b062988478382bb3f8db2b45, type: 3}
      propertyPath: m_LocalRotation.x
      value: -0.00015493066
      objectReference: {fileID: 0}
    - target: {fileID: 7609220104759009173, guid: 9aaf67d4b062988478382bb3f8db2b45, type: 3}
      propertyPath: m_LocalRotation.y
      value: -0.008000011
      objectReference: {fileID: 0}
    - target: {fileID: 7609220104759009173, guid: 9aaf67d4b062988478382bb3f8db2b45, type: 3}
      propertyPath: m_LocalRotation.z
      value: 0.027546113
      objectReference: {fileID: 0}
    - target: {fileID: 7696840956030866496, guid: 9aaf67d4b062988478382bb3f8db2b45, type: 3}
      propertyPath: m_Name
      value: PSB_Character_Skeleton_No_Variation 1
      objectReference: {fileID: 0}
    - target: {fileID: 8353752815893665160, guid: 9aaf67d4b062988478382bb3f8db2b45, type: 3}
      propertyPath: m_LocalRotation.w
      value: 0.99576384
      objectReference: {fileID: 0}
    - target: {fileID: 8353752815893665160, guid: 9aaf67d4b062988478382bb3f8db2b45, type: 3}
      propertyPath: m_LocalRotation.x
      value: 0.00026009872
      objectReference: {fileID: 0}
    - target: {fileID: 8353752815893665160, guid: 9aaf67d4b062988478382bb3f8db2b45, type: 3}
      propertyPath: m_LocalRotation.y
      value: 0.002825607
      objectReference: {fileID: 0}
    - target: {fileID: 8353752815893665160, guid: 9aaf67d4b062988478382bb3f8db2b45, type: 3}
      propertyPath: m_LocalRotation.z
      value: -0.09190465
      objectReference: {fileID: 0}
    m_RemovedComponents: []
  m_SourcePrefab: {fileID: 100100000, guid: 9aaf67d4b062988478382bb3f8db2b45, type: 3}
--- !u!1001 &914109375
PrefabInstance:
  m_ObjectHideFlags: 0
  serializedVersion: 2
  m_Modification:
    m_TransformParent: {fileID: 0}
    m_Modifications:
    - target: {fileID: 1182374543613171593, guid: 2e6f8ce3f8cb9354189edddb336472d0, type: 3}
      propertyPath: m_LocalRotation.w
      value: 0.008538665
      objectReference: {fileID: 0}
    - target: {fileID: 1182374543613171593, guid: 2e6f8ce3f8cb9354189edddb336472d0, type: 3}
      propertyPath: m_LocalRotation.x
      value: -0.004974276
      objectReference: {fileID: 0}
    - target: {fileID: 1182374543613171593, guid: 2e6f8ce3f8cb9354189edddb336472d0, type: 3}
      propertyPath: m_LocalRotation.y
      value: -0.0007906076
      objectReference: {fileID: 0}
    - target: {fileID: 1182374543613171593, guid: 2e6f8ce3f8cb9354189edddb336472d0, type: 3}
      propertyPath: m_LocalRotation.z
      value: -0.9999509
      objectReference: {fileID: 0}
    - target: {fileID: 1203260803498588389, guid: 2e6f8ce3f8cb9354189edddb336472d0, type: 3}
      propertyPath: m_LocalRotation.w
      value: 0.005600265
      objectReference: {fileID: 0}
    - target: {fileID: 1203260803498588389, guid: 2e6f8ce3f8cb9354189edddb336472d0, type: 3}
      propertyPath: m_LocalRotation.x
      value: -0.0076131793
      objectReference: {fileID: 0}
    - target: {fileID: 1203260803498588389, guid: 2e6f8ce3f8cb9354189edddb336472d0, type: 3}
      propertyPath: m_LocalRotation.y
      value: 0.00015020126
      objectReference: {fileID: 0}
    - target: {fileID: 1203260803498588389, guid: 2e6f8ce3f8cb9354189edddb336472d0, type: 3}
      propertyPath: m_LocalRotation.z
      value: -0.99995536
      objectReference: {fileID: 0}
    - target: {fileID: 2366061558785372574, guid: 2e6f8ce3f8cb9354189edddb336472d0, type: 3}
      propertyPath: m_Name
      value: Bruja
      objectReference: {fileID: 0}
    - target: {fileID: 2915389354736952394, guid: 2e6f8ce3f8cb9354189edddb336472d0, type: 3}
      propertyPath: m_LocalRotation.w
      value: 0.0037670291
      objectReference: {fileID: 0}
    - target: {fileID: 2915389354736952394, guid: 2e6f8ce3f8cb9354189edddb336472d0, type: 3}
      propertyPath: m_LocalRotation.x
      value: -0.0037761854
      objectReference: {fileID: 0}
    - target: {fileID: 2915389354736952394, guid: 2e6f8ce3f8cb9354189edddb336472d0, type: 3}
      propertyPath: m_LocalRotation.y
      value: 0.000037828002
      objectReference: {fileID: 0}
    - target: {fileID: 2915389354736952394, guid: 2e6f8ce3f8cb9354189edddb336472d0, type: 3}
      propertyPath: m_LocalRotation.z
      value: -0.9999858
      objectReference: {fileID: 0}
    - target: {fileID: 3770383886994303474, guid: 2e6f8ce3f8cb9354189edddb336472d0, type: 3}
      propertyPath: m_LocalRotation.w
      value: 0.99999964
      objectReference: {fileID: 0}
    - target: {fileID: 3770383886994303474, guid: 2e6f8ce3f8cb9354189edddb336472d0, type: 3}
      propertyPath: m_LocalRotation.x
      value: 0.00082287577
      objectReference: {fileID: 0}
    - target: {fileID: 3770383886994303474, guid: 2e6f8ce3f8cb9354189edddb336472d0, type: 3}
      propertyPath: m_LocalRotation.y
      value: 0.00006180488
      objectReference: {fileID: 0}
    - target: {fileID: 3770383886994303474, guid: 2e6f8ce3f8cb9354189edddb336472d0, type: 3}
      propertyPath: m_LocalRotation.z
      value: -0.00022968197
      objectReference: {fileID: 0}
    - target: {fileID: 3770383886994303474, guid: 2e6f8ce3f8cb9354189edddb336472d0, type: 3}
      propertyPath: m_LocalEulerAnglesHint.z
      value: -0.026
      objectReference: {fileID: 0}
    - target: {fileID: 4073779202343473536, guid: 2e6f8ce3f8cb9354189edddb336472d0, type: 3}
      propertyPath: m_LocalRotation.w
      value: 0.9992343
      objectReference: {fileID: 0}
    - target: {fileID: 4073779202343473536, guid: 2e6f8ce3f8cb9354189edddb336472d0, type: 3}
      propertyPath: m_LocalRotation.x
      value: 0.00019585155
      objectReference: {fileID: 0}
    - target: {fileID: 4073779202343473536, guid: 2e6f8ce3f8cb9354189edddb336472d0, type: 3}
      propertyPath: m_LocalRotation.y
      value: -0.005313517
      objectReference: {fileID: 0}
    - target: {fileID: 4073779202343473536, guid: 2e6f8ce3f8cb9354189edddb336472d0, type: 3}
      propertyPath: m_LocalRotation.z
      value: 0.038762365
      objectReference: {fileID: 0}
    - target: {fileID: 4241029598119163483, guid: 2e6f8ce3f8cb9354189edddb336472d0, type: 3}
      propertyPath: m_RootOrder
      value: 3
      objectReference: {fileID: 0}
    - target: {fileID: 4241029598119163483, guid: 2e6f8ce3f8cb9354189edddb336472d0, type: 3}
      propertyPath: m_LocalPosition.x
      value: -29.7
      objectReference: {fileID: 0}
    - target: {fileID: 4241029598119163483, guid: 2e6f8ce3f8cb9354189edddb336472d0, type: 3}
      propertyPath: m_LocalPosition.y
      value: -3.76
      objectReference: {fileID: 0}
    - target: {fileID: 4241029598119163483, guid: 2e6f8ce3f8cb9354189edddb336472d0, type: 3}
      propertyPath: m_LocalPosition.z
      value: 0
      objectReference: {fileID: 0}
    - target: {fileID: 4241029598119163483, guid: 2e6f8ce3f8cb9354189edddb336472d0, type: 3}
      propertyPath: m_LocalRotation.w
      value: 1
      objectReference: {fileID: 0}
    - target: {fileID: 4241029598119163483, guid: 2e6f8ce3f8cb9354189edddb336472d0, type: 3}
      propertyPath: m_LocalRotation.x
      value: 0
      objectReference: {fileID: 0}
    - target: {fileID: 4241029598119163483, guid: 2e6f8ce3f8cb9354189edddb336472d0, type: 3}
      propertyPath: m_LocalRotation.y
      value: 0
      objectReference: {fileID: 0}
    - target: {fileID: 4241029598119163483, guid: 2e6f8ce3f8cb9354189edddb336472d0, type: 3}
      propertyPath: m_LocalRotation.z
      value: 0
      objectReference: {fileID: 0}
    - target: {fileID: 4241029598119163483, guid: 2e6f8ce3f8cb9354189edddb336472d0, type: 3}
      propertyPath: m_LocalEulerAnglesHint.x
      value: 0
      objectReference: {fileID: 0}
    - target: {fileID: 4241029598119163483, guid: 2e6f8ce3f8cb9354189edddb336472d0, type: 3}
      propertyPath: m_LocalEulerAnglesHint.y
      value: 0
      objectReference: {fileID: 0}
    - target: {fileID: 4241029598119163483, guid: 2e6f8ce3f8cb9354189edddb336472d0, type: 3}
      propertyPath: m_LocalEulerAnglesHint.z
      value: 0
      objectReference: {fileID: 0}
    - target: {fileID: 4567586101896703310, guid: 2e6f8ce3f8cb9354189edddb336472d0, type: 3}
      propertyPath: m_LocalRotation.w
      value: 0.9999996
      objectReference: {fileID: 0}
    - target: {fileID: 4567586101896703310, guid: 2e6f8ce3f8cb9354189edddb336472d0, type: 3}
      propertyPath: m_LocalRotation.x
      value: -0.00003352781
      objectReference: {fileID: 0}
    - target: {fileID: 4567586101896703310, guid: 2e6f8ce3f8cb9354189edddb336472d0, type: 3}
      propertyPath: m_LocalRotation.y
      value: 0.0000010947697
      objectReference: {fileID: 0}
    - target: {fileID: 4567586101896703310, guid: 2e6f8ce3f8cb9354189edddb336472d0, type: 3}
      propertyPath: m_LocalRotation.z
      value: 0.0009576915
      objectReference: {fileID: 0}
    - target: {fileID: 4567586101896703310, guid: 2e6f8ce3f8cb9354189edddb336472d0, type: 3}
      propertyPath: m_LocalEulerAnglesHint.z
      value: 0.109
      objectReference: {fileID: 0}
    - target: {fileID: 5007861105307017452, guid: 2e6f8ce3f8cb9354189edddb336472d0, type: 3}
      propertyPath: m_LocalRotation.w
      value: 0.99991643
      objectReference: {fileID: 0}
    - target: {fileID: 5007861105307017452, guid: 2e6f8ce3f8cb9354189edddb336472d0, type: 3}
      propertyPath: m_LocalRotation.x
      value: 0.000038862767
      objectReference: {fileID: 0}
    - target: {fileID: 5007861105307017452, guid: 2e6f8ce3f8cb9354189edddb336472d0, type: 3}
      propertyPath: m_LocalRotation.y
      value: 0.003774894
      objectReference: {fileID: 0}
    - target: {fileID: 5007861105307017452, guid: 2e6f8ce3f8cb9354189edddb336472d0, type: 3}
      propertyPath: m_LocalRotation.z
      value: -0.012367301
      objectReference: {fileID: 0}
    - target: {fileID: 6474466784861546124, guid: 2e6f8ce3f8cb9354189edddb336472d0, type: 3}
      propertyPath: m_LocalRotation.w
      value: 0.99999964
      objectReference: {fileID: 0}
    - target: {fileID: 6474466784861546124, guid: 2e6f8ce3f8cb9354189edddb336472d0, type: 3}
      propertyPath: m_LocalRotation.x
      value: -0.00018076181
      objectReference: {fileID: 0}
    - target: {fileID: 6474466784861546124, guid: 2e6f8ce3f8cb9354189edddb336472d0, type: 3}
      propertyPath: m_LocalRotation.y
      value: -0.0000041434537
      objectReference: {fileID: 0}
    - target: {fileID: 6474466784861546124, guid: 2e6f8ce3f8cb9354189edddb336472d0, type: 3}
      propertyPath: m_LocalRotation.z
      value: -0.0008919092
      objectReference: {fileID: 0}
    - target: {fileID: 6474466784861546124, guid: 2e6f8ce3f8cb9354189edddb336472d0, type: 3}
      propertyPath: m_LocalEulerAnglesHint.z
      value: 359.898
      objectReference: {fileID: 0}
    - target: {fileID: 6670987036761881395, guid: 2e6f8ce3f8cb9354189edddb336472d0, type: 3}
      propertyPath: m_LocalRotation.w
      value: 0.99970144
      objectReference: {fileID: 0}
    - target: {fileID: 6670987036761881395, guid: 2e6f8ce3f8cb9354189edddb336472d0, type: 3}
      propertyPath: m_LocalRotation.x
      value: 0.00013418648
      objectReference: {fileID: 0}
    - target: {fileID: 6670987036761881395, guid: 2e6f8ce3f8cb9354189edddb336472d0, type: 3}
      propertyPath: m_LocalRotation.y
      value: 0.007607261
      objectReference: {fileID: 0}
    - target: {fileID: 6670987036761881395, guid: 2e6f8ce3f8cb9354189edddb336472d0, type: 3}
      propertyPath: m_LocalRotation.z
      value: -0.023223348
      objectReference: {fileID: 0}
    - target: {fileID: 6854707320367661319, guid: 2e6f8ce3f8cb9354189edddb336472d0, type: 3}
      propertyPath: m_LocalRotation.w
      value: 0.9999967
      objectReference: {fileID: 0}
    - target: {fileID: 6854707320367661319, guid: 2e6f8ce3f8cb9354189edddb336472d0, type: 3}
      propertyPath: m_LocalRotation.x
      value: -0.000118312564
      objectReference: {fileID: 0}
    - target: {fileID: 6854707320367661319, guid: 2e6f8ce3f8cb9354189edddb336472d0, type: 3}
      propertyPath: m_LocalRotation.y
      value: 0.0000049434598
      objectReference: {fileID: 0}
    - target: {fileID: 6854707320367661319, guid: 2e6f8ce3f8cb9354189edddb336472d0, type: 3}
      propertyPath: m_LocalRotation.z
      value: 0.002593829
      objectReference: {fileID: 0}
    - target: {fileID: 6854707320367661319, guid: 2e6f8ce3f8cb9354189edddb336472d0, type: 3}
      propertyPath: m_LocalEulerAnglesHint.y
      value: 0.001
      objectReference: {fileID: 0}
    - target: {fileID: 6854707320367661319, guid: 2e6f8ce3f8cb9354189edddb336472d0, type: 3}
      propertyPath: m_LocalEulerAnglesHint.z
      value: 0.297
      objectReference: {fileID: 0}
    - target: {fileID: 7181721502946514371, guid: 2e6f8ce3f8cb9354189edddb336472d0, type: 3}
      propertyPath: m_LocalRotation.w
      value: 0.98771703
      objectReference: {fileID: 0}
    - target: {fileID: 7181721502946514371, guid: 2e6f8ce3f8cb9354189edddb336472d0, type: 3}
      propertyPath: m_LocalRotation.x
      value: -0.0007642042
      objectReference: {fileID: 0}
    - target: {fileID: 7181721502946514371, guid: 2e6f8ce3f8cb9354189edddb336472d0, type: 3}
      propertyPath: m_LocalRotation.y
      value: 0.0048471894
      objectReference: {fileID: 0}
    - target: {fileID: 7181721502946514371, guid: 2e6f8ce3f8cb9354189edddb336472d0, type: 3}
      propertyPath: m_LocalRotation.z
      value: 0.1561765
      objectReference: {fileID: 0}
    - target: {fileID: 8474072471628501623, guid: 2e6f8ce3f8cb9354189edddb336472d0, type: 3}
      propertyPath: m_LocalRotation.w
      value: 0.07745391
      objectReference: {fileID: 0}
    - target: {fileID: 8474072471628501623, guid: 2e6f8ce3f8cb9354189edddb336472d0, type: 3}
      propertyPath: m_LocalRotation.x
      value: -0.0053211
      objectReference: {fileID: 0}
    - target: {fileID: 8474072471628501623, guid: 2e6f8ce3f8cb9354189edddb336472d0, type: 3}
      propertyPath: m_LocalRotation.y
      value: 0.00019096406
      objectReference: {fileID: 0}
    - target: {fileID: 8474072471628501623, guid: 2e6f8ce3f8cb9354189edddb336472d0, type: 3}
      propertyPath: m_LocalRotation.z
      value: 0.99698174
      objectReference: {fileID: 0}
    m_RemovedComponents:
    - {fileID: 8665394043607751503, guid: 2e6f8ce3f8cb9354189edddb336472d0, type: 3}
  m_SourcePrefab: {fileID: 100100000, guid: 2e6f8ce3f8cb9354189edddb336472d0, type: 3}
--- !u!1 &1187825665
GameObject:
  m_ObjectHideFlags: 0
  m_CorrespondingSourceObject: {fileID: 0}
  m_PrefabInstance: {fileID: 0}
  m_PrefabAsset: {fileID: 0}
  serializedVersion: 6
  m_Component:
  - component: {fileID: 1187825668}
  - component: {fileID: 1187825667}
  - component: {fileID: 1187825666}
  m_Layer: 0
  m_Name: Square
  m_TagString: suelo
  m_Icon: {fileID: 0}
  m_NavMeshLayer: 0
  m_StaticEditorFlags: 0
  m_IsActive: 1
--- !u!61 &1187825666
BoxCollider2D:
  m_ObjectHideFlags: 0
  m_CorrespondingSourceObject: {fileID: 0}
  m_PrefabInstance: {fileID: 0}
  m_PrefabAsset: {fileID: 0}
  m_GameObject: {fileID: 1187825665}
  m_Enabled: 1
  m_Density: 1
  m_Material: {fileID: 0}
  m_IsTrigger: 0
  m_UsedByEffector: 0
  m_UsedByComposite: 0
  m_Offset: {x: 0, y: 0}
  m_SpriteTilingProperty:
    border: {x: 0, y: 0, z: 0, w: 0}
    pivot: {x: 0.5, y: 0.5}
    oldSize: {x: 1, y: 1}
    newSize: {x: 1, y: 1}
    adaptiveTilingThreshold: 0.5
    drawMode: 0
    adaptiveTiling: 0
  m_AutoTiling: 0
  serializedVersion: 2
  m_Size: {x: 1, y: 1}
  m_EdgeRadius: 0
--- !u!212 &1187825667
SpriteRenderer:
  m_ObjectHideFlags: 0
  m_CorrespondingSourceObject: {fileID: 0}
  m_PrefabInstance: {fileID: 0}
  m_PrefabAsset: {fileID: 0}
  m_GameObject: {fileID: 1187825665}
  m_Enabled: 1
  m_CastShadows: 0
  m_ReceiveShadows: 0
  m_DynamicOccludee: 1
  m_MotionVectors: 1
  m_LightProbeUsage: 1
  m_ReflectionProbeUsage: 1
  m_RayTracingMode: 0
  m_RayTraceProcedural: 0
  m_RenderingLayerMask: 1
  m_RendererPriority: 0
  m_Materials:
  - {fileID: 10754, guid: 0000000000000000f000000000000000, type: 0}
  m_StaticBatchInfo:
    firstSubMesh: 0
    subMeshCount: 0
  m_StaticBatchRoot: {fileID: 0}
  m_ProbeAnchor: {fileID: 0}
  m_LightProbeVolumeOverride: {fileID: 0}
  m_ScaleInLightmap: 1
  m_ReceiveGI: 1
  m_PreserveUVs: 0
  m_IgnoreNormalsForChartDetection: 0
  m_ImportantGI: 0
  m_StitchLightmapSeams: 1
  m_SelectedEditorRenderState: 0
  m_MinimumChartSize: 4
  m_AutoUVMaxDistance: 0.5
  m_AutoUVMaxAngle: 89
  m_LightmapParameters: {fileID: 0}
  m_SortingLayerID: 0
  m_SortingLayer: 0
  m_SortingOrder: 0
  m_Sprite: {fileID: 7482667652216324306, guid: 48e93eef0688c4a259cb0eddcd8661f7, type: 3}
  m_Color: {r: 1, g: 1, b: 1, a: 1}
  m_FlipX: 0
  m_FlipY: 0
  m_DrawMode: 0
  m_Size: {x: 1, y: 1}
  m_AdaptiveModeThreshold: 0.5
  m_SpriteTileMode: 0
  m_WasSpriteAssigned: 1
  m_MaskInteraction: 0
  m_SpriteSortPoint: 0
--- !u!4 &1187825668
Transform:
  m_ObjectHideFlags: 0
  m_CorrespondingSourceObject: {fileID: 0}
  m_PrefabInstance: {fileID: 0}
  m_PrefabAsset: {fileID: 0}
  m_GameObject: {fileID: 1187825665}
  m_LocalRotation: {x: 0, y: 0, z: 0, w: 1}
  m_LocalPosition: {x: -0.0612, y: -4.97, z: 0}
  m_LocalScale: {x: 62.56, y: 1, z: 1}
  m_Children: []
  m_Father: {fileID: 0}
  m_RootOrder: 5
  m_LocalEulerAnglesHint: {x: 0, y: 0, z: 0}
--- !u!1 &1211976277
GameObject:
  m_ObjectHideFlags: 0
  m_CorrespondingSourceObject: {fileID: 0}
  m_PrefabInstance: {fileID: 0}
  m_PrefabAsset: {fileID: 0}
  serializedVersion: 6
  m_Component:
  - component: {fileID: 1211976279}
  - component: {fileID: 1211976278}
  m_Layer: 0
  m_Name: RocaPool
  m_TagString: Untagged
  m_Icon: {fileID: 0}
  m_NavMeshLayer: 0
  m_StaticEditorFlags: 0
  m_IsActive: 1
--- !u!114 &1211976278
MonoBehaviour:
  m_ObjectHideFlags: 0
  m_CorrespondingSourceObject: {fileID: 0}
  m_PrefabInstance: {fileID: 0}
  m_PrefabAsset: {fileID: 0}
  m_GameObject: {fileID: 1211976277}
  m_Enabled: 1
  m_EditorHideFlags: 0
  m_Script: {fileID: 11500000, guid: c4d4752cf53677548b654d5dd73f09b4, type: 3}
  m_Name: 
  m_EditorClassIdentifier: 
  pooledObjects: []
  objectsToPool:
  - {fileID: 2094595485658053258, guid: 8f5355542b46df548b69b9a1944114e1, type: 3}
  amountToPoolEach: 5
--- !u!4 &1211976279
Transform:
  m_ObjectHideFlags: 0
  m_CorrespondingSourceObject: {fileID: 0}
  m_PrefabInstance: {fileID: 0}
  m_PrefabAsset: {fileID: 0}
  m_GameObject: {fileID: 1211976277}
  m_LocalRotation: {x: 0, y: 0, z: 0, w: 1}
  m_LocalPosition: {x: 6.76315, y: 8.687951, z: -6.319582}
  m_LocalScale: {x: 1, y: 1, z: 1}
  m_Children: []
  m_Father: {fileID: 0}
  m_RootOrder: 6
  m_LocalEulerAnglesHint: {x: 0, y: 0, z: 0}
--- !u!1001 &1570659505
PrefabInstance:
  m_ObjectHideFlags: 0
  serializedVersion: 2
  m_Modification:
    m_TransformParent: {fileID: 0}
    m_Modifications:
    - target: {fileID: 8596340056321084864, guid: f814a333429407741b3aa72cd3047d52, type: 3}
      propertyPath: tipo
      value: 
      objectReference: {fileID: 11400000, guid: ceb99503976dfaa458cc54877b4c7678, type: 2}
    - target: {fileID: 8596340056321084865, guid: f814a333429407741b3aa72cd3047d52, type: 3}
      propertyPath: m_Name
      value: Enemigo
      objectReference: {fileID: 0}
    - target: {fileID: 8596340056321084892, guid: f814a333429407741b3aa72cd3047d52, type: 3}
      propertyPath: m_RootOrder
      value: 1
      objectReference: {fileID: 0}
    - target: {fileID: 8596340056321084892, guid: f814a333429407741b3aa72cd3047d52, type: 3}
      propertyPath: m_LocalPosition.x
      value: 26.24
      objectReference: {fileID: 0}
    - target: {fileID: 8596340056321084892, guid: f814a333429407741b3aa72cd3047d52, type: 3}
      propertyPath: m_LocalPosition.y
      value: 7.47
      objectReference: {fileID: 0}
    - target: {fileID: 8596340056321084892, guid: f814a333429407741b3aa72cd3047d52, type: 3}
      propertyPath: m_LocalPosition.z
      value: 0
      objectReference: {fileID: 0}
    - target: {fileID: 8596340056321084892, guid: f814a333429407741b3aa72cd3047d52, type: 3}
      propertyPath: m_LocalRotation.w
      value: 1
      objectReference: {fileID: 0}
    - target: {fileID: 8596340056321084892, guid: f814a333429407741b3aa72cd3047d52, type: 3}
      propertyPath: m_LocalRotation.x
      value: 0
      objectReference: {fileID: 0}
    - target: {fileID: 8596340056321084892, guid: f814a333429407741b3aa72cd3047d52, type: 3}
      propertyPath: m_LocalRotation.y
      value: 0
      objectReference: {fileID: 0}
    - target: {fileID: 8596340056321084892, guid: f814a333429407741b3aa72cd3047d52, type: 3}
      propertyPath: m_LocalRotation.z
      value: 0
      objectReference: {fileID: 0}
    - target: {fileID: 8596340056321084892, guid: f814a333429407741b3aa72cd3047d52, type: 3}
      propertyPath: m_LocalEulerAnglesHint.x
      value: 0
      objectReference: {fileID: 0}
    - target: {fileID: 8596340056321084892, guid: f814a333429407741b3aa72cd3047d52, type: 3}
      propertyPath: m_LocalEulerAnglesHint.y
      value: 0
      objectReference: {fileID: 0}
    - target: {fileID: 8596340056321084892, guid: f814a333429407741b3aa72cd3047d52, type: 3}
      propertyPath: m_LocalEulerAnglesHint.z
      value: 0
      objectReference: {fileID: 0}
    m_RemovedComponents: []
  m_SourcePrefab: {fileID: 100100000, guid: f814a333429407741b3aa72cd3047d52, type: 3}
--- !u!1001 &1605919854
PrefabInstance:
  m_ObjectHideFlags: 0
  serializedVersion: 2
  m_Modification:
    m_TransformParent: {fileID: 0}
    m_Modifications:
    - target: {fileID: 1898229131579540610, guid: 4a6b1a58a2b2c5d42b10652515c79a61, type: 3}
      propertyPath: m_Pivot.x
      value: 0
      objectReference: {fileID: 0}
    - target: {fileID: 1898229131579540610, guid: 4a6b1a58a2b2c5d42b10652515c79a61, type: 3}
      propertyPath: m_Pivot.y
      value: 0
      objectReference: {fileID: 0}
    - target: {fileID: 1898229131579540610, guid: 4a6b1a58a2b2c5d42b10652515c79a61, type: 3}
      propertyPath: m_RootOrder
      value: 7
      objectReference: {fileID: 0}
    - target: {fileID: 1898229131579540610, guid: 4a6b1a58a2b2c5d42b10652515c79a61, type: 3}
      propertyPath: m_AnchorMax.x
      value: 0
      objectReference: {fileID: 0}
    - target: {fileID: 1898229131579540610, guid: 4a6b1a58a2b2c5d42b10652515c79a61, type: 3}
      propertyPath: m_AnchorMax.y
      value: 0
      objectReference: {fileID: 0}
    - target: {fileID: 1898229131579540610, guid: 4a6b1a58a2b2c5d42b10652515c79a61, type: 3}
      propertyPath: m_AnchorMin.x
      value: 0
      objectReference: {fileID: 0}
    - target: {fileID: 1898229131579540610, guid: 4a6b1a58a2b2c5d42b10652515c79a61, type: 3}
      propertyPath: m_AnchorMin.y
      value: 0
      objectReference: {fileID: 0}
    - target: {fileID: 1898229131579540610, guid: 4a6b1a58a2b2c5d42b10652515c79a61, type: 3}
      propertyPath: m_SizeDelta.x
      value: 0
      objectReference: {fileID: 0}
    - target: {fileID: 1898229131579540610, guid: 4a6b1a58a2b2c5d42b10652515c79a61, type: 3}
      propertyPath: m_SizeDelta.y
      value: 0
      objectReference: {fileID: 0}
    - target: {fileID: 1898229131579540610, guid: 4a6b1a58a2b2c5d42b10652515c79a61, type: 3}
      propertyPath: m_LocalPosition.x
      value: 0
      objectReference: {fileID: 0}
    - target: {fileID: 1898229131579540610, guid: 4a6b1a58a2b2c5d42b10652515c79a61, type: 3}
      propertyPath: m_LocalPosition.y
      value: 0
      objectReference: {fileID: 0}
    - target: {fileID: 1898229131579540610, guid: 4a6b1a58a2b2c5d42b10652515c79a61, type: 3}
      propertyPath: m_LocalPosition.z
      value: 0
      objectReference: {fileID: 0}
    - target: {fileID: 1898229131579540610, guid: 4a6b1a58a2b2c5d42b10652515c79a61, type: 3}
      propertyPath: m_LocalRotation.w
      value: 1
      objectReference: {fileID: 0}
    - target: {fileID: 1898229131579540610, guid: 4a6b1a58a2b2c5d42b10652515c79a61, type: 3}
      propertyPath: m_LocalRotation.x
      value: 0
      objectReference: {fileID: 0}
    - target: {fileID: 1898229131579540610, guid: 4a6b1a58a2b2c5d42b10652515c79a61, type: 3}
      propertyPath: m_LocalRotation.y
      value: 0
      objectReference: {fileID: 0}
    - target: {fileID: 1898229131579540610, guid: 4a6b1a58a2b2c5d42b10652515c79a61, type: 3}
      propertyPath: m_LocalRotation.z
      value: 0
      objectReference: {fileID: 0}
    - target: {fileID: 1898229131579540610, guid: 4a6b1a58a2b2c5d42b10652515c79a61, type: 3}
      propertyPath: m_AnchoredPosition.x
      value: 0
      objectReference: {fileID: 0}
    - target: {fileID: 1898229131579540610, guid: 4a6b1a58a2b2c5d42b10652515c79a61, type: 3}
      propertyPath: m_AnchoredPosition.y
      value: 0
      objectReference: {fileID: 0}
    - target: {fileID: 1898229131579540610, guid: 4a6b1a58a2b2c5d42b10652515c79a61, type: 3}
      propertyPath: m_LocalEulerAnglesHint.x
      value: 0
      objectReference: {fileID: 0}
    - target: {fileID: 1898229131579540610, guid: 4a6b1a58a2b2c5d42b10652515c79a61, type: 3}
      propertyPath: m_LocalEulerAnglesHint.y
      value: 0
      objectReference: {fileID: 0}
    - target: {fileID: 1898229131579540610, guid: 4a6b1a58a2b2c5d42b10652515c79a61, type: 3}
      propertyPath: m_LocalEulerAnglesHint.z
      value: 0
      objectReference: {fileID: 0}
    - target: {fileID: 1898229131579540622, guid: 4a6b1a58a2b2c5d42b10652515c79a61, type: 3}
      propertyPath: m_Name
      value: Canvas Players
      objectReference: {fileID: 0}
    - target: {fileID: 1898229132027150454, guid: 4a6b1a58a2b2c5d42b10652515c79a61, type: 3}
      propertyPath: m_AnchorMax.x
      value: 0
      objectReference: {fileID: 0}
    - target: {fileID: 1898229132027150454, guid: 4a6b1a58a2b2c5d42b10652515c79a61, type: 3}
      propertyPath: m_AnchorMax.y
      value: 0
      objectReference: {fileID: 0}
    - target: {fileID: 7834839926560438114, guid: 4a6b1a58a2b2c5d42b10652515c79a61, type: 3}
      propertyPath: m_AnchorMax.x
      value: 0
      objectReference: {fileID: 0}
    - target: {fileID: 7834839926560438114, guid: 4a6b1a58a2b2c5d42b10652515c79a61, type: 3}
      propertyPath: m_AnchorMax.y
      value: 0
      objectReference: {fileID: 0}
    m_RemovedComponents: []
  m_SourcePrefab: {fileID: 100100000, guid: 4a6b1a58a2b2c5d42b10652515c79a61, type: 3}
--- !u!1 &1780448669
GameObject:
  m_ObjectHideFlags: 0
  m_CorrespondingSourceObject: {fileID: 0}
  m_PrefabInstance: {fileID: 0}
  m_PrefabAsset: {fileID: 0}
  serializedVersion: 6
  m_Component:
  - component: {fileID: 1780448672}
  - component: {fileID: 1780448671}
  - component: {fileID: 1780448670}
  m_Layer: 0
  m_Name: Main Camera
  m_TagString: MainCamera
  m_Icon: {fileID: 0}
  m_NavMeshLayer: 0
  m_StaticEditorFlags: 0
  m_IsActive: 1
--- !u!81 &1780448670
AudioListener:
  m_ObjectHideFlags: 0
  m_CorrespondingSourceObject: {fileID: 0}
  m_PrefabInstance: {fileID: 0}
  m_PrefabAsset: {fileID: 0}
  m_GameObject: {fileID: 1780448669}
  m_Enabled: 1
--- !u!20 &1780448671
Camera:
  m_ObjectHideFlags: 0
  m_CorrespondingSourceObject: {fileID: 0}
  m_PrefabInstance: {fileID: 0}
  m_PrefabAsset: {fileID: 0}
  m_GameObject: {fileID: 1780448669}
  m_Enabled: 1
  serializedVersion: 2
  m_ClearFlags: 1
  m_BackGroundColor: {r: 0.19215687, g: 0.3019608, b: 0.4745098, a: 0}
  m_projectionMatrixMode: 1
  m_GateFitMode: 2
  m_FOVAxisMode: 0
  m_SensorSize: {x: 36, y: 24}
  m_LensShift: {x: 0, y: 0}
  m_FocalLength: 50
  m_NormalizedViewPortRect:
    serializedVersion: 2
    x: 0
    y: 0
    width: 1
    height: 1
  near clip plane: 0.3
  far clip plane: 1000
  field of view: 60
  orthographic: 1
  orthographic size: 5
  m_Depth: -1
  m_CullingMask:
    serializedVersion: 2
    m_Bits: 4294967295
  m_RenderingPath: -1
  m_TargetTexture: {fileID: 0}
  m_TargetDisplay: 0
  m_TargetEye: 3
  m_HDR: 1
  m_AllowMSAA: 1
  m_AllowDynamicResolution: 0
  m_ForceIntoRT: 0
  m_OcclusionCulling: 1
  m_StereoConvergence: 10
  m_StereoSeparation: 0.022
--- !u!4 &1780448672
Transform:
  m_ObjectHideFlags: 0
  m_CorrespondingSourceObject: {fileID: 0}
  m_PrefabInstance: {fileID: 0}
  m_PrefabAsset: {fileID: 0}
  m_GameObject: {fileID: 1780448669}
  m_LocalRotation: {x: 0, y: 0, z: 0, w: 1}
  m_LocalPosition: {x: 0, y: 0, z: -10}
  m_LocalScale: {x: 1, y: 1, z: 1}
  m_Children: []
  m_Father: {fileID: 0}
  m_RootOrder: 0
  m_LocalEulerAnglesHint: {x: 0, y: 0, z: 0}
