[api-updater (non-obsolete-error-filter)] 11/3/2022 17:42:32 : Starting C:/Program Files/Unity/Hub/Editor/2020.3.17f1/Editor/Data/Tools/ScriptUpdater/APIUpdater.NonObsoleteApiUpdaterDetector.exe
[api-updater (non-obsolete-error-filter)] 
----------------------------------
jit/startup time      : 853,1451ms
moved types parse time: 54ms
candidates parse time : 1ms
C# parse time         : 630ms
candidates check time : 32ms
console write time    : 0ms

[api-updater (non-obsolete-error-filter)] 11/3/2022 17:42:34 : Starting C:/Program Files/Unity/Hub/Editor/2020.3.17f1/Editor/Data/Tools/ScriptUpdater/APIUpdater.NonObsoleteApiUpdaterDetector.exe
[api-updater (non-obsolete-error-filter)] 
----------------------------------
jit/startup time      : 77,1827ms
moved types parse time: 46ms
candidates parse time : 1ms
C# parse time         : 184ms
candidates check time : 32ms
console write time    : 0ms

[api-updater (non-obsolete-error-filter)] 11/3/2022 17:53:27 : Starting C:/Program Files/Unity/Hub/Editor/2020.3.17f1/Editor/Data/Tools/ScriptUpdater/APIUpdater.NonObsoleteApiUpdaterDetector.exe
[api-updater (non-obsolete-error-filter)] 
----------------------------------
jit/startup time      : 68,8995ms
moved types parse time: 47ms
candidates parse time : 1ms
C# parse time         : 181ms
candidates check time : 27ms
console write time    : 0ms

[api-updater (non-obsolete-error-filter)] 11/3/2022 17:57:12 : Starting C:/Program Files/Unity/Hub/Editor/2020.3.17f1/Editor/Data/Tools/ScriptUpdater/APIUpdater.NonObsoleteApiUpdaterDetector.exe
[api-updater (non-obsolete-error-filter)] 
----------------------------------
jit/startup time      : 69,0191ms
moved types parse time: 47ms
candidates parse time : 1ms
C# parse time         : 183ms
candidates check time : 28ms
console write time    : 0ms

[api-updater (non-obsolete-error-filter)] 11/3/2022 18:33:48 : Starting C:/Program Files/Unity/Hub/Editor/2020.3.17f1/Editor/Data/Tools/ScriptUpdater/APIUpdater.NonObsoleteApiUpdaterDetector.exe
[api-updater (non-obsolete-error-filter)] 
----------------------------------
jit/startup time      : 70,17ms
moved types parse time: 47ms
candidates parse time : 1ms
C# parse time         : 185ms
candidates check time : 41ms
console write time    : 0ms

[api-updater (non-obsolete-error-filter)] 11/3/2022 19:02:59 : Starting C:/Program Files/Unity/Hub/Editor/2020.3.17f1/Editor/Data/Tools/ScriptUpdater/APIUpdater.NonObsoleteApiUpdaterDetector.exe
[api-updater (non-obsolete-error-filter)] 
----------------------------------
jit/startup time      : 71,8321ms
moved types parse time: 45ms
candidates parse time : 1ms
C# parse time         : 178ms
candidates check time : 43ms
console write time    : 0ms

[api-updater (non-obsolete-error-filter)] 11/3/2022 19:03:02 : Starting C:/Program Files/Unity/Hub/Editor/2020.3.17f1/Editor/Data/Tools/ScriptUpdater/APIUpdater.NonObsoleteApiUpdaterDetector.exe
[api-updater (non-obsolete-error-filter)] 
----------------------------------
jit/startup time      : 68,212ms
moved types parse time: 46ms
candidates parse time : 1ms
C# parse time         : 183ms
candidates check time : 42ms
console write time    : 0ms

[api-updater (non-obsolete-error-filter)] 11/3/2022 19:03:53 : Starting C:/Program Files/Unity/Hub/Editor/2020.3.17f1/Editor/Data/Tools/ScriptUpdater/APIUpdater.NonObsoleteApiUpdaterDetector.exe
[api-updater (non-obsolete-error-filter)] 
----------------------------------
jit/startup time      : 69,7132ms
moved types parse time: 46ms
candidates parse time : 1ms
C# parse time         : 178ms
candidates check time : 27ms
console write time    : 0ms

[api-updater (non-obsolete-error-filter)] 11/3/2022 19:04:03 : Starting C:/Program Files/Unity/Hub/Editor/2020.3.17f1/Editor/Data/Tools/ScriptUpdater/APIUpdater.NonObsoleteApiUpdaterDetector.exe
[api-updater (non-obsolete-error-filter)] 
----------------------------------
jit/startup time      : 80,6042ms
moved types parse time: 46ms
candidates parse time : 1ms
C# parse time         : 179ms
candidates check time : 28ms
console write time    : 0ms

[api-updater (non-obsolete-error-filter)] 11/3/2022 19:10:35 : Starting C:/Program Files/Unity/Hub/Editor/2020.3.17f1/Editor/Data/Tools/ScriptUpdater/APIUpdater.NonObsoleteApiUpdaterDetector.exe
[api-updater (non-obsolete-error-filter)] 
----------------------------------
jit/startup time      : 73,8321ms
moved types parse time: 49ms
candidates parse time : 1ms
C# parse time         : 193ms
candidates check time : 28ms
console write time    : 0ms

[api-updater (non-obsolete-error-filter)] 13/03/2022 18:25:32 : Starting C:/Program Files/Unity/Editor/Data/Tools/ScriptUpdater/APIUpdater.NonObsoleteApiUpdaterDetector.exe
[api-updater (non-obsolete-error-filter)] 
----------------------------------
jit/startup time      : 654,7196ms
moved types parse time: 45ms
candidates parse time : 0ms
C# parse time         : 266ms
candidates check time : 28ms
console write time    : 0ms

[api-updater (non-obsolete-error-filter)] 13/03/2022 18:27:59 : Starting C:/Program Files/Unity/Editor/Data/Tools/ScriptUpdater/APIUpdater.NonObsoleteApiUpdaterDetector.exe
[api-updater (non-obsolete-error-filter)] 
----------------------------------
jit/startup time      : 51,7701ms
moved types parse time: 38ms
candidates parse time : 0ms
C# parse time         : 146ms
candidates check time : 25ms
console write time    : 0ms

[api-updater (non-obsolete-error-filter)] 13/03/2022 18:28:33 : Starting C:/Program Files/Unity/Editor/Data/Tools/ScriptUpdater/APIUpdater.NonObsoleteApiUpdaterDetector.exe
[api-updater (non-obsolete-error-filter)] 
----------------------------------
jit/startup time      : 52,8344ms
moved types parse time: 38ms
candidates parse time : 0ms
C# parse time         : 141ms
candidates check time : 26ms
console write time    : 0ms

[api-updater (non-obsolete-error-filter)] 13/03/2022 18:28:56 : Starting C:/Program Files/Unity/Editor/Data/Tools/ScriptUpdater/APIUpdater.NonObsoleteApiUpdaterDetector.exe
[api-updater (non-obsolete-error-filter)] 
----------------------------------
jit/startup time      : 51,5527ms
moved types parse time: 38ms
candidates parse time : 0ms
C# parse time         : 146ms
candidates check time : 27ms
console write time    : 0ms

[api-updater (non-obsolete-error-filter)] 13/03/2022 18:29:01 : Starting C:/Program Files/Unity/Editor/Data/Tools/ScriptUpdater/APIUpdater.NonObsoleteApiUpdaterDetector.exe
[api-updater (non-obsolete-error-filter)] 
----------------------------------
jit/startup time      : 51,8598ms
moved types parse time: 39ms
candidates parse time : 0ms
C# parse time         : 145ms
candidates check time : 26ms
console write time    : 0ms

[api-updater (non-obsolete-error-filter)] 13/03/2022 18:29:14 : Starting C:/Program Files/Unity/Editor/Data/Tools/ScriptUpdater/APIUpdater.NonObsoleteApiUpdaterDetector.exe
[api-updater (non-obsolete-error-filter)] 
----------------------------------
jit/startup time      : 51,934ms
moved types parse time: 38ms
candidates parse time : 0ms
C# parse time         : 144ms
candidates check time : 24ms
console write time    : 0ms

[api-updater (non-obsolete-error-filter)] 13/03/2022 18:32:23 : Starting C:/Program Files/Unity/Editor/Data/Tools/ScriptUpdater/APIUpdater.NonObsoleteApiUpdaterDetector.exe
[api-updater (non-obsolete-error-filter)] 
----------------------------------
jit/startup time      : 51,9876ms
moved types parse time: 39ms
candidates parse time : 0ms
C# parse time         : 145ms
candidates check time : 24ms
console write time    : 0ms

[api-updater (non-obsolete-error-filter)] 13/03/2022 18:32:27 : Starting C:/Program Files/Unity/Editor/Data/Tools/ScriptUpdater/APIUpdater.NonObsoleteApiUpdaterDetector.exe
[api-updater (non-obsolete-error-filter)] 
----------------------------------
jit/startup time      : 50,8932ms
moved types parse time: 39ms
candidates parse time : 0ms
C# parse time         : 147ms
candidates check time : 26ms
console write time    : 0ms

[api-updater (non-obsolete-error-filter)] 13/03/2022 18:32:32 : Starting C:/Program Files/Unity/Editor/Data/Tools/ScriptUpdater/APIUpdater.NonObsoleteApiUpdaterDetector.exe
[api-updater (non-obsolete-error-filter)] 
----------------------------------
jit/startup time      : 51,4526ms
moved types parse time: 38ms
candidates parse time : 0ms
C# parse time         : 145ms
candidates check time : 24ms
console write time    : 0ms

[api-updater (non-obsolete-error-filter)] 13/03/2022 18:36:39 : Starting C:/Program Files/Unity/Editor/Data/Tools/ScriptUpdater/APIUpdater.NonObsoleteApiUpdaterDetector.exe
[api-updater (non-obsolete-error-filter)] 
----------------------------------
jit/startup time      : 53,8545ms
moved types parse time: 39ms
candidates parse time : 0ms
C# parse time         : 154ms
candidates check time : 25ms
console write time    : 0ms

[api-updater (non-obsolete-error-filter)] 13/03/2022 18:41:22 : Starting C:/Program Files/Unity/Editor/Data/Tools/ScriptUpdater/APIUpdater.NonObsoleteApiUpdaterDetector.exe
[api-updater (non-obsolete-error-filter)] 
----------------------------------
jit/startup time      : 53,6031ms
moved types parse time: 39ms
candidates parse time : 0ms
C# parse time         : 147ms
candidates check time : 26ms
console write time    : 0ms

[api-updater (non-obsolete-error-filter)] 13/03/2022 18:41:26 : Starting C:/Program Files/Unity/Editor/Data/Tools/ScriptUpdater/APIUpdater.NonObsoleteApiUpdaterDetector.exe
[api-updater (non-obsolete-error-filter)] 
----------------------------------
jit/startup time      : 52,1697ms
moved types parse time: 38ms
candidates parse time : 0ms
C# parse time         : 146ms
candidates check time : 26ms
console write time    : 0ms

[api-updater (non-obsolete-error-filter)] 13/03/2022 18:55:57 : Starting C:/Program Files/Unity/Editor/Data/Tools/ScriptUpdater/APIUpdater.NonObsoleteApiUpdaterDetector.exe
[api-updater (non-obsolete-error-filter)] 
----------------------------------
jit/startup time      : 56,9049ms
moved types parse time: 39ms
candidates parse time : 0ms
C# parse time         : 147ms
candidates check time : 24ms
console write time    : 0ms

[api-updater (non-obsolete-error-filter)] 13/03/2022 20:40:21 : Starting C:/Program Files/Unity/Editor/Data/Tools/ScriptUpdater/APIUpdater.NonObsoleteApiUpdaterDetector.exe
[api-updater (non-obsolete-error-filter)] 
----------------------------------
jit/startup time      : 58,7337ms
moved types parse time: 39ms
candidates parse time : 0ms
C# parse time         : 152ms
candidates check time : 25ms
console write time    : 0ms

[api-updater (non-obsolete-error-filter)] 13/03/2022 20:40:28 : Starting C:/Program Files/Unity/Editor/Data/Tools/ScriptUpdater/APIUpdater.NonObsoleteApiUpdaterDetector.exe
[api-updater (non-obsolete-error-filter)] 
----------------------------------
jit/startup time      : 51,0783ms
moved types parse time: 38ms
candidates parse time : 0ms
C# parse time         : 156ms
candidates check time : 28ms
console write time    : 0ms

[api-updater (non-obsolete-error-filter)] 13/03/2022 20:41:26 : Starting C:/Program Files/Unity/Editor/Data/Tools/ScriptUpdater/APIUpdater.NonObsoleteApiUpdaterDetector.exe
[api-updater (non-obsolete-error-filter)] 
----------------------------------
jit/startup time      : 54,0135ms
moved types parse time: 39ms
candidates parse time : 0ms
C# parse time         : 153ms
candidates check time : 26ms
console write time    : 0ms

[api-updater (non-obsolete-error-filter)] 13/03/2022 20:42:52 : Starting C:/Program Files/Unity/Editor/Data/Tools/ScriptUpdater/APIUpdater.NonObsoleteApiUpdaterDetector.exe
[api-updater (non-obsolete-error-filter)] 
----------------------------------
jit/startup time      : 57,2144ms
moved types parse time: 39ms
candidates parse time : 0ms
C# parse time         : 150ms
candidates check time : 26ms
console write time    : 0ms

[api-updater (non-obsolete-error-filter)] 13/03/2022 20:45:55 : Starting C:/Program Files/Unity/Editor/Data/Tools/ScriptUpdater/APIUpdater.NonObsoleteApiUpdaterDetector.exe
[api-updater (non-obsolete-error-filter)] 
----------------------------------
jit/startup time      : 51,7849ms
moved types parse time: 38ms
candidates parse time : 0ms
C# parse time         : 150ms
candidates check time : 25ms
console write time    : 0ms

