%YAML 1.1
%TAG !u! tag:unity3d.com,2011:
--- !u!78 &1
TagManager:
  serializedVersion: 2
  tags:
  - Jugador
  - CinemachineTarget
  - Enemigo
  - Obstaculo
  - Acid
  layers:
  - Default
  - TransparentFX
  - Ignore Raycast
  - NoNav
  - Water
  - UI
  - RenderOnTop
  - 
  - 
  - 
  - 
  - 
  - 
  - 
  - 
  - 
  - 
  - 
  - 
  - 
  - 
  - 
  - 
  - 
  - 
  - 
  - 
  - 
  - 
  - 
  - 
  - 
  m_SortingLayers:
  - name: Default
    uniqueID: 0
    locked: 0
