{
    "m_SGVersion": 2,
    "m_Type": "UnityEditor.ShaderGraph.GraphData",
    "m_ObjectId": "1c1fdb4babbe458d8e42be5ed479c447",
    "m_Properties": [
        {
            "m_Id": "da13b019aaf84b7b8208f9bc9d60d6dc"
        },
        {
            "m_Id": "c83df04f699a40a98932cd8306029fa4"
        },
        {
            "m_Id": "a70f1ee782464619a9ae26177f2f3d7f"
        },
        {
            "m_Id": "5b4a459d58ef4a5698e0a9490925e4e7"
        },
        {
            "m_Id": "922ec08d649044c09a59fc2311821d5a"
        },
        {
            "m_Id": "961116aa0aa244c08eaded602db5cb8b"
        },
        {
            "m_Id": "d1836c1218bd44b19a78622b7292b8b2"
        },
        {
            "m_Id": "efdf6e0bbc344743b3651361a7c603ba"
        }
    ],
    "m_Keywords": [],
    "m_Nodes": [
        {
            "m_Id": "d42ad88345e3490d80ff5514542a33a3"
        },
        {
            "m_Id": "63d5ede47be440bfb793afeaebf98eca"
        },
        {
            "m_Id": "2c0767a9582148c5b17d5fc350560b37"
        },
        {
            "m_Id": "362a5af6f210432bb8d9c710578fda75"
        },
        {
            "m_Id": "7b4df746a5c6445b891a3566e61a634a"
        },
        {
            "m_Id": "985f054fdf674f6e92b4b0dea73c0bab"
        },
        {
            "m_Id": "62b50ef3862e485fa8dc16112bb12c4e"
        },
        {
            "m_Id": "9317850c397f451698420cbebc490a66"
        },
        {
            "m_Id": "1aa4bdb555c946fda938d011b8cbfd1b"
        },
        {
            "m_Id": "e4b74fa5afd7428a9072d0465e5b8ee2"
        },
        {
            "m_Id": "7f1e849edf7f40f7b1db9883c2891f0c"
        },
        {
            "m_Id": "c23af7843a3845bcbfcbd7e8d6a611d3"
        },
        {
            "m_Id": "30cd837c6087490f9f0f2b8dc152d924"
        },
        {
            "m_Id": "c71240b2f475478e92b9e7ad31e1cdc9"
        },
        {
            "m_Id": "06001c26eeb54cab81b76f134377281e"
        },
        {
            "m_Id": "a7bb6c0bd0944a5a8516cb0938e3eeee"
        },
        {
            "m_Id": "a4510c08b7d14d8da1f9f7e6591b3bc9"
        },
        {
            "m_Id": "23dc6201c97c4c06b222a55183a93439"
        },
        {
            "m_Id": "ffa60b26d26b4f0391a24303aeafc611"
        },
        {
            "m_Id": "75d69987ec9044d2b0f24ea12b29c827"
        },
        {
            "m_Id": "fc34321ac7e047f3bbfd3cf64fa41212"
        },
        {
            "m_Id": "1b55c93d3af742a7972b0a183ab9ab96"
        },
        {
            "m_Id": "36a32d48f8f54ef9b88e36e3800b3548"
        },
        {
            "m_Id": "9abc84b37650415483c042cb7b21f3b1"
        },
        {
            "m_Id": "74552ed81f1f44b49d191744f5f0c634"
        },
        {
            "m_Id": "61d57c41878042a18dc54888e1acb725"
        },
        {
            "m_Id": "b27eaa4bb57545deaf1e0af9e41e0e1a"
        },
        {
            "m_Id": "27c39005712649499f8bd8e59651cbfc"
        },
        {
            "m_Id": "219603823ab04cf6a24e864a9ebf916c"
        },
        {
            "m_Id": "6baa0dfd685745e798ebbd212d256d9d"
        }
    ],
    "m_GroupDatas": [
        {
            "m_Id": "1d51fcee89304033a4c600e95f3c9ca9"
        },
        {
            "m_Id": "6a336e6283b749dc872794a3f53945c3"
        },
        {
            "m_Id": "6ad626b3970043d8beecf4484a9e2e13"
        },
        {
            "m_Id": "a9ff840e637f46e2b5328bb6f1515ca4"
        }
    ],
    "m_StickyNoteDatas": [],
    "m_Edges": [
        {
            "m_OutputSlot": {
                "m_Node": {
                    "m_Id": "06001c26eeb54cab81b76f134377281e"
                },
                "m_SlotId": 2
            },
            "m_InputSlot": {
                "m_Node": {
                    "m_Id": "7f1e849edf7f40f7b1db9883c2891f0c"
                },
                "m_SlotId": 0
            }
        },
        {
            "m_OutputSlot": {
                "m_Node": {
                    "m_Id": "1aa4bdb555c946fda938d011b8cbfd1b"
                },
                "m_SlotId": 0
            },
            "m_InputSlot": {
                "m_Node": {
                    "m_Id": "06001c26eeb54cab81b76f134377281e"
                },
                "m_SlotId": 0
            }
        },
        {
            "m_OutputSlot": {
                "m_Node": {
                    "m_Id": "1b55c93d3af742a7972b0a183ab9ab96"
                },
                "m_SlotId": 1
            },
            "m_InputSlot": {
                "m_Node": {
                    "m_Id": "75d69987ec9044d2b0f24ea12b29c827"
                },
                "m_SlotId": 0
            }
        },
        {
            "m_OutputSlot": {
                "m_Node": {
                    "m_Id": "219603823ab04cf6a24e864a9ebf916c"
                },
                "m_SlotId": 0
            },
            "m_InputSlot": {
                "m_Node": {
                    "m_Id": "6baa0dfd685745e798ebbd212d256d9d"
                },
                "m_SlotId": 1
            }
        },
        {
            "m_OutputSlot": {
                "m_Node": {
                    "m_Id": "23dc6201c97c4c06b222a55183a93439"
                },
                "m_SlotId": 0
            },
            "m_InputSlot": {
                "m_Node": {
                    "m_Id": "a7bb6c0bd0944a5a8516cb0938e3eeee"
                },
                "m_SlotId": 0
            }
        },
        {
            "m_OutputSlot": {
                "m_Node": {
                    "m_Id": "27c39005712649499f8bd8e59651cbfc"
                },
                "m_SlotId": 2
            },
            "m_InputSlot": {
                "m_Node": {
                    "m_Id": "362a5af6f210432bb8d9c710578fda75"
                },
                "m_SlotId": 0
            }
        },
        {
            "m_OutputSlot": {
                "m_Node": {
                    "m_Id": "30cd837c6087490f9f0f2b8dc152d924"
                },
                "m_SlotId": 0
            },
            "m_InputSlot": {
                "m_Node": {
                    "m_Id": "c23af7843a3845bcbfcbd7e8d6a611d3"
                },
                "m_SlotId": 1
            }
        },
        {
            "m_OutputSlot": {
                "m_Node": {
                    "m_Id": "36a32d48f8f54ef9b88e36e3800b3548"
                },
                "m_SlotId": 0
            },
            "m_InputSlot": {
                "m_Node": {
                    "m_Id": "6baa0dfd685745e798ebbd212d256d9d"
                },
                "m_SlotId": 0
            }
        },
        {
            "m_OutputSlot": {
                "m_Node": {
                    "m_Id": "61d57c41878042a18dc54888e1acb725"
                },
                "m_SlotId": 2
            },
            "m_InputSlot": {
                "m_Node": {
                    "m_Id": "6baa0dfd685745e798ebbd212d256d9d"
                },
                "m_SlotId": 2
            }
        },
        {
            "m_OutputSlot": {
                "m_Node": {
                    "m_Id": "62b50ef3862e485fa8dc16112bb12c4e"
                },
                "m_SlotId": 1
            },
            "m_InputSlot": {
                "m_Node": {
                    "m_Id": "ffa60b26d26b4f0391a24303aeafc611"
                },
                "m_SlotId": 1
            }
        },
        {
            "m_OutputSlot": {
                "m_Node": {
                    "m_Id": "6baa0dfd685745e798ebbd212d256d9d"
                },
                "m_SlotId": 3
            },
            "m_InputSlot": {
                "m_Node": {
                    "m_Id": "27c39005712649499f8bd8e59651cbfc"
                },
                "m_SlotId": 0
            }
        },
        {
            "m_OutputSlot": {
                "m_Node": {
                    "m_Id": "74552ed81f1f44b49d191744f5f0c634"
                },
                "m_SlotId": 2
            },
            "m_InputSlot": {
                "m_Node": {
                    "m_Id": "61d57c41878042a18dc54888e1acb725"
                },
                "m_SlotId": 0
            }
        },
        {
            "m_OutputSlot": {
                "m_Node": {
                    "m_Id": "75d69987ec9044d2b0f24ea12b29c827"
                },
                "m_SlotId": 2
            },
            "m_InputSlot": {
                "m_Node": {
                    "m_Id": "27c39005712649499f8bd8e59651cbfc"
                },
                "m_SlotId": 1
            }
        },
        {
            "m_OutputSlot": {
                "m_Node": {
                    "m_Id": "7b4df746a5c6445b891a3566e61a634a"
                },
                "m_SlotId": 0
            },
            "m_InputSlot": {
                "m_Node": {
                    "m_Id": "985f054fdf674f6e92b4b0dea73c0bab"
                },
                "m_SlotId": 0
            }
        },
        {
            "m_OutputSlot": {
                "m_Node": {
                    "m_Id": "7f1e849edf7f40f7b1db9883c2891f0c"
                },
                "m_SlotId": 2
            },
            "m_InputSlot": {
                "m_Node": {
                    "m_Id": "e4b74fa5afd7428a9072d0465e5b8ee2"
                },
                "m_SlotId": 0
            }
        },
        {
            "m_OutputSlot": {
                "m_Node": {
                    "m_Id": "9317850c397f451698420cbebc490a66"
                },
                "m_SlotId": 0
            },
            "m_InputSlot": {
                "m_Node": {
                    "m_Id": "1aa4bdb555c946fda938d011b8cbfd1b"
                },
                "m_SlotId": 1
            }
        },
        {
            "m_OutputSlot": {
                "m_Node": {
                    "m_Id": "985f054fdf674f6e92b4b0dea73c0bab"
                },
                "m_SlotId": 1
            },
            "m_InputSlot": {
                "m_Node": {
                    "m_Id": "62b50ef3862e485fa8dc16112bb12c4e"
                },
                "m_SlotId": 0
            }
        },
        {
            "m_OutputSlot": {
                "m_Node": {
                    "m_Id": "9abc84b37650415483c042cb7b21f3b1"
                },
                "m_SlotId": 0
            },
            "m_InputSlot": {
                "m_Node": {
                    "m_Id": "74552ed81f1f44b49d191744f5f0c634"
                },
                "m_SlotId": 0
            }
        },
        {
            "m_OutputSlot": {
                "m_Node": {
                    "m_Id": "a4510c08b7d14d8da1f9f7e6591b3bc9"
                },
                "m_SlotId": 0
            },
            "m_InputSlot": {
                "m_Node": {
                    "m_Id": "a7bb6c0bd0944a5a8516cb0938e3eeee"
                },
                "m_SlotId": 1
            }
        },
        {
            "m_OutputSlot": {
                "m_Node": {
                    "m_Id": "a7bb6c0bd0944a5a8516cb0938e3eeee"
                },
                "m_SlotId": 2
            },
            "m_InputSlot": {
                "m_Node": {
                    "m_Id": "06001c26eeb54cab81b76f134377281e"
                },
                "m_SlotId": 1
            }
        },
        {
            "m_OutputSlot": {
                "m_Node": {
                    "m_Id": "b27eaa4bb57545deaf1e0af9e41e0e1a"
                },
                "m_SlotId": 0
            },
            "m_InputSlot": {
                "m_Node": {
                    "m_Id": "61d57c41878042a18dc54888e1acb725"
                },
                "m_SlotId": 1
            }
        },
        {
            "m_OutputSlot": {
                "m_Node": {
                    "m_Id": "c23af7843a3845bcbfcbd7e8d6a611d3"
                },
                "m_SlotId": 3
            },
            "m_InputSlot": {
                "m_Node": {
                    "m_Id": "1aa4bdb555c946fda938d011b8cbfd1b"
                },
                "m_SlotId": 2
            }
        },
        {
            "m_OutputSlot": {
                "m_Node": {
                    "m_Id": "c71240b2f475478e92b9e7ad31e1cdc9"
                },
                "m_SlotId": 0
            },
            "m_InputSlot": {
                "m_Node": {
                    "m_Id": "7f1e849edf7f40f7b1db9883c2891f0c"
                },
                "m_SlotId": 1
            }
        },
        {
            "m_OutputSlot": {
                "m_Node": {
                    "m_Id": "e4b74fa5afd7428a9072d0465e5b8ee2"
                },
                "m_SlotId": 1
            },
            "m_InputSlot": {
                "m_Node": {
                    "m_Id": "ffa60b26d26b4f0391a24303aeafc611"
                },
                "m_SlotId": 0
            }
        },
        {
            "m_OutputSlot": {
                "m_Node": {
                    "m_Id": "fc34321ac7e047f3bbfd3cf64fa41212"
                },
                "m_SlotId": 0
            },
            "m_InputSlot": {
                "m_Node": {
                    "m_Id": "75d69987ec9044d2b0f24ea12b29c827"
                },
                "m_SlotId": 1
            }
        },
        {
            "m_OutputSlot": {
                "m_Node": {
                    "m_Id": "ffa60b26d26b4f0391a24303aeafc611"
                },
                "m_SlotId": 2
            },
            "m_InputSlot": {
                "m_Node": {
                    "m_Id": "1b55c93d3af742a7972b0a183ab9ab96"
                },
                "m_SlotId": 0
            }
        }
    ],
    "m_VertexContext": {
        "m_Position": {
            "x": 650.0,
            "y": -2684.0
        },
        "m_Blocks": [
            {
                "m_Id": "d42ad88345e3490d80ff5514542a33a3"
            },
            {
                "m_Id": "63d5ede47be440bfb793afeaebf98eca"
            },
            {
                "m_Id": "2c0767a9582148c5b17d5fc350560b37"
            }
        ]
    },
    "m_FragmentContext": {
        "m_Position": {
            "x": 650.0,
            "y": -2484.0
        },
        "m_Blocks": [
            {
                "m_Id": "362a5af6f210432bb8d9c710578fda75"
            }
        ]
    },
    "m_PreviewData": {
        "serializedMesh": {
            "m_SerializedMesh": "{\"mesh\":{\"instanceID\":0}}",
            "m_Guid": ""
        }
    },
    "m_Path": "Shader Graphs",
    "m_ConcretePrecision": 0,
    "m_PreviewMode": 2,
    "m_OutputNode": {
        "m_Id": ""
    },
    "m_ActiveTargets": [
        {
            "m_Id": "8489f3f0f02d4d40b36dd9304817af25"
        }
    ]
}

{
    "m_SGVersion": 0,
    "m_Type": "UnityEditor.ShaderGraph.DynamicValueMaterialSlot",
    "m_ObjectId": "00f72c3579734abc95bae7c47a652888",
    "m_Id": 1,
    "m_DisplayName": "B",
    "m_SlotType": 0,
    "m_Hidden": false,
    "m_ShaderOutputName": "B",
    "m_StageCapability": 3,
    "m_Value": {
        "e00": 2.0,
        "e01": 2.0,
        "e02": 2.0,
        "e03": 2.0,
        "e10": 2.0,
        "e11": 2.0,
        "e12": 2.0,
        "e13": 2.0,
        "e20": 2.0,
        "e21": 2.0,
        "e22": 2.0,
        "e23": 2.0,
        "e30": 2.0,
        "e31": 2.0,
        "e32": 2.0,
        "e33": 2.0
    },
    "m_DefaultValue": {
        "e00": 1.0,
        "e01": 0.0,
        "e02": 0.0,
        "e03": 0.0,
        "e10": 0.0,
        "e11": 1.0,
        "e12": 0.0,
        "e13": 0.0,
        "e20": 0.0,
        "e21": 0.0,
        "e22": 1.0,
        "e23": 0.0,
        "e30": 0.0,
        "e31": 0.0,
        "e32": 0.0,
        "e33": 1.0
    }
}

{
    "m_SGVersion": 0,
    "m_Type": "UnityEditor.ShaderGraph.HueNode",
    "m_ObjectId": "06001c26eeb54cab81b76f134377281e",
    "m_Group": {
        "m_Id": "6a336e6283b749dc872794a3f53945c3"
    },
    "m_Name": "Hue",
    "m_DrawState": {
        "m_Expanded": true,
        "m_Position": {
            "serializedVersion": "2",
            "x": -1157.5784912109375,
            "y": -2786.399658203125,
            "width": 153.0,
            "height": 154.0
        }
    },
    "m_Slots": [
        {
            "m_Id": "f074af01608248edb48a90f45990772b"
        },
        {
            "m_Id": "89b71f17e2c54184824fac5b515e9110"
        },
        {
            "m_Id": "d6fa4252b82247748040bf6d343baac5"
        }
    ],
    "synonyms": [],
    "m_Precision": 0,
    "m_PreviewExpanded": false,
    "m_PreviewMode": 0,
    "m_CustomColors": {
        "m_SerializableColors": []
    },
    "m_HueMode": 0
}

{
    "m_SGVersion": 0,
    "m_Type": "UnityEditor.ShaderGraph.Vector1MaterialSlot",
    "m_ObjectId": "08cb83a4b6264e39b3fab5362b60ce48",
    "m_Id": 4,
    "m_DisplayName": "R",
    "m_SlotType": 1,
    "m_Hidden": false,
    "m_ShaderOutputName": "R",
    "m_StageCapability": 2,
    "m_Value": 0.0,
    "m_DefaultValue": 0.0,
    "m_Labels": []
}

{
    "m_SGVersion": 0,
    "m_Type": "UnityEditor.ShaderGraph.Vector2MaterialSlot",
    "m_ObjectId": "0ae8ae7add14450eb99225480ad2c580",
    "m_Id": 0,
    "m_DisplayName": "Noise Scale",
    "m_SlotType": 1,
    "m_Hidden": false,
    "m_ShaderOutputName": "Out",
    "m_StageCapability": 3,
    "m_Value": {
        "x": 0.0,
        "y": 0.0
    },
    "m_DefaultValue": {
        "x": 0.0,
        "y": 0.0
    },
    "m_Labels": []
}

{
    "m_SGVersion": 0,
    "m_Type": "UnityEditor.ShaderGraph.Vector2MaterialSlot",
    "m_ObjectId": "0bef3b6416c64792ab8245b917f91cce",
    "m_Id": 1,
    "m_DisplayName": "Tiling",
    "m_SlotType": 0,
    "m_Hidden": false,
    "m_ShaderOutputName": "Tiling",
    "m_StageCapability": 3,
    "m_Value": {
        "x": 1.0,
        "y": 1.0
    },
    "m_DefaultValue": {
        "x": 0.0,
        "y": 0.0
    },
    "m_Labels": []
}

{
    "m_SGVersion": 0,
    "m_Type": "UnityEditor.ShaderGraph.DynamicVectorMaterialSlot",
    "m_ObjectId": "0d4e24d601ac4ae7b545c34965aa2553",
    "m_Id": 1,
    "m_DisplayName": "B",
    "m_SlotType": 0,
    "m_Hidden": false,
    "m_ShaderOutputName": "B",
    "m_StageCapability": 3,
    "m_Value": {
        "x": 1.0,
        "y": 1.0,
        "z": 1.0,
        "w": 1.0
    },
    "m_DefaultValue": {
        "x": 0.0,
        "y": 0.0,
        "z": 0.0,
        "w": 0.0
    }
}

{
    "m_SGVersion": 0,
    "m_Type": "UnityEditor.ShaderGraph.DynamicVectorMaterialSlot",
    "m_ObjectId": "1430bff2e83b4ddd8313d523614443c2",
    "m_Id": 0,
    "m_DisplayName": "In",
    "m_SlotType": 0,
    "m_Hidden": false,
    "m_ShaderOutputName": "In",
    "m_StageCapability": 3,
    "m_Value": {
        "x": 0.0,
        "y": 0.0,
        "z": 0.0,
        "w": 0.0
    },
    "m_DefaultValue": {
        "x": 0.0,
        "y": 0.0,
        "z": 0.0,
        "w": 0.0
    }
}

{
    "m_SGVersion": 0,
    "m_Type": "UnityEditor.ShaderGraph.Vector1MaterialSlot",
    "m_ObjectId": "14f39993265c4185b302ac69266ded37",
    "m_Id": 0,
    "m_DisplayName": "Acido Offset",
    "m_SlotType": 1,
    "m_Hidden": false,
    "m_ShaderOutputName": "Out",
    "m_StageCapability": 3,
    "m_Value": 0.0,
    "m_DefaultValue": 0.0,
    "m_Labels": []
}

{
    "m_SGVersion": 0,
    "m_Type": "UnityEditor.ShaderGraph.SampleTexture2DNode",
    "m_ObjectId": "1aa4bdb555c946fda938d011b8cbfd1b",
    "m_Group": {
        "m_Id": "6a336e6283b749dc872794a3f53945c3"
    },
    "m_Name": "Sample Texture 2D",
    "m_DrawState": {
        "m_Expanded": true,
        "m_Position": {
            "serializedVersion": "2",
            "x": -1467.5784912109375,
            "y": -2998.399658203125,
            "width": 208.0,
            "height": 437.0000305175781
        }
    },
    "m_Slots": [
        {
            "m_Id": "3aba8bbcc6a24b94be99a0b20552bc3b"
        },
        {
            "m_Id": "08cb83a4b6264e39b3fab5362b60ce48"
        },
        {
            "m_Id": "9f93be4289d245868f7fee0ca6219d58"
        },
        {
            "m_Id": "4a004bbf6f8e4a6681528e6a8395f28c"
        },
        {
            "m_Id": "6c7f858d8a554e33b08c5ba8ff8b8569"
        },
        {
            "m_Id": "d8ad83fb9e364e19b6736ca389936863"
        },
        {
            "m_Id": "be731dd521584c1397e494162a86cc8c"
        },
        {
            "m_Id": "e415a3e7b12744f49fc64063c516a393"
        }
    ],
    "synonyms": [],
    "m_Precision": 0,
    "m_PreviewExpanded": true,
    "m_PreviewMode": 0,
    "m_CustomColors": {
        "m_SerializableColors": []
    },
    "m_TextureType": 0,
    "m_NormalMapSpace": 0
}

{
    "m_SGVersion": 0,
    "m_Type": "UnityEditor.ShaderGraph.SaturateNode",
    "m_ObjectId": "1b55c93d3af742a7972b0a183ab9ab96",
    "m_Group": {
        "m_Id": "6ad626b3970043d8beecf4484a9e2e13"
    },
    "m_Name": "Saturate",
    "m_DrawState": {
        "m_Expanded": true,
        "m_Position": {
            "serializedVersion": "2",
            "x": -127.5784912109375,
            "y": -2354.399658203125,
            "width": 128.0,
            "height": 94.0
        }
    },
    "m_Slots": [
        {
            "m_Id": "1430bff2e83b4ddd8313d523614443c2"
        },
        {
            "m_Id": "6baca2dc785e48b98b385ba56b660f80"
        }
    ],
    "synonyms": [],
    "m_Precision": 0,
    "m_PreviewExpanded": false,
    "m_PreviewMode": 0,
    "m_CustomColors": {
        "m_SerializableColors": []
    }
}

{
    "m_SGVersion": 0,
    "m_Type": "UnityEditor.ShaderGraph.GroupData",
    "m_ObjectId": "1d51fcee89304033a4c600e95f3c9ca9",
    "m_Title": "Get View Direction (Normalized)",
    "m_Position": {
        "x": -1119.0,
        "y": -2244.0
    }
}

{
    "m_SGVersion": 0,
    "m_Type": "UnityEditor.ShaderGraph.DynamicVectorMaterialSlot",
    "m_ObjectId": "20b47ad792bd4f20b8e8f6e8f88bde62",
    "m_Id": 1,
    "m_DisplayName": "Out",
    "m_SlotType": 1,
    "m_Hidden": false,
    "m_ShaderOutputName": "Out",
    "m_StageCapability": 3,
    "m_Value": {
        "x": 0.0,
        "y": 0.0,
        "z": 0.0,
        "w": 0.0
    },
    "m_DefaultValue": {
        "x": 0.0,
        "y": 0.0,
        "z": 0.0,
        "w": 0.0
    }
}

{
    "m_SGVersion": 0,
    "m_Type": "UnityEditor.ShaderGraph.PropertyNode",
    "m_ObjectId": "219603823ab04cf6a24e864a9ebf916c",
    "m_Group": {
        "m_Id": "a9ff840e637f46e2b5328bb6f1515ca4"
    },
    "m_Name": "Property",
    "m_DrawState": {
        "m_Expanded": true,
        "m_Position": {
            "serializedVersion": "2",
            "x": -27.000022888183595,
            "y": -2721.0,
            "width": 145.0,
            "height": 34.0
        }
    },
    "m_Slots": [
        {
            "m_Id": "a91955f400d7474d827e22ebe49d7d1b"
        }
    ],
    "synonyms": [],
    "m_Precision": 0,
    "m_PreviewExpanded": true,
    "m_PreviewMode": 0,
    "m_CustomColors": {
        "m_SerializableColors": []
    },
    "m_Property": {
        "m_Id": "d1836c1218bd44b19a78622b7292b8b2"
    }
}

{
    "m_SGVersion": 0,
    "m_Type": "UnityEditor.ShaderGraph.DynamicVectorMaterialSlot",
    "m_ObjectId": "22676cb5d0cd4db69fadd5ee032112a5",
    "m_Id": 0,
    "m_DisplayName": "A",
    "m_SlotType": 0,
    "m_Hidden": false,
    "m_ShaderOutputName": "A",
    "m_StageCapability": 3,
    "m_Value": {
        "x": 0.0,
        "y": 0.0,
        "z": 0.0,
        "w": 0.0
    },
    "m_DefaultValue": {
        "x": 0.0,
        "y": 0.0,
        "z": 0.0,
        "w": 0.0
    }
}

{
    "m_SGVersion": 0,
    "m_Type": "UnityEditor.ShaderGraph.PropertyNode",
    "m_ObjectId": "23dc6201c97c4c06b222a55183a93439",
    "m_Group": {
        "m_Id": "6a336e6283b749dc872794a3f53945c3"
    },
    "m_Name": "Property",
    "m_DrawState": {
        "m_Expanded": true,
        "m_Position": {
            "serializedVersion": "2",
            "x": -1625.5784912109375,
            "y": -2533.399658203125,
            "width": 189.0,
            "height": 34.000003814697269
        }
    },
    "m_Slots": [
        {
            "m_Id": "ee612befe0c243dbbc131c239067092c"
        }
    ],
    "synonyms": [],
    "m_Precision": 0,
    "m_PreviewExpanded": true,
    "m_PreviewMode": 0,
    "m_CustomColors": {
        "m_SerializableColors": []
    },
    "m_Property": {
        "m_Id": "a70f1ee782464619a9ae26177f2f3d7f"
    }
}

{
    "m_SGVersion": 0,
    "m_Type": "UnityEditor.ShaderGraph.DynamicValueMaterialSlot",
    "m_ObjectId": "242a511c537d48efa378617c4b6cde92",
    "m_Id": 0,
    "m_DisplayName": "A",
    "m_SlotType": 0,
    "m_Hidden": false,
    "m_ShaderOutputName": "A",
    "m_StageCapability": 3,
    "m_Value": {
        "e00": 0.0,
        "e01": 0.0,
        "e02": 0.0,
        "e03": 0.0,
        "e10": 0.0,
        "e11": 0.0,
        "e12": 0.0,
        "e13": 0.0,
        "e20": 0.0,
        "e21": 0.0,
        "e22": 0.0,
        "e23": 0.0,
        "e30": 0.0,
        "e31": 0.0,
        "e32": 0.0,
        "e33": 0.0
    },
    "m_DefaultValue": {
        "e00": 1.0,
        "e01": 0.0,
        "e02": 0.0,
        "e03": 0.0,
        "e10": 0.0,
        "e11": 1.0,
        "e12": 0.0,
        "e13": 0.0,
        "e20": 0.0,
        "e21": 0.0,
        "e22": 1.0,
        "e23": 0.0,
        "e30": 0.0,
        "e31": 0.0,
        "e32": 0.0,
        "e33": 1.0
    }
}

{
    "m_SGVersion": 0,
    "m_Type": "UnityEditor.ShaderGraph.AddNode",
    "m_ObjectId": "27c39005712649499f8bd8e59651cbfc",
    "m_Group": {
        "m_Id": ""
    },
    "m_Name": "Add",
    "m_DrawState": {
        "m_Expanded": true,
        "m_Position": {
            "serializedVersion": "2",
            "x": 419.00006103515627,
            "y": -2485.0,
            "width": 130.0,
            "height": 118.0
        }
    },
    "m_Slots": [
        {
            "m_Id": "3df007766ce74d118fb46c24859cddf5"
        },
        {
            "m_Id": "8c830bebf06348c3999e3cc21ffce2bf"
        },
        {
            "m_Id": "6c2148ec476743c1aeb005f9af2ec140"
        }
    ],
    "synonyms": [],
    "m_Precision": 0,
    "m_PreviewExpanded": false,
    "m_PreviewMode": 0,
    "m_CustomColors": {
        "m_SerializableColors": []
    }
}

{
    "m_SGVersion": 0,
    "m_Type": "UnityEditor.ShaderGraph.Vector1MaterialSlot",
    "m_ObjectId": "282e5b03815743dfa76279d9c994cacc",
    "m_Id": 3,
    "m_DisplayName": "B",
    "m_SlotType": 1,
    "m_Hidden": false,
    "m_ShaderOutputName": "B",
    "m_StageCapability": 3,
    "m_Value": 0.0,
    "m_DefaultValue": 0.0,
    "m_Labels": []
}

{
    "m_SGVersion": 0,
    "m_Type": "UnityEditor.ShaderGraph.BlockNode",
    "m_ObjectId": "2c0767a9582148c5b17d5fc350560b37",
    "m_Group": {
        "m_Id": ""
    },
    "m_Name": "VertexDescription.Tangent",
    "m_DrawState": {
        "m_Expanded": true,
        "m_Position": {
            "serializedVersion": "2",
            "x": 0.0,
            "y": 0.0,
            "width": 0.0,
            "height": 0.0
        }
    },
    "m_Slots": [
        {
            "m_Id": "cdafe7e37e6245d1a5c3306851d20420"
        }
    ],
    "synonyms": [],
    "m_Precision": 0,
    "m_PreviewExpanded": true,
    "m_PreviewMode": 0,
    "m_CustomColors": {
        "m_SerializableColors": []
    },
    "m_SerializedDescriptor": "VertexDescription.Tangent"
}

{
    "m_SGVersion": 0,
    "m_Type": "UnityEditor.ShaderGraph.Vector1MaterialSlot",
    "m_ObjectId": "2d1bd2cde7fd46759a88b181252b2111",
    "m_Id": 1,
    "m_DisplayName": "Sine Time",
    "m_SlotType": 1,
    "m_Hidden": false,
    "m_ShaderOutputName": "Sine Time",
    "m_StageCapability": 3,
    "m_Value": 0.0,
    "m_DefaultValue": 0.0,
    "m_Labels": []
}

{
    "m_SGVersion": 0,
    "m_Type": "UnityEditor.ShaderGraph.Vector1MaterialSlot",
    "m_ObjectId": "2dc7e48781204a60861cd3f168daa195",
    "m_Id": 3,
    "m_DisplayName": "Delta Time",
    "m_SlotType": 1,
    "m_Hidden": false,
    "m_ShaderOutputName": "Delta Time",
    "m_StageCapability": 3,
    "m_Value": 0.0,
    "m_DefaultValue": 0.0,
    "m_Labels": []
}

{
    "m_SGVersion": 0,
    "m_Type": "UnityEditor.ShaderGraph.PropertyNode",
    "m_ObjectId": "30cd837c6087490f9f0f2b8dc152d924",
    "m_Group": {
        "m_Id": "6a336e6283b749dc872794a3f53945c3"
    },
    "m_Name": "Property",
    "m_DrawState": {
        "m_Expanded": true,
        "m_Position": {
            "serializedVersion": "2",
            "x": -1965.5784912109375,
            "y": -2850.399658203125,
            "width": 139.0,
            "height": 34.000003814697269
        }
    },
    "m_Slots": [
        {
            "m_Id": "0ae8ae7add14450eb99225480ad2c580"
        }
    ],
    "synonyms": [],
    "m_Precision": 0,
    "m_PreviewExpanded": true,
    "m_PreviewMode": 0,
    "m_CustomColors": {
        "m_SerializableColors": []
    },
    "m_Property": {
        "m_Id": "c83df04f699a40a98932cd8306029fa4"
    }
}

{
    "m_SGVersion": 0,
    "m_Type": "UnityEditor.ShaderGraph.ColorRGBMaterialSlot",
    "m_ObjectId": "34cab295005a4b72a7a20eebd319b3cc",
    "m_Id": 0,
    "m_DisplayName": "Base Color",
    "m_SlotType": 0,
    "m_Hidden": false,
    "m_ShaderOutputName": "BaseColor",
    "m_StageCapability": 2,
    "m_Value": {
        "x": 0.0,
        "y": 0.0,
        "z": 0.0
    },
    "m_DefaultValue": {
        "x": 0.0,
        "y": 0.0,
        "z": 0.0
    },
    "m_Labels": [],
    "m_ColorMode": 0,
    "m_DefaultColor": {
        "r": 0.5,
        "g": 0.5,
        "b": 0.5,
        "a": 1.0
    }
}

{
    "m_SGVersion": 0,
    "m_Type": "UnityEditor.ShaderGraph.BlockNode",
    "m_ObjectId": "362a5af6f210432bb8d9c710578fda75",
    "m_Group": {
        "m_Id": ""
    },
    "m_Name": "SurfaceDescription.BaseColor",
    "m_DrawState": {
        "m_Expanded": true,
        "m_Position": {
            "serializedVersion": "2",
            "x": 0.0,
            "y": 0.0,
            "width": 0.0,
            "height": 0.0
        }
    },
    "m_Slots": [
        {
            "m_Id": "34cab295005a4b72a7a20eebd319b3cc"
        }
    ],
    "synonyms": [],
    "m_Precision": 0,
    "m_PreviewExpanded": true,
    "m_PreviewMode": 0,
    "m_CustomColors": {
        "m_SerializableColors": []
    },
    "m_SerializedDescriptor": "SurfaceDescription.BaseColor"
}

{
    "m_SGVersion": 0,
    "m_Type": "UnityEditor.ShaderGraph.DynamicVectorMaterialSlot",
    "m_ObjectId": "36629680c6dc40028f3474cecd859d10",
    "m_Id": 0,
    "m_DisplayName": "A",
    "m_SlotType": 0,
    "m_Hidden": false,
    "m_ShaderOutputName": "A",
    "m_StageCapability": 3,
    "m_Value": {
        "x": 0.0,
        "y": 0.0,
        "z": 0.0,
        "w": 0.0
    },
    "m_DefaultValue": {
        "x": 0.0,
        "y": 0.0,
        "z": 0.0,
        "w": 0.0
    }
}

{
    "m_SGVersion": 0,
    "m_Type": "UnityEditor.ShaderGraph.PropertyNode",
    "m_ObjectId": "36a32d48f8f54ef9b88e36e3800b3548",
    "m_Group": {
        "m_Id": "a9ff840e637f46e2b5328bb6f1515ca4"
    },
    "m_Name": "Property",
    "m_DrawState": {
        "m_Expanded": true,
        "m_Position": {
            "serializedVersion": "2",
            "x": -27.000022888183595,
            "y": -2760.0,
            "width": 135.00001525878907,
            "height": 34.0
        }
    },
    "m_Slots": [
        {
            "m_Id": "bfc0f65a17c34bab8028866399492a32"
        }
    ],
    "synonyms": [],
    "m_Precision": 0,
    "m_PreviewExpanded": true,
    "m_PreviewMode": 0,
    "m_CustomColors": {
        "m_SerializableColors": []
    },
    "m_Property": {
        "m_Id": "961116aa0aa244c08eaded602db5cb8b"
    }
}

{
    "m_SGVersion": 0,
    "m_Type": "UnityEditor.ShaderGraph.DynamicVectorMaterialSlot",
    "m_ObjectId": "3739f8683871444f8c3e0e15dd487ab4",
    "m_Id": 2,
    "m_DisplayName": "T",
    "m_SlotType": 0,
    "m_Hidden": false,
    "m_ShaderOutputName": "T",
    "m_StageCapability": 3,
    "m_Value": {
        "x": 0.0,
        "y": 0.0,
        "z": 0.0,
        "w": 0.0
    },
    "m_DefaultValue": {
        "x": 0.0,
        "y": 0.0,
        "z": 0.0,
        "w": 0.0
    }
}

{
    "m_SGVersion": 0,
    "m_Type": "UnityEditor.ShaderGraph.DynamicVectorMaterialSlot",
    "m_ObjectId": "3921273368a14aa391a5644679927c5c",
    "m_Id": 0,
    "m_DisplayName": "In",
    "m_SlotType": 0,
    "m_Hidden": false,
    "m_ShaderOutputName": "In",
    "m_StageCapability": 3,
    "m_Value": {
        "x": 0.0,
        "y": 0.0,
        "z": 0.0,
        "w": 0.0
    },
    "m_DefaultValue": {
        "x": 0.0,
        "y": 0.0,
        "z": 0.0,
        "w": 0.0
    }
}

{
    "m_SGVersion": 0,
    "m_Type": "UnityEditor.ShaderGraph.Vector4MaterialSlot",
    "m_ObjectId": "3aba8bbcc6a24b94be99a0b20552bc3b",
    "m_Id": 0,
    "m_DisplayName": "RGBA",
    "m_SlotType": 1,
    "m_Hidden": false,
    "m_ShaderOutputName": "RGBA",
    "m_StageCapability": 2,
    "m_Value": {
        "x": 0.0,
        "y": 0.0,
        "z": 0.0,
        "w": 0.0
    },
    "m_DefaultValue": {
        "x": 0.0,
        "y": 0.0,
        "z": 0.0,
        "w": 0.0
    },
    "m_Labels": []
}

{
    "m_SGVersion": 0,
    "m_Type": "UnityEditor.ShaderGraph.DynamicVectorMaterialSlot",
    "m_ObjectId": "3df007766ce74d118fb46c24859cddf5",
    "m_Id": 0,
    "m_DisplayName": "A",
    "m_SlotType": 0,
    "m_Hidden": false,
    "m_ShaderOutputName": "A",
    "m_StageCapability": 3,
    "m_Value": {
        "x": 0.0,
        "y": 0.0,
        "z": 0.0,
        "w": 0.0
    },
    "m_DefaultValue": {
        "x": 0.0,
        "y": 0.0,
        "z": 0.0,
        "w": 0.0
    }
}

{
    "m_SGVersion": 0,
    "m_Type": "UnityEditor.ShaderGraph.DynamicVectorMaterialSlot",
    "m_ObjectId": "47e3a10923a44d11a4f674e92f04f4df",
    "m_Id": 1,
    "m_DisplayName": "B",
    "m_SlotType": 0,
    "m_Hidden": false,
    "m_ShaderOutputName": "B",
    "m_StageCapability": 3,
    "m_Value": {
        "x": 1.0,
        "y": 1.0,
        "z": 1.0,
        "w": 1.0
    },
    "m_DefaultValue": {
        "x": 0.0,
        "y": 0.0,
        "z": 0.0,
        "w": 0.0
    }
}

{
    "m_SGVersion": 0,
    "m_Type": "UnityEditor.ShaderGraph.Vector1MaterialSlot",
    "m_ObjectId": "4a004bbf6f8e4a6681528e6a8395f28c",
    "m_Id": 6,
    "m_DisplayName": "B",
    "m_SlotType": 1,
    "m_Hidden": false,
    "m_ShaderOutputName": "B",
    "m_StageCapability": 2,
    "m_Value": 0.0,
    "m_DefaultValue": 0.0,
    "m_Labels": []
}

{
    "m_SGVersion": 0,
    "m_Type": "UnityEditor.ShaderGraph.DynamicVectorMaterialSlot",
    "m_ObjectId": "592d1b784ed04ec09c171df9eaff0774",
    "m_Id": 1,
    "m_DisplayName": "Out",
    "m_SlotType": 1,
    "m_Hidden": false,
    "m_ShaderOutputName": "Out",
    "m_StageCapability": 3,
    "m_Value": {
        "x": 0.0,
        "y": 0.0,
        "z": 0.0,
        "w": 0.0
    },
    "m_DefaultValue": {
        "x": 0.0,
        "y": 0.0,
        "z": 0.0,
        "w": 0.0
    }
}

{
    "m_SGVersion": 1,
    "m_Type": "UnityEditor.ShaderGraph.Internal.Vector1ShaderProperty",
    "m_ObjectId": "5b4a459d58ef4a5698e0a9490925e4e7",
    "m_Guid": {
        "m_GuidSerialized": "8367b3f5-2455-45c8-add3-fdbbcd64869d"
    },
    "m_Name": "Acido Offset",
    "m_DefaultReferenceName": "Vector1_5b4a459d58ef4a5698e0a9490925e4e7",
    "m_OverrideReferenceName": "",
    "m_GeneratePropertyBlock": true,
    "m_Precision": 0,
    "overrideHLSLDeclaration": false,
    "hlslDeclarationOverride": 0,
    "m_Hidden": false,
    "m_Value": 0.4000000059604645,
    "m_FloatType": 0,
    "m_RangeValues": {
        "x": 0.0,
        "y": 1.0
    }
}

{
    "m_SGVersion": 0,
    "m_Type": "UnityEditor.ShaderGraph.DynamicVectorMaterialSlot",
    "m_ObjectId": "5dec24a85e29408192aafb330a737e62",
    "m_Id": 3,
    "m_DisplayName": "Out",
    "m_SlotType": 1,
    "m_Hidden": false,
    "m_ShaderOutputName": "Out",
    "m_StageCapability": 3,
    "m_Value": {
        "x": 0.0,
        "y": 0.0,
        "z": 0.0,
        "w": 0.0
    },
    "m_DefaultValue": {
        "x": 0.0,
        "y": 0.0,
        "z": 0.0,
        "w": 0.0
    }
}

{
    "m_SGVersion": 0,
    "m_Type": "UnityEditor.ShaderGraph.Texture2DMaterialSlot",
    "m_ObjectId": "6177bde14db24f66bbce59a0e5ffec7b",
    "m_Id": 0,
    "m_DisplayName": "Noise Texture",
    "m_SlotType": 1,
    "m_Hidden": false,
    "m_ShaderOutputName": "Out",
    "m_StageCapability": 3,
    "m_BareResource": false
}

{
    "m_SGVersion": 0,
    "m_Type": "UnityEditor.ShaderGraph.PowerNode",
    "m_ObjectId": "61d57c41878042a18dc54888e1acb725",
    "m_Group": {
        "m_Id": "a9ff840e637f46e2b5328bb6f1515ca4"
    },
    "m_Name": "Power",
    "m_DrawState": {
        "m_Expanded": true,
        "m_Position": {
            "serializedVersion": "2",
            "x": -23.000009536743165,
            "y": -2679.0,
            "width": 126.00000762939453,
            "height": 118.00000762939453
        }
    },
    "m_Slots": [
        {
            "m_Id": "36629680c6dc40028f3474cecd859d10"
        },
        {
            "m_Id": "f92d28c992af46ecb74c9e67a5ec68dc"
        },
        {
            "m_Id": "aff1664f605043609f01031c74b2726d"
        }
    ],
    "synonyms": [],
    "m_Precision": 0,
    "m_PreviewExpanded": false,
    "m_PreviewMode": 0,
    "m_CustomColors": {
        "m_SerializableColors": []
    }
}

{
    "m_SGVersion": 0,
    "m_Type": "UnityEditor.ShaderGraph.OneMinusNode",
    "m_ObjectId": "62b50ef3862e485fa8dc16112bb12c4e",
    "m_Group": {
        "m_Id": "1d51fcee89304033a4c600e95f3c9ca9"
    },
    "m_Name": "One Minus",
    "m_DrawState": {
        "m_Expanded": true,
        "m_Position": {
            "serializedVersion": "2",
            "x": -689.578369140625,
            "y": -2185.399658203125,
            "width": 132.0,
            "height": 94.0
        }
    },
    "m_Slots": [
        {
            "m_Id": "8166481c14d646c795f84c05f9506776"
        },
        {
            "m_Id": "592d1b784ed04ec09c171df9eaff0774"
        }
    ],
    "synonyms": [],
    "m_Precision": 0,
    "m_PreviewExpanded": false,
    "m_PreviewMode": 0,
    "m_CustomColors": {
        "m_SerializableColors": []
    }
}

{
    "m_SGVersion": 0,
    "m_Type": "UnityEditor.ShaderGraph.Vector2MaterialSlot",
    "m_ObjectId": "62c3cfa235514e93bdfc1f1bf076ac08",
    "m_Id": 3,
    "m_DisplayName": "Out",
    "m_SlotType": 1,
    "m_Hidden": false,
    "m_ShaderOutputName": "Out",
    "m_StageCapability": 3,
    "m_Value": {
        "x": 0.0,
        "y": 0.0
    },
    "m_DefaultValue": {
        "x": 0.0,
        "y": 0.0
    },
    "m_Labels": []
}

{
    "m_SGVersion": 0,
    "m_Type": "UnityEditor.ShaderGraph.BlockNode",
    "m_ObjectId": "63d5ede47be440bfb793afeaebf98eca",
    "m_Group": {
        "m_Id": ""
    },
    "m_Name": "VertexDescription.Normal",
    "m_DrawState": {
        "m_Expanded": true,
        "m_Position": {
            "serializedVersion": "2",
            "x": 0.0,
            "y": 0.0,
            "width": 0.0,
            "height": 0.0
        }
    },
    "m_Slots": [
        {
            "m_Id": "70c730387065401eb01e6d49cdc9c1c9"
        }
    ],
    "synonyms": [],
    "m_Precision": 0,
    "m_PreviewExpanded": true,
    "m_PreviewMode": 0,
    "m_CustomColors": {
        "m_SerializableColors": []
    },
    "m_SerializedDescriptor": "VertexDescription.Normal"
}

{
    "m_SGVersion": 0,
    "m_Type": "UnityEditor.ShaderGraph.UVMaterialSlot",
    "m_ObjectId": "6850629bfbbb4896bf293f3d57b8b864",
    "m_Id": 0,
    "m_DisplayName": "UV",
    "m_SlotType": 0,
    "m_Hidden": false,
    "m_ShaderOutputName": "UV",
    "m_StageCapability": 3,
    "m_Value": {
        "x": 0.0,
        "y": 0.0
    },
    "m_DefaultValue": {
        "x": 0.0,
        "y": 0.0
    },
    "m_Labels": [],
    "m_Channel": 0
}

{
    "m_SGVersion": 0,
    "m_Type": "UnityEditor.ShaderGraph.GroupData",
    "m_ObjectId": "6a336e6283b749dc872794a3f53945c3",
    "m_Title": "Get Glitter Facing Directions (Sample Noise)",
    "m_Position": {
        "x": -1991.0,
        "y": -3057.0
    }
}

{
    "m_SGVersion": 0,
    "m_Type": "UnityEditor.ShaderGraph.GroupData",
    "m_ObjectId": "6ad626b3970043d8beecf4484a9e2e13",
    "m_Title": "Combining Colors",
    "m_Position": {
        "x": -434.0,
        "y": -2413.0
    }
}

{
    "m_SGVersion": 0,
    "m_Type": "UnityEditor.ShaderGraph.LerpNode",
    "m_ObjectId": "6baa0dfd685745e798ebbd212d256d9d",
    "m_Group": {
        "m_Id": "a9ff840e637f46e2b5328bb6f1515ca4"
    },
    "m_Name": "Lerp",
    "m_DrawState": {
        "m_Expanded": true,
        "m_Position": {
            "serializedVersion": "2",
            "x": 163.00001525878907,
            "y": -2785.0,
            "width": 130.0,
            "height": 142.0
        }
    },
    "m_Slots": [
        {
            "m_Id": "cc526a7c940f464c8828297d7af3845d"
        },
        {
            "m_Id": "47e3a10923a44d11a4f674e92f04f4df"
        },
        {
            "m_Id": "3739f8683871444f8c3e0e15dd487ab4"
        },
        {
            "m_Id": "5dec24a85e29408192aafb330a737e62"
        }
    ],
    "synonyms": [],
    "m_Precision": 0,
    "m_PreviewExpanded": false,
    "m_PreviewMode": 0,
    "m_CustomColors": {
        "m_SerializableColors": []
    }
}

{
    "m_SGVersion": 0,
    "m_Type": "UnityEditor.ShaderGraph.DynamicVectorMaterialSlot",
    "m_ObjectId": "6baca2dc785e48b98b385ba56b660f80",
    "m_Id": 1,
    "m_DisplayName": "Out",
    "m_SlotType": 1,
    "m_Hidden": false,
    "m_ShaderOutputName": "Out",
    "m_StageCapability": 3,
    "m_Value": {
        "x": 0.0,
        "y": 0.0,
        "z": 0.0,
        "w": 0.0
    },
    "m_DefaultValue": {
        "x": 0.0,
        "y": 0.0,
        "z": 0.0,
        "w": 0.0
    }
}

{
    "m_SGVersion": 0,
    "m_Type": "UnityEditor.ShaderGraph.DynamicVectorMaterialSlot",
    "m_ObjectId": "6c2148ec476743c1aeb005f9af2ec140",
    "m_Id": 2,
    "m_DisplayName": "Out",
    "m_SlotType": 1,
    "m_Hidden": false,
    "m_ShaderOutputName": "Out",
    "m_StageCapability": 3,
    "m_Value": {
        "x": 0.0,
        "y": 0.0,
        "z": 0.0,
        "w": 0.0
    },
    "m_DefaultValue": {
        "x": 0.0,
        "y": 0.0,
        "z": 0.0,
        "w": 0.0
    }
}

{
    "m_SGVersion": 0,
    "m_Type": "UnityEditor.ShaderGraph.Vector1MaterialSlot",
    "m_ObjectId": "6c7f858d8a554e33b08c5ba8ff8b8569",
    "m_Id": 7,
    "m_DisplayName": "A",
    "m_SlotType": 1,
    "m_Hidden": false,
    "m_ShaderOutputName": "A",
    "m_StageCapability": 2,
    "m_Value": 0.0,
    "m_DefaultValue": 0.0,
    "m_Labels": []
}

{
    "m_SGVersion": 0,
    "m_Type": "UnityEditor.ShaderGraph.Vector4MaterialSlot",
    "m_ObjectId": "7044464e6a8245b79175bb03960f4477",
    "m_Id": 0,
    "m_DisplayName": "Out",
    "m_SlotType": 1,
    "m_Hidden": false,
    "m_ShaderOutputName": "Out",
    "m_StageCapability": 3,
    "m_Value": {
        "x": 0.0,
        "y": 0.0,
        "z": 0.0,
        "w": 0.0
    },
    "m_DefaultValue": {
        "x": 0.0,
        "y": 0.0,
        "z": 0.0,
        "w": 0.0
    },
    "m_Labels": []
}

{
    "m_SGVersion": 0,
    "m_Type": "UnityEditor.ShaderGraph.NormalMaterialSlot",
    "m_ObjectId": "70c730387065401eb01e6d49cdc9c1c9",
    "m_Id": 0,
    "m_DisplayName": "Normal",
    "m_SlotType": 0,
    "m_Hidden": false,
    "m_ShaderOutputName": "Normal",
    "m_StageCapability": 1,
    "m_Value": {
        "x": 0.0,
        "y": 0.0,
        "z": 0.0
    },
    "m_DefaultValue": {
        "x": 0.0,
        "y": 0.0,
        "z": 0.0
    },
    "m_Labels": [],
    "m_Space": 0
}

{
    "m_SGVersion": 0,
    "m_Type": "UnityEditor.ShaderGraph.SplitNode",
    "m_ObjectId": "74552ed81f1f44b49d191744f5f0c634",
    "m_Group": {
        "m_Id": "a9ff840e637f46e2b5328bb6f1515ca4"
    },
    "m_Name": "Split",
    "m_DrawState": {
        "m_Expanded": true,
        "m_Position": {
            "serializedVersion": "2",
            "x": -226.00001525878907,
            "y": -2703.0,
            "width": 120.00000762939453,
            "height": 149.00001525878907
        }
    },
    "m_Slots": [
        {
            "m_Id": "a65af62700344c4b84850115018c833c"
        },
        {
            "m_Id": "e3cc40d7826248fc9c99b9797f8fc9fd"
        },
        {
            "m_Id": "bd3e1f29f7ea471caa9d11ff5527d4d4"
        },
        {
            "m_Id": "282e5b03815743dfa76279d9c994cacc"
        },
        {
            "m_Id": "f20da6285349402fbdca2741f45b877e"
        }
    ],
    "synonyms": [],
    "m_Precision": 0,
    "m_PreviewExpanded": true,
    "m_PreviewMode": 0,
    "m_CustomColors": {
        "m_SerializableColors": []
    }
}

{
    "m_SGVersion": 0,
    "m_Type": "UnityEditor.ShaderGraph.DynamicVectorMaterialSlot",
    "m_ObjectId": "750305dcf24947468cbc58b7b24dcfa4",
    "m_Id": 1,
    "m_DisplayName": "Out",
    "m_SlotType": 1,
    "m_Hidden": false,
    "m_ShaderOutputName": "Out",
    "m_StageCapability": 3,
    "m_Value": {
        "x": 0.0,
        "y": 0.0,
        "z": 0.0,
        "w": 0.0
    },
    "m_DefaultValue": {
        "x": 0.0,
        "y": 0.0,
        "z": 0.0,
        "w": 0.0
    }
}

{
    "m_SGVersion": 0,
    "m_Type": "UnityEditor.ShaderGraph.MultiplyNode",
    "m_ObjectId": "75d69987ec9044d2b0f24ea12b29c827",
    "m_Group": {
        "m_Id": "6ad626b3970043d8beecf4484a9e2e13"
    },
    "m_Name": "Multiply",
    "m_DrawState": {
        "m_Expanded": true,
        "m_Position": {
            "serializedVersion": "2",
            "x": 57.4215087890625,
            "y": -2354.399658203125,
            "width": 130.0,
            "height": 118.0
        }
    },
    "m_Slots": [
        {
            "m_Id": "242a511c537d48efa378617c4b6cde92"
        },
        {
            "m_Id": "ea0324ad6020431289c29c3dc7e2c7f1"
        },
        {
            "m_Id": "90c2fc3e7997486bb119d7101bd32ecb"
        }
    ],
    "synonyms": [],
    "m_Precision": 0,
    "m_PreviewExpanded": false,
    "m_PreviewMode": 0,
    "m_CustomColors": {
        "m_SerializableColors": []
    }
}

{
    "m_SGVersion": 0,
    "m_Type": "UnityEditor.ShaderGraph.DynamicVectorMaterialSlot",
    "m_ObjectId": "77f22ce364ff4d83b2fb6f0934efddfb",
    "m_Id": 0,
    "m_DisplayName": "In",
    "m_SlotType": 0,
    "m_Hidden": false,
    "m_ShaderOutputName": "In",
    "m_StageCapability": 3,
    "m_Value": {
        "x": 0.0,
        "y": 0.0,
        "z": 0.0,
        "w": 0.0
    },
    "m_DefaultValue": {
        "x": 0.0,
        "y": 0.0,
        "z": 0.0,
        "w": 0.0
    }
}

{
    "m_SGVersion": 0,
    "m_Type": "UnityEditor.ShaderGraph.ViewDirectionNode",
    "m_ObjectId": "7b4df746a5c6445b891a3566e61a634a",
    "m_Group": {
        "m_Id": "1d51fcee89304033a4c600e95f3c9ca9"
    },
    "m_Name": "View Direction",
    "m_DrawState": {
        "m_Expanded": true,
        "m_Position": {
            "serializedVersion": "2",
            "x": -1093.57861328125,
            "y": -2185.399658203125,
            "width": 208.00001525878907,
            "height": 316.0
        }
    },
    "m_Slots": [
        {
            "m_Id": "b44fc278edde4cc287eb3b29ab39afc1"
        }
    ],
    "synonyms": [],
    "m_Precision": 0,
    "m_PreviewExpanded": true,
    "m_PreviewMode": 2,
    "m_CustomColors": {
        "m_SerializableColors": []
    },
    "m_Space": 2
}

{
    "m_SGVersion": 0,
    "m_Type": "UnityEditor.ShaderGraph.DynamicValueMaterialSlot",
    "m_ObjectId": "7e3bdaaeece34ccaac6fcb1b60a6303b",
    "m_Id": 0,
    "m_DisplayName": "A",
    "m_SlotType": 0,
    "m_Hidden": false,
    "m_ShaderOutputName": "A",
    "m_StageCapability": 3,
    "m_Value": {
        "e00": 0.0,
        "e01": 0.0,
        "e02": 0.0,
        "e03": 0.0,
        "e10": 0.0,
        "e11": 0.0,
        "e12": 0.0,
        "e13": 0.0,
        "e20": 0.0,
        "e21": 0.0,
        "e22": 0.0,
        "e23": 0.0,
        "e30": 0.0,
        "e31": 0.0,
        "e32": 0.0,
        "e33": 0.0
    },
    "m_DefaultValue": {
        "e00": 1.0,
        "e01": 0.0,
        "e02": 0.0,
        "e03": 0.0,
        "e10": 0.0,
        "e11": 1.0,
        "e12": 0.0,
        "e13": 0.0,
        "e20": 0.0,
        "e21": 0.0,
        "e22": 1.0,
        "e23": 0.0,
        "e30": 0.0,
        "e31": 0.0,
        "e32": 0.0,
        "e33": 1.0
    }
}

{
    "m_SGVersion": 0,
    "m_Type": "UnityEditor.ShaderGraph.SubtractNode",
    "m_ObjectId": "7f1e849edf7f40f7b1db9883c2891f0c",
    "m_Group": {
        "m_Id": "6a336e6283b749dc872794a3f53945c3"
    },
    "m_Name": "Subtract",
    "m_DrawState": {
        "m_Expanded": true,
        "m_Position": {
            "serializedVersion": "2",
            "x": -837.578369140625,
            "y": -2786.399658203125,
            "width": 130.0,
            "height": 118.0
        }
    },
    "m_Slots": [
        {
            "m_Id": "81c5a4c7f77b4a3e85e02d230d85ff23"
        },
        {
            "m_Id": "0d4e24d601ac4ae7b545c34965aa2553"
        },
        {
            "m_Id": "cc677f8065a94686ab10f30e9cd8c9e3"
        }
    ],
    "synonyms": [],
    "m_Precision": 0,
    "m_PreviewExpanded": false,
    "m_PreviewMode": 0,
    "m_CustomColors": {
        "m_SerializableColors": []
    }
}

{
    "m_SGVersion": 0,
    "m_Type": "UnityEditor.ShaderGraph.DynamicVectorMaterialSlot",
    "m_ObjectId": "8166481c14d646c795f84c05f9506776",
    "m_Id": 0,
    "m_DisplayName": "In",
    "m_SlotType": 0,
    "m_Hidden": false,
    "m_ShaderOutputName": "In",
    "m_StageCapability": 3,
    "m_Value": {
        "x": 1.0,
        "y": 1.0,
        "z": 1.0,
        "w": 1.0
    },
    "m_DefaultValue": {
        "x": 0.0,
        "y": 0.0,
        "z": 0.0,
        "w": 0.0
    }
}

{
    "m_SGVersion": 0,
    "m_Type": "UnityEditor.ShaderGraph.DynamicVectorMaterialSlot",
    "m_ObjectId": "81c5a4c7f77b4a3e85e02d230d85ff23",
    "m_Id": 0,
    "m_DisplayName": "A",
    "m_SlotType": 0,
    "m_Hidden": false,
    "m_ShaderOutputName": "A",
    "m_StageCapability": 3,
    "m_Value": {
        "x": 1.0,
        "y": 1.0,
        "z": 1.0,
        "w": 1.0
    },
    "m_DefaultValue": {
        "x": 0.0,
        "y": 0.0,
        "z": 0.0,
        "w": 0.0
    }
}

{
    "m_SGVersion": 0,
    "m_Type": "UnityEditor.Rendering.Universal.ShaderGraph.UniversalTarget",
    "m_ObjectId": "8489f3f0f02d4d40b36dd9304817af25",
    "m_ActiveSubTarget": {
        "m_Id": "e06d67c3c8424888a4c76d9a26317288"
    },
    "m_SurfaceType": 0,
    "m_AlphaMode": 0,
    "m_TwoSided": true,
    "m_AlphaClip": false,
    "m_CustomEditorGUI": ""
}

{
    "m_SGVersion": 0,
    "m_Type": "UnityEditor.ShaderGraph.Vector1MaterialSlot",
    "m_ObjectId": "89b71f17e2c54184824fac5b515e9110",
    "m_Id": 1,
    "m_DisplayName": "Offset",
    "m_SlotType": 0,
    "m_Hidden": false,
    "m_ShaderOutputName": "Offset",
    "m_StageCapability": 3,
    "m_Value": 0.0,
    "m_DefaultValue": 0.0,
    "m_Labels": []
}

{
    "m_SGVersion": 0,
    "m_Type": "UnityEditor.ShaderGraph.DynamicVectorMaterialSlot",
    "m_ObjectId": "8c830bebf06348c3999e3cc21ffce2bf",
    "m_Id": 1,
    "m_DisplayName": "B",
    "m_SlotType": 0,
    "m_Hidden": false,
    "m_ShaderOutputName": "B",
    "m_StageCapability": 3,
    "m_Value": {
        "x": 0.0,
        "y": 0.0,
        "z": 0.0,
        "w": 0.0
    },
    "m_DefaultValue": {
        "x": 0.0,
        "y": 0.0,
        "z": 0.0,
        "w": 0.0
    }
}

{
    "m_SGVersion": 0,
    "m_Type": "UnityEditor.ShaderGraph.DynamicValueMaterialSlot",
    "m_ObjectId": "90c2fc3e7997486bb119d7101bd32ecb",
    "m_Id": 2,
    "m_DisplayName": "Out",
    "m_SlotType": 1,
    "m_Hidden": false,
    "m_ShaderOutputName": "Out",
    "m_StageCapability": 3,
    "m_Value": {
        "e00": 0.0,
        "e01": 0.0,
        "e02": 0.0,
        "e03": 0.0,
        "e10": 0.0,
        "e11": 0.0,
        "e12": 0.0,
        "e13": 0.0,
        "e20": 0.0,
        "e21": 0.0,
        "e22": 0.0,
        "e23": 0.0,
        "e30": 0.0,
        "e31": 0.0,
        "e32": 0.0,
        "e33": 0.0
    },
    "m_DefaultValue": {
        "e00": 1.0,
        "e01": 0.0,
        "e02": 0.0,
        "e03": 0.0,
        "e10": 0.0,
        "e11": 1.0,
        "e12": 0.0,
        "e13": 0.0,
        "e20": 0.0,
        "e21": 0.0,
        "e22": 1.0,
        "e23": 0.0,
        "e30": 0.0,
        "e31": 0.0,
        "e32": 0.0,
        "e33": 1.0
    }
}

{
    "m_SGVersion": 3,
    "m_Type": "UnityEditor.ShaderGraph.Internal.ColorShaderProperty",
    "m_ObjectId": "922ec08d649044c09a59fc2311821d5a",
    "m_Guid": {
        "m_GuidSerialized": "d21f1563-0d45-4155-aead-6bb04ef49f11"
    },
    "m_Name": "Acido Color",
    "m_DefaultReferenceName": "Color_922ec08d649044c09a59fc2311821d5a",
    "m_OverrideReferenceName": "",
    "m_GeneratePropertyBlock": true,
    "m_Precision": 0,
    "overrideHLSLDeclaration": false,
    "hlslDeclarationOverride": 0,
    "m_Hidden": false,
    "m_Value": {
        "r": 0.11460340023040772,
        "g": 1.0,
        "b": 0.0,
        "a": 1.0
    },
    "m_ColorMode": 1
}

{
    "m_SGVersion": 0,
    "m_Type": "UnityEditor.ShaderGraph.PropertyNode",
    "m_ObjectId": "9317850c397f451698420cbebc490a66",
    "m_Group": {
        "m_Id": "6a336e6283b749dc872794a3f53945c3"
    },
    "m_Name": "Property",
    "m_DrawState": {
        "m_Expanded": true,
        "m_Position": {
            "serializedVersion": "2",
            "x": -1705.578369140625,
            "y": -2960.399658203125,
            "width": 157.0,
            "height": 34.000003814697269
        }
    },
    "m_Slots": [
        {
            "m_Id": "6177bde14db24f66bbce59a0e5ffec7b"
        }
    ],
    "synonyms": [],
    "m_Precision": 0,
    "m_PreviewExpanded": true,
    "m_PreviewMode": 0,
    "m_CustomColors": {
        "m_SerializableColors": []
    },
    "m_Property": {
        "m_Id": "da13b019aaf84b7b8208f9bc9d60d6dc"
    }
}

{
    "m_SGVersion": 3,
    "m_Type": "UnityEditor.ShaderGraph.Internal.ColorShaderProperty",
    "m_ObjectId": "961116aa0aa244c08eaded602db5cb8b",
    "m_Guid": {
        "m_GuidSerialized": "838cbfac-3f18-4ef1-8c0f-fb28fbb989b0"
    },
    "m_Name": "Base Color 1",
    "m_DefaultReferenceName": "Color_961116aa0aa244c08eaded602db5cb8b",
    "m_OverrideReferenceName": "_BaseColor1",
    "m_GeneratePropertyBlock": true,
    "m_Precision": 0,
    "overrideHLSLDeclaration": false,
    "hlslDeclarationOverride": 0,
    "m_Hidden": false,
    "m_Value": {
        "r": 0.09385792165994644,
        "g": 0.9056603908538818,
        "b": 0.029049424454569818,
        "a": 1.0
    },
    "m_ColorMode": 0
}

{
    "m_SGVersion": 0,
    "m_Type": "UnityEditor.ShaderGraph.NormalizeNode",
    "m_ObjectId": "985f054fdf674f6e92b4b0dea73c0bab",
    "m_Group": {
        "m_Id": "1d51fcee89304033a4c600e95f3c9ca9"
    },
    "m_Name": "Normalize",
    "m_DrawState": {
        "m_Expanded": true,
        "m_Position": {
            "serializedVersion": "2",
            "x": -856.5784912109375,
            "y": -2185.399658203125,
            "width": 132.0,
            "height": 94.0
        }
    },
    "m_Slots": [
        {
            "m_Id": "3921273368a14aa391a5644679927c5c"
        },
        {
            "m_Id": "750305dcf24947468cbc58b7b24dcfa4"
        }
    ],
    "synonyms": [],
    "m_Precision": 0,
    "m_PreviewExpanded": false,
    "m_PreviewMode": 0,
    "m_CustomColors": {
        "m_SerializableColors": []
    }
}

{
    "m_SGVersion": 0,
    "m_Type": "UnityEditor.ShaderGraph.UVNode",
    "m_ObjectId": "9abc84b37650415483c042cb7b21f3b1",
    "m_Group": {
        "m_Id": "a9ff840e637f46e2b5328bb6f1515ca4"
    },
    "m_Name": "UV",
    "m_DrawState": {
        "m_Expanded": true,
        "m_Position": {
            "serializedVersion": "2",
            "x": -406.0000305175781,
            "y": -2703.0,
            "width": 145.0,
            "height": 130.0
        }
    },
    "m_Slots": [
        {
            "m_Id": "7044464e6a8245b79175bb03960f4477"
        }
    ],
    "synonyms": [],
    "m_Precision": 0,
    "m_PreviewExpanded": false,
    "m_PreviewMode": 0,
    "m_CustomColors": {
        "m_SerializableColors": []
    },
    "m_OutputChannel": 0
}

{
    "m_SGVersion": 0,
    "m_Type": "UnityEditor.ShaderGraph.DynamicValueMaterialSlot",
    "m_ObjectId": "9e8e2b8602ae4505a4db4c3b87ab3416",
    "m_Id": 2,
    "m_DisplayName": "Out",
    "m_SlotType": 1,
    "m_Hidden": false,
    "m_ShaderOutputName": "Out",
    "m_StageCapability": 3,
    "m_Value": {
        "e00": 0.0,
        "e01": 0.0,
        "e02": 0.0,
        "e03": 0.0,
        "e10": 0.0,
        "e11": 0.0,
        "e12": 0.0,
        "e13": 0.0,
        "e20": 0.0,
        "e21": 0.0,
        "e22": 0.0,
        "e23": 0.0,
        "e30": 0.0,
        "e31": 0.0,
        "e32": 0.0,
        "e33": 0.0
    },
    "m_DefaultValue": {
        "e00": 1.0,
        "e01": 0.0,
        "e02": 0.0,
        "e03": 0.0,
        "e10": 0.0,
        "e11": 1.0,
        "e12": 0.0,
        "e13": 0.0,
        "e20": 0.0,
        "e21": 0.0,
        "e22": 1.0,
        "e23": 0.0,
        "e30": 0.0,
        "e31": 0.0,
        "e32": 0.0,
        "e33": 1.0
    }
}

{
    "m_SGVersion": 0,
    "m_Type": "UnityEditor.ShaderGraph.Vector1MaterialSlot",
    "m_ObjectId": "9f93be4289d245868f7fee0ca6219d58",
    "m_Id": 5,
    "m_DisplayName": "G",
    "m_SlotType": 1,
    "m_Hidden": false,
    "m_ShaderOutputName": "G",
    "m_StageCapability": 2,
    "m_Value": 0.0,
    "m_DefaultValue": 0.0,
    "m_Labels": []
}

{
    "m_SGVersion": 0,
    "m_Type": "UnityEditor.ShaderGraph.Vector4MaterialSlot",
    "m_ObjectId": "a01adfc193d74ce1959ad444808dd511",
    "m_Id": 0,
    "m_DisplayName": "Acido Color",
    "m_SlotType": 1,
    "m_Hidden": false,
    "m_ShaderOutputName": "Out",
    "m_StageCapability": 3,
    "m_Value": {
        "x": 0.0,
        "y": 0.0,
        "z": 0.0,
        "w": 0.0
    },
    "m_DefaultValue": {
        "x": 0.0,
        "y": 0.0,
        "z": 0.0,
        "w": 0.0
    },
    "m_Labels": []
}

{
    "m_SGVersion": 0,
    "m_Type": "UnityEditor.ShaderGraph.TimeNode",
    "m_ObjectId": "a4510c08b7d14d8da1f9f7e6591b3bc9",
    "m_Group": {
        "m_Id": "6a336e6283b749dc872794a3f53945c3"
    },
    "m_Name": "Time",
    "m_DrawState": {
        "m_Expanded": true,
        "m_Position": {
            "serializedVersion": "2",
            "x": -1560.578369140625,
            "y": -2483.399658203125,
            "width": 126.00000762939453,
            "height": 173.00001525878907
        }
    },
    "m_Slots": [
        {
            "m_Id": "c30c662a3abd4c13a5a4505ca6d31c42"
        },
        {
            "m_Id": "2d1bd2cde7fd46759a88b181252b2111"
        },
        {
            "m_Id": "ab121d84162d43048a9b1cf4fb8841b5"
        },
        {
            "m_Id": "2dc7e48781204a60861cd3f168daa195"
        },
        {
            "m_Id": "bc823a8738544114956e077cc0cf2ca9"
        }
    ],
    "synonyms": [],
    "m_Precision": 0,
    "m_PreviewExpanded": true,
    "m_PreviewMode": 0,
    "m_CustomColors": {
        "m_SerializableColors": []
    }
}

{
    "m_SGVersion": 0,
    "m_Type": "UnityEditor.ShaderGraph.Vector1MaterialSlot",
    "m_ObjectId": "a4eab7515b474f12817a80b460c54f38",
    "m_Id": 0,
    "m_DisplayName": "Base Gradient Power",
    "m_SlotType": 1,
    "m_Hidden": false,
    "m_ShaderOutputName": "Out",
    "m_StageCapability": 3,
    "m_Value": 0.0,
    "m_DefaultValue": 0.0,
    "m_Labels": []
}

{
    "m_SGVersion": 0,
    "m_Type": "UnityEditor.ShaderGraph.Vector2MaterialSlot",
    "m_ObjectId": "a5316f156d994801a35ce4d8d381dd90",
    "m_Id": 2,
    "m_DisplayName": "Offset",
    "m_SlotType": 0,
    "m_Hidden": false,
    "m_ShaderOutputName": "Offset",
    "m_StageCapability": 3,
    "m_Value": {
        "x": 0.0,
        "y": 0.0
    },
    "m_DefaultValue": {
        "x": 0.0,
        "y": 0.0
    },
    "m_Labels": []
}

{
    "m_SGVersion": 0,
    "m_Type": "UnityEditor.ShaderGraph.DynamicVectorMaterialSlot",
    "m_ObjectId": "a65af62700344c4b84850115018c833c",
    "m_Id": 0,
    "m_DisplayName": "In",
    "m_SlotType": 0,
    "m_Hidden": false,
    "m_ShaderOutputName": "In",
    "m_StageCapability": 3,
    "m_Value": {
        "x": 0.0,
        "y": 0.0,
        "z": 0.0,
        "w": 0.0
    },
    "m_DefaultValue": {
        "x": 0.0,
        "y": 0.0,
        "z": 0.0,
        "w": 0.0
    }
}

{
    "m_SGVersion": 1,
    "m_Type": "UnityEditor.ShaderGraph.Internal.Vector1ShaderProperty",
    "m_ObjectId": "a70f1ee782464619a9ae26177f2f3d7f",
    "m_Guid": {
        "m_GuidSerialized": "114d3e22-47c3-4502-9ccb-b075f93a9304"
    },
    "m_Name": "Noise Rotation Speed",
    "m_DefaultReferenceName": "Vector1_a70f1ee782464619a9ae26177f2f3d7f",
    "m_OverrideReferenceName": "_NoiseRotation",
    "m_GeneratePropertyBlock": true,
    "m_Precision": 0,
    "overrideHLSLDeclaration": false,
    "hlslDeclarationOverride": 0,
    "m_Hidden": false,
    "m_Value": 0.0,
    "m_FloatType": 0,
    "m_RangeValues": {
        "x": 0.0,
        "y": 1.0
    }
}

{
    "m_SGVersion": 0,
    "m_Type": "UnityEditor.ShaderGraph.MultiplyNode",
    "m_ObjectId": "a7bb6c0bd0944a5a8516cb0938e3eeee",
    "m_Group": {
        "m_Id": "6a336e6283b749dc872794a3f53945c3"
    },
    "m_Name": "Multiply",
    "m_DrawState": {
        "m_Expanded": true,
        "m_Position": {
            "serializedVersion": "2",
            "x": -1386.5784912109375,
            "y": -2531.399658203125,
            "width": 126.00000762939453,
            "height": 118.0
        }
    },
    "m_Slots": [
        {
            "m_Id": "7e3bdaaeece34ccaac6fcb1b60a6303b"
        },
        {
            "m_Id": "00f72c3579734abc95bae7c47a652888"
        },
        {
            "m_Id": "9e8e2b8602ae4505a4db4c3b87ab3416"
        }
    ],
    "synonyms": [],
    "m_Precision": 0,
    "m_PreviewExpanded": false,
    "m_PreviewMode": 0,
    "m_CustomColors": {
        "m_SerializableColors": []
    }
}

{
    "m_SGVersion": 0,
    "m_Type": "UnityEditor.ShaderGraph.Vector4MaterialSlot",
    "m_ObjectId": "a91955f400d7474d827e22ebe49d7d1b",
    "m_Id": 0,
    "m_DisplayName": "Base Color 2",
    "m_SlotType": 1,
    "m_Hidden": false,
    "m_ShaderOutputName": "Out",
    "m_StageCapability": 3,
    "m_Value": {
        "x": 0.0,
        "y": 0.0,
        "z": 0.0,
        "w": 0.0
    },
    "m_DefaultValue": {
        "x": 0.0,
        "y": 0.0,
        "z": 0.0,
        "w": 0.0
    },
    "m_Labels": []
}

{
    "m_SGVersion": 0,
    "m_Type": "UnityEditor.ShaderGraph.GroupData",
    "m_ObjectId": "a9ff840e637f46e2b5328bb6f1515ca4",
    "m_Title": "Base Color",
    "m_Position": {
        "x": -431.00006103515627,
        "y": -2762.0
    }
}

{
    "m_SGVersion": 0,
    "m_Type": "UnityEditor.ShaderGraph.Vector1MaterialSlot",
    "m_ObjectId": "ab121d84162d43048a9b1cf4fb8841b5",
    "m_Id": 2,
    "m_DisplayName": "Cosine Time",
    "m_SlotType": 1,
    "m_Hidden": false,
    "m_ShaderOutputName": "Cosine Time",
    "m_StageCapability": 3,
    "m_Value": 0.0,
    "m_DefaultValue": 0.0,
    "m_Labels": []
}

{
    "m_SGVersion": 0,
    "m_Type": "UnityEditor.ShaderGraph.DynamicVectorMaterialSlot",
    "m_ObjectId": "aff1664f605043609f01031c74b2726d",
    "m_Id": 2,
    "m_DisplayName": "Out",
    "m_SlotType": 1,
    "m_Hidden": false,
    "m_ShaderOutputName": "Out",
    "m_StageCapability": 3,
    "m_Value": {
        "x": 0.0,
        "y": 0.0,
        "z": 0.0,
        "w": 0.0
    },
    "m_DefaultValue": {
        "x": 0.0,
        "y": 0.0,
        "z": 0.0,
        "w": 0.0
    }
}

{
    "m_SGVersion": 0,
    "m_Type": "UnityEditor.ShaderGraph.PropertyNode",
    "m_ObjectId": "b27eaa4bb57545deaf1e0af9e41e0e1a",
    "m_Group": {
        "m_Id": "a9ff840e637f46e2b5328bb6f1515ca4"
    },
    "m_Name": "Property",
    "m_DrawState": {
        "m_Expanded": true,
        "m_Position": {
            "serializedVersion": "2",
            "x": -257.0,
            "y": -2543.0,
            "width": 184.00001525878907,
            "height": 34.0
        }
    },
    "m_Slots": [
        {
            "m_Id": "a4eab7515b474f12817a80b460c54f38"
        }
    ],
    "synonyms": [],
    "m_Precision": 0,
    "m_PreviewExpanded": true,
    "m_PreviewMode": 0,
    "m_CustomColors": {
        "m_SerializableColors": []
    },
    "m_Property": {
        "m_Id": "efdf6e0bbc344743b3651361a7c603ba"
    }
}

{
    "m_SGVersion": 0,
    "m_Type": "UnityEditor.ShaderGraph.Vector3MaterialSlot",
    "m_ObjectId": "b44fc278edde4cc287eb3b29ab39afc1",
    "m_Id": 0,
    "m_DisplayName": "Out",
    "m_SlotType": 1,
    "m_Hidden": false,
    "m_ShaderOutputName": "Out",
    "m_StageCapability": 3,
    "m_Value": {
        "x": 0.0,
        "y": 0.0,
        "z": 0.0
    },
    "m_DefaultValue": {
        "x": 0.0,
        "y": 0.0,
        "z": 0.0
    },
    "m_Labels": []
}

{
    "m_SGVersion": 0,
    "m_Type": "UnityEditor.ShaderGraph.DynamicVectorMaterialSlot",
    "m_ObjectId": "b69ca1b4520644398f50d1e6f74bfce9",
    "m_Id": 1,
    "m_DisplayName": "B",
    "m_SlotType": 0,
    "m_Hidden": false,
    "m_ShaderOutputName": "B",
    "m_StageCapability": 3,
    "m_Value": {
        "x": 0.0,
        "y": 1.0,
        "z": 0.0,
        "w": 0.0
    },
    "m_DefaultValue": {
        "x": 0.0,
        "y": 0.0,
        "z": 0.0,
        "w": 0.0
    }
}

{
    "m_SGVersion": 0,
    "m_Type": "UnityEditor.ShaderGraph.PositionMaterialSlot",
    "m_ObjectId": "b78a380161774b42bdc5b660c191d536",
    "m_Id": 0,
    "m_DisplayName": "Position",
    "m_SlotType": 0,
    "m_Hidden": false,
    "m_ShaderOutputName": "Position",
    "m_StageCapability": 1,
    "m_Value": {
        "x": 0.0,
        "y": 0.0,
        "z": 0.0
    },
    "m_DefaultValue": {
        "x": 0.0,
        "y": 0.0,
        "z": 0.0
    },
    "m_Labels": [],
    "m_Space": 0
}

{
    "m_SGVersion": 0,
    "m_Type": "UnityEditor.ShaderGraph.Vector1MaterialSlot",
    "m_ObjectId": "baf64fcd2f9b4ea59e8b54449254afc1",
    "m_Id": 2,
    "m_DisplayName": "Out",
    "m_SlotType": 1,
    "m_Hidden": false,
    "m_ShaderOutputName": "Out",
    "m_StageCapability": 3,
    "m_Value": 0.0,
    "m_DefaultValue": 0.0,
    "m_Labels": []
}

{
    "m_SGVersion": 0,
    "m_Type": "UnityEditor.ShaderGraph.Vector1MaterialSlot",
    "m_ObjectId": "bc823a8738544114956e077cc0cf2ca9",
    "m_Id": 4,
    "m_DisplayName": "Smooth Delta",
    "m_SlotType": 1,
    "m_Hidden": false,
    "m_ShaderOutputName": "Smooth Delta",
    "m_StageCapability": 3,
    "m_Value": 0.0,
    "m_DefaultValue": 0.0,
    "m_Labels": []
}

{
    "m_SGVersion": 0,
    "m_Type": "UnityEditor.ShaderGraph.Vector1MaterialSlot",
    "m_ObjectId": "bd3e1f29f7ea471caa9d11ff5527d4d4",
    "m_Id": 2,
    "m_DisplayName": "G",
    "m_SlotType": 1,
    "m_Hidden": false,
    "m_ShaderOutputName": "G",
    "m_StageCapability": 3,
    "m_Value": 0.0,
    "m_DefaultValue": 0.0,
    "m_Labels": []
}

{
    "m_SGVersion": 0,
    "m_Type": "UnityEditor.ShaderGraph.UVMaterialSlot",
    "m_ObjectId": "be731dd521584c1397e494162a86cc8c",
    "m_Id": 2,
    "m_DisplayName": "UV",
    "m_SlotType": 0,
    "m_Hidden": false,
    "m_ShaderOutputName": "UV",
    "m_StageCapability": 3,
    "m_Value": {
        "x": 0.0,
        "y": 0.0
    },
    "m_DefaultValue": {
        "x": 0.0,
        "y": 0.0
    },
    "m_Labels": [],
    "m_Channel": 0
}

{
    "m_SGVersion": 0,
    "m_Type": "UnityEditor.ShaderGraph.Vector4MaterialSlot",
    "m_ObjectId": "bfc0f65a17c34bab8028866399492a32",
    "m_Id": 0,
    "m_DisplayName": "Base Color 1",
    "m_SlotType": 1,
    "m_Hidden": false,
    "m_ShaderOutputName": "Out",
    "m_StageCapability": 3,
    "m_Value": {
        "x": 0.0,
        "y": 0.0,
        "z": 0.0,
        "w": 0.0
    },
    "m_DefaultValue": {
        "x": 0.0,
        "y": 0.0,
        "z": 0.0,
        "w": 0.0
    },
    "m_Labels": []
}

{
    "m_SGVersion": 0,
    "m_Type": "UnityEditor.ShaderGraph.TilingAndOffsetNode",
    "m_ObjectId": "c23af7843a3845bcbfcbd7e8d6a611d3",
    "m_Group": {
        "m_Id": "6a336e6283b749dc872794a3f53945c3"
    },
    "m_Name": "Tiling And Offset",
    "m_DrawState": {
        "m_Expanded": true,
        "m_Position": {
            "serializedVersion": "2",
            "x": -1734.5784912109375,
            "y": -2909.399658203125,
            "width": 208.0,
            "height": 326.0
        }
    },
    "m_Slots": [
        {
            "m_Id": "6850629bfbbb4896bf293f3d57b8b864"
        },
        {
            "m_Id": "0bef3b6416c64792ab8245b917f91cce"
        },
        {
            "m_Id": "a5316f156d994801a35ce4d8d381dd90"
        },
        {
            "m_Id": "62c3cfa235514e93bdfc1f1bf076ac08"
        }
    ],
    "synonyms": [],
    "m_Precision": 0,
    "m_PreviewExpanded": true,
    "m_PreviewMode": 0,
    "m_CustomColors": {
        "m_SerializableColors": []
    }
}

{
    "m_SGVersion": 0,
    "m_Type": "UnityEditor.ShaderGraph.Vector1MaterialSlot",
    "m_ObjectId": "c30c662a3abd4c13a5a4505ca6d31c42",
    "m_Id": 0,
    "m_DisplayName": "Time",
    "m_SlotType": 1,
    "m_Hidden": false,
    "m_ShaderOutputName": "Time",
    "m_StageCapability": 3,
    "m_Value": 0.0,
    "m_DefaultValue": 0.0,
    "m_Labels": []
}

{
    "m_SGVersion": 0,
    "m_Type": "UnityEditor.ShaderGraph.PropertyNode",
    "m_ObjectId": "c71240b2f475478e92b9e7ad31e1cdc9",
    "m_Group": {
        "m_Id": "6a336e6283b749dc872794a3f53945c3"
    },
    "m_Name": "Property",
    "m_DrawState": {
        "m_Expanded": true,
        "m_Position": {
            "serializedVersion": "2",
            "x": -999.578369140625,
            "y": -2703.399658203125,
            "width": 143.0,
            "height": 34.000003814697269
        }
    },
    "m_Slots": [
        {
            "m_Id": "14f39993265c4185b302ac69266ded37"
        }
    ],
    "synonyms": [],
    "m_Precision": 0,
    "m_PreviewExpanded": true,
    "m_PreviewMode": 0,
    "m_CustomColors": {
        "m_SerializableColors": []
    },
    "m_Property": {
        "m_Id": "5b4a459d58ef4a5698e0a9490925e4e7"
    }
}

{
    "m_SGVersion": 1,
    "m_Type": "UnityEditor.ShaderGraph.Internal.Vector2ShaderProperty",
    "m_ObjectId": "c83df04f699a40a98932cd8306029fa4",
    "m_Guid": {
        "m_GuidSerialized": "f045c5f4-6849-4a12-98c7-61d94b9ca102"
    },
    "m_Name": "Noise Scale",
    "m_DefaultReferenceName": "Vector2_c83df04f699a40a98932cd8306029fa4",
    "m_OverrideReferenceName": "",
    "m_GeneratePropertyBlock": true,
    "m_Precision": 0,
    "overrideHLSLDeclaration": false,
    "hlslDeclarationOverride": 0,
    "m_Hidden": false,
    "m_Value": {
        "x": 1.0,
        "y": 1.0,
        "z": 0.0,
        "w": 0.0
    }
}

{
    "m_SGVersion": 0,
    "m_Type": "UnityEditor.ShaderGraph.DynamicVectorMaterialSlot",
    "m_ObjectId": "cc526a7c940f464c8828297d7af3845d",
    "m_Id": 0,
    "m_DisplayName": "A",
    "m_SlotType": 0,
    "m_Hidden": false,
    "m_ShaderOutputName": "A",
    "m_StageCapability": 3,
    "m_Value": {
        "x": 0.0,
        "y": 0.0,
        "z": 0.0,
        "w": 0.0
    },
    "m_DefaultValue": {
        "x": 0.0,
        "y": 0.0,
        "z": 0.0,
        "w": 0.0
    }
}

{
    "m_SGVersion": 0,
    "m_Type": "UnityEditor.ShaderGraph.DynamicVectorMaterialSlot",
    "m_ObjectId": "cc677f8065a94686ab10f30e9cd8c9e3",
    "m_Id": 2,
    "m_DisplayName": "Out",
    "m_SlotType": 1,
    "m_Hidden": false,
    "m_ShaderOutputName": "Out",
    "m_StageCapability": 3,
    "m_Value": {
        "x": 0.0,
        "y": 0.0,
        "z": 0.0,
        "w": 0.0
    },
    "m_DefaultValue": {
        "x": 0.0,
        "y": 0.0,
        "z": 0.0,
        "w": 0.0
    }
}

{
    "m_SGVersion": 0,
    "m_Type": "UnityEditor.ShaderGraph.TangentMaterialSlot",
    "m_ObjectId": "cdafe7e37e6245d1a5c3306851d20420",
    "m_Id": 0,
    "m_DisplayName": "Tangent",
    "m_SlotType": 0,
    "m_Hidden": false,
    "m_ShaderOutputName": "Tangent",
    "m_StageCapability": 1,
    "m_Value": {
        "x": 0.0,
        "y": 0.0,
        "z": 0.0
    },
    "m_DefaultValue": {
        "x": 0.0,
        "y": 0.0,
        "z": 0.0
    },
    "m_Labels": [],
    "m_Space": 0
}

{
    "m_SGVersion": 3,
    "m_Type": "UnityEditor.ShaderGraph.Internal.ColorShaderProperty",
    "m_ObjectId": "d1836c1218bd44b19a78622b7292b8b2",
    "m_Guid": {
        "m_GuidSerialized": "18c26c35-19f9-45fc-99e2-52feb01702ec"
    },
    "m_Name": "Base Color 2",
    "m_DefaultReferenceName": "",
    "m_OverrideReferenceName": "_BaseColor2",
    "m_GeneratePropertyBlock": true,
    "m_Precision": 0,
    "overrideHLSLDeclaration": false,
    "hlslDeclarationOverride": 0,
    "m_Hidden": false,
    "m_Value": {
        "r": 0.9590603113174439,
        "g": 1.0,
        "b": 0.10588234663009644,
        "a": 1.0
    },
    "m_ColorMode": 0
}

{
    "m_SGVersion": 0,
    "m_Type": "UnityEditor.ShaderGraph.BlockNode",
    "m_ObjectId": "d42ad88345e3490d80ff5514542a33a3",
    "m_Group": {
        "m_Id": ""
    },
    "m_Name": "VertexDescription.Position",
    "m_DrawState": {
        "m_Expanded": true,
        "m_Position": {
            "serializedVersion": "2",
            "x": 0.0,
            "y": 0.0,
            "width": 0.0,
            "height": 0.0
        }
    },
    "m_Slots": [
        {
            "m_Id": "b78a380161774b42bdc5b660c191d536"
        }
    ],
    "synonyms": [],
    "m_Precision": 0,
    "m_PreviewExpanded": true,
    "m_PreviewMode": 0,
    "m_CustomColors": {
        "m_SerializableColors": []
    },
    "m_SerializedDescriptor": "VertexDescription.Position"
}

{
    "m_SGVersion": 0,
    "m_Type": "UnityEditor.ShaderGraph.Vector3MaterialSlot",
    "m_ObjectId": "d6fa4252b82247748040bf6d343baac5",
    "m_Id": 2,
    "m_DisplayName": "Out",
    "m_SlotType": 1,
    "m_Hidden": false,
    "m_ShaderOutputName": "Out",
    "m_StageCapability": 3,
    "m_Value": {
        "x": 0.0,
        "y": 0.0,
        "z": 0.0
    },
    "m_DefaultValue": {
        "x": 0.0,
        "y": 0.0,
        "z": 0.0
    },
    "m_Labels": []
}

{
    "m_SGVersion": 0,
    "m_Type": "UnityEditor.ShaderGraph.Texture2DInputMaterialSlot",
    "m_ObjectId": "d8ad83fb9e364e19b6736ca389936863",
    "m_Id": 1,
    "m_DisplayName": "Texture",
    "m_SlotType": 0,
    "m_Hidden": false,
    "m_ShaderOutputName": "Texture",
    "m_StageCapability": 3,
    "m_BareResource": false,
    "m_Texture": {
        "m_SerializedTexture": "{\"texture\":{\"instanceID\":0}}",
        "m_Guid": ""
    },
    "m_DefaultType": 0
}

{
    "m_SGVersion": 0,
    "m_Type": "UnityEditor.ShaderGraph.Internal.Texture2DShaderProperty",
    "m_ObjectId": "da13b019aaf84b7b8208f9bc9d60d6dc",
    "m_Guid": {
        "m_GuidSerialized": "63dc3c76-69e1-4a72-8e0a-a25ffac09ca2"
    },
    "m_Name": "Noise Texture",
    "m_DefaultReferenceName": "Texture2D_da13b019aaf84b7b8208f9bc9d60d6dc",
    "m_OverrideReferenceName": "",
    "m_GeneratePropertyBlock": true,
    "m_Precision": 0,
    "overrideHLSLDeclaration": false,
    "hlslDeclarationOverride": 2,
    "m_Hidden": false,
    "m_Value": {
        "m_SerializedTexture": "{\"texture\":{\"fileID\":2800000,\"guid\":\"54012bc7730283d4680f4879810e3757\",\"type\":3}}",
        "m_Guid": ""
    },
    "m_Modifiable": true,
    "m_DefaultType": 3
}

{
    "m_SGVersion": 0,
    "m_Type": "UnityEditor.Rendering.Universal.ShaderGraph.UniversalUnlitSubTarget",
    "m_ObjectId": "e06d67c3c8424888a4c76d9a26317288"
}

{
    "m_SGVersion": 0,
    "m_Type": "UnityEditor.ShaderGraph.Vector1MaterialSlot",
    "m_ObjectId": "e3cc40d7826248fc9c99b9797f8fc9fd",
    "m_Id": 1,
    "m_DisplayName": "R",
    "m_SlotType": 1,
    "m_Hidden": false,
    "m_ShaderOutputName": "R",
    "m_StageCapability": 3,
    "m_Value": 0.0,
    "m_DefaultValue": 0.0,
    "m_Labels": []
}

{
    "m_SGVersion": 0,
    "m_Type": "UnityEditor.ShaderGraph.SamplerStateMaterialSlot",
    "m_ObjectId": "e415a3e7b12744f49fc64063c516a393",
    "m_Id": 3,
    "m_DisplayName": "Sampler",
    "m_SlotType": 0,
    "m_Hidden": false,
    "m_ShaderOutputName": "Sampler",
    "m_StageCapability": 3,
    "m_BareResource": false
}

{
    "m_SGVersion": 0,
    "m_Type": "UnityEditor.ShaderGraph.NormalizeNode",
    "m_ObjectId": "e4b74fa5afd7428a9072d0465e5b8ee2",
    "m_Group": {
        "m_Id": "6a336e6283b749dc872794a3f53945c3"
    },
    "m_Name": "Normalize",
    "m_DrawState": {
        "m_Expanded": true,
        "m_Position": {
            "serializedVersion": "2",
            "x": -680.5785522460938,
            "y": -2786.399658203125,
            "width": 132.0,
            "height": 94.0
        }
    },
    "m_Slots": [
        {
            "m_Id": "77f22ce364ff4d83b2fb6f0934efddfb"
        },
        {
            "m_Id": "20b47ad792bd4f20b8e8f6e8f88bde62"
        }
    ],
    "synonyms": [],
    "m_Precision": 0,
    "m_PreviewExpanded": false,
    "m_PreviewMode": 0,
    "m_CustomColors": {
        "m_SerializableColors": []
    }
}

{
    "m_SGVersion": 0,
    "m_Type": "UnityEditor.ShaderGraph.DynamicValueMaterialSlot",
    "m_ObjectId": "ea0324ad6020431289c29c3dc7e2c7f1",
    "m_Id": 1,
    "m_DisplayName": "B",
    "m_SlotType": 0,
    "m_Hidden": false,
    "m_ShaderOutputName": "B",
    "m_StageCapability": 3,
    "m_Value": {
        "e00": 5.0,
        "e01": 2.0,
        "e02": 2.0,
        "e03": 2.0,
        "e10": 2.0,
        "e11": 2.0,
        "e12": 2.0,
        "e13": 2.0,
        "e20": 2.0,
        "e21": 2.0,
        "e22": 2.0,
        "e23": 2.0,
        "e30": 2.0,
        "e31": 2.0,
        "e32": 2.0,
        "e33": 2.0
    },
    "m_DefaultValue": {
        "e00": 1.0,
        "e01": 0.0,
        "e02": 0.0,
        "e03": 0.0,
        "e10": 0.0,
        "e11": 1.0,
        "e12": 0.0,
        "e13": 0.0,
        "e20": 0.0,
        "e21": 0.0,
        "e22": 1.0,
        "e23": 0.0,
        "e30": 0.0,
        "e31": 0.0,
        "e32": 0.0,
        "e33": 1.0
    }
}

{
    "m_SGVersion": 0,
    "m_Type": "UnityEditor.ShaderGraph.Vector1MaterialSlot",
    "m_ObjectId": "ee612befe0c243dbbc131c239067092c",
    "m_Id": 0,
    "m_DisplayName": "Noise Rotation Speed",
    "m_SlotType": 1,
    "m_Hidden": false,
    "m_ShaderOutputName": "Out",
    "m_StageCapability": 3,
    "m_Value": 0.0,
    "m_DefaultValue": 0.0,
    "m_Labels": []
}

{
    "m_SGVersion": 1,
    "m_Type": "UnityEditor.ShaderGraph.Internal.Vector1ShaderProperty",
    "m_ObjectId": "efdf6e0bbc344743b3651361a7c603ba",
    "m_Guid": {
        "m_GuidSerialized": "fee6a051-d9c9-4118-91a1-0a7213a5268e"
    },
    "m_Name": "Base Gradient Power",
    "m_DefaultReferenceName": "",
    "m_OverrideReferenceName": "_BaseGradientPower",
    "m_GeneratePropertyBlock": true,
    "m_Precision": 0,
    "overrideHLSLDeclaration": false,
    "hlslDeclarationOverride": 0,
    "m_Hidden": false,
    "m_Value": 3.0,
    "m_FloatType": 0,
    "m_RangeValues": {
        "x": 0.0,
        "y": 1.0
    }
}

{
    "m_SGVersion": 0,
    "m_Type": "UnityEditor.ShaderGraph.Vector3MaterialSlot",
    "m_ObjectId": "f074af01608248edb48a90f45990772b",
    "m_Id": 0,
    "m_DisplayName": "In",
    "m_SlotType": 0,
    "m_Hidden": false,
    "m_ShaderOutputName": "In",
    "m_StageCapability": 3,
    "m_Value": {
        "x": 0.0,
        "y": 0.0,
        "z": 0.0
    },
    "m_DefaultValue": {
        "x": 0.0,
        "y": 0.0,
        "z": 0.0
    },
    "m_Labels": []
}

{
    "m_SGVersion": 0,
    "m_Type": "UnityEditor.ShaderGraph.Vector1MaterialSlot",
    "m_ObjectId": "f20da6285349402fbdca2741f45b877e",
    "m_Id": 4,
    "m_DisplayName": "A",
    "m_SlotType": 1,
    "m_Hidden": false,
    "m_ShaderOutputName": "A",
    "m_StageCapability": 3,
    "m_Value": 0.0,
    "m_DefaultValue": 0.0,
    "m_Labels": []
}

{
    "m_SGVersion": 0,
    "m_Type": "UnityEditor.ShaderGraph.DynamicVectorMaterialSlot",
    "m_ObjectId": "f92d28c992af46ecb74c9e67a5ec68dc",
    "m_Id": 1,
    "m_DisplayName": "B",
    "m_SlotType": 0,
    "m_Hidden": false,
    "m_ShaderOutputName": "B",
    "m_StageCapability": 3,
    "m_Value": {
        "x": 3.0,
        "y": 2.0,
        "z": 2.0,
        "w": 2.0
    },
    "m_DefaultValue": {
        "x": 0.0,
        "y": 0.0,
        "z": 0.0,
        "w": 0.0
    }
}

{
    "m_SGVersion": 0,
    "m_Type": "UnityEditor.ShaderGraph.PropertyNode",
    "m_ObjectId": "fc34321ac7e047f3bbfd3cf64fa41212",
    "m_Group": {
        "m_Id": "6ad626b3970043d8beecf4484a9e2e13"
    },
    "m_Name": "Property",
    "m_DrawState": {
        "m_Expanded": true,
        "m_Position": {
            "serializedVersion": "2",
            "x": 58.42144775390625,
            "y": -2221.399658203125,
            "width": 142.0,
            "height": 34.0
        }
    },
    "m_Slots": [
        {
            "m_Id": "a01adfc193d74ce1959ad444808dd511"
        }
    ],
    "synonyms": [],
    "m_Precision": 0,
    "m_PreviewExpanded": true,
    "m_PreviewMode": 0,
    "m_CustomColors": {
        "m_SerializableColors": []
    },
    "m_Property": {
        "m_Id": "922ec08d649044c09a59fc2311821d5a"
    }
}

{
    "m_SGVersion": 0,
    "m_Type": "UnityEditor.ShaderGraph.DotProductNode",
    "m_ObjectId": "ffa60b26d26b4f0391a24303aeafc611",
    "m_Group": {
        "m_Id": "6ad626b3970043d8beecf4484a9e2e13"
    },
    "m_Name": "Dot Product",
    "m_DrawState": {
        "m_Expanded": true,
        "m_Position": {
            "serializedVersion": "2",
            "x": -408.57830810546877,
            "y": -2353.399658203125,
            "width": 207.99998474121095,
            "height": 302.0
        }
    },
    "m_Slots": [
        {
            "m_Id": "22676cb5d0cd4db69fadd5ee032112a5"
        },
        {
            "m_Id": "b69ca1b4520644398f50d1e6f74bfce9"
        },
        {
            "m_Id": "baf64fcd2f9b4ea59e8b54449254afc1"
        }
    ],
    "synonyms": [],
    "m_Precision": 0,
    "m_PreviewExpanded": true,
    "m_PreviewMode": 0,
    "m_CustomColors": {
        "m_SerializableColors": []
    }
}

