%YAML 1.1
%TAG !u! tag:unity3d.com,2011:
--- !u!114 &11400000
MonoBehaviour:
  m_ObjectHideFlags: 0
  m_CorrespondingSourceObject: {fileID: 0}
  m_PrefabInstance: {fileID: 0}
  m_PrefabAsset: {fileID: 0}
  m_GameObject: {fileID: 0}
  m_Enabled: 1
  m_EditorHideFlags: 0
  m_Script: {fileID: 11500000, guid: 6d2eefea5e490414eae3b1e531b73e28, type: 3}
  m_Name: ametralladora
  m_EditorClassIdentifier: 
  cadenciaTime: 0.01
  ReloadTime: 10
  rango: 50
  balasMaximas: 500
  dispersion: 0.05
  numBalasDisparo: 1
  damage: 10
  mirilla: {fileID: 2800000, guid: 5c98476bdaf6b9147bbfc6e3d984ca09, type: 3}
